%!PS-Adobe-2.0 EPSF-2.0
%%Title: 06-simprot2.fig
%%Creator: fig2dev Version 3.2 Patchlevel 4
%%CreationDate: Mon Mar 14 03:21:46 2005
%%For: ajurisic@bike ()
%%BoundingBox: 0 0 295 354
%%Magnification: 1.0000
%%EndComments
/$F2psDict 200 dict def
$F2psDict begin
$F2psDict /mtrx matrix put
/col-1 {0 setgray} bind def
/col0 {0.000 0.000 0.000 srgb} bind def
/col1 {0.000 0.000 1.000 srgb} bind def
/col2 {0.000 1.000 0.000 srgb} bind def
/col3 {0.000 1.000 1.000 srgb} bind def
/col4 {1.000 0.000 0.000 srgb} bind def
/col5 {1.000 0.000 1.000 srgb} bind def
/col6 {1.000 1.000 0.000 srgb} bind def
/col7 {1.000 1.000 1.000 srgb} bind def
/col8 {0.000 0.000 0.560 srgb} bind def
/col9 {0.000 0.000 0.690 srgb} bind def
/col10 {0.000 0.000 0.820 srgb} bind def
/col11 {0.530 0.810 1.000 srgb} bind def
/col12 {0.000 0.560 0.000 srgb} bind def
/col13 {0.000 0.690 0.000 srgb} bind def
/col14 {0.000 0.820 0.000 srgb} bind def
/col15 {0.000 0.560 0.560 srgb} bind def
/col16 {0.000 0.690 0.690 srgb} bind def
/col17 {0.000 0.820 0.820 srgb} bind def
/col18 {0.560 0.000 0.000 srgb} bind def
/col19 {0.690 0.000 0.000 srgb} bind def
/col20 {0.820 0.000 0.000 srgb} bind def
/col21 {0.560 0.000 0.560 srgb} bind def
/col22 {0.690 0.000 0.690 srgb} bind def
/col23 {0.820 0.000 0.820 srgb} bind def
/col24 {0.500 0.190 0.000 srgb} bind def
/col25 {0.630 0.250 0.000 srgb} bind def
/col26 {0.750 0.380 0.000 srgb} bind def
/col27 {1.000 0.500 0.500 srgb} bind def
/col28 {1.000 0.630 0.630 srgb} bind def
/col29 {1.000 0.750 0.750 srgb} bind def
/col30 {1.000 0.880 0.880 srgb} bind def
/col31 {1.000 0.840 0.000 srgb} bind def

end
save
newpath 0 354 moveto 0 0 lineto 295 0 lineto 295 354 lineto closepath clip newpath
-82.3 406.4 translate
1 -1 scale

/cp {closepath} bind def
/ef {eofill} bind def
/gr {grestore} bind def
/gs {gsave} bind def
/sa {save} bind def
/rs {restore} bind def
/l {lineto} bind def
/m {moveto} bind def
/rm {rmoveto} bind def
/n {newpath} bind def
/s {stroke} bind def
/sh {show} bind def
/slc {setlinecap} bind def
/slj {setlinejoin} bind def
/slw {setlinewidth} bind def
/srgb {setrgbcolor} bind def
/rot {rotate} bind def
/sc {scale} bind def
/sd {setdash} bind def
/ff {findfont} bind def
/sf {setfont} bind def
/scf {scalefont} bind def
/sw {stringwidth} bind def
/tr {translate} bind def
/tnt {dup dup currentrgbcolor
  4 -2 roll dup 1 exch sub 3 -1 roll mul add
  4 -2 roll dup 1 exch sub 3 -1 roll mul add
  4 -2 roll dup 1 exch sub 3 -1 roll mul add srgb}
  bind def
/shd {dup dup currentrgbcolor 4 -2 roll mul 4 -2 roll mul
  4 -2 roll mul srgb} bind def
 /DrawEllipse {
	/endangle exch def
	/startangle exch def
	/yrad exch def
	/xrad exch def
	/y exch def
	/x exch def
	/savematrix mtrx currentmatrix def
	x y tr xrad yrad sc 0 0 1 startangle endangle arc
	closepath
	savematrix setmatrix
	} def

/$F2psBegin {$F2psDict begin /$F2psEnteredState save def} def
/$F2psEnd {$F2psEnteredState restore end} def

$F2psBegin
10 setmiterlimit
0 slj 0 slc
 0.06000 0.06000 sc
%
% Fig objects follow
%
% 
% here starts figure with depth 60
% Polyline
7.500 slw
n 4725 3300 m 6274 3300 l 6274 6762 l 4725 6762 l
 cp gs col31 1.00 shd ef gr gs col0 s gr 
% Polyline
n 3075 900 m 4725 900 l 4725 2550 l 3075 2550 l
 cp gs col11 1.00 shd ef gr gs col0 s gr 
% Polyline
n 1384 3300 m 3000 3300 l 3000 6762 l 1384 6762 l
 cp gs col31 1.00 shd ef gr gs col0 s gr 
% here ends figure;
% 
% here starts figure with depth 50
/Times-Italic ff 150.00 scf sf
1843 2566 m
gs 1 -1 sc (A) col0 sh gr
/Times-Italic ff 270.00 scf sf
2031 2461 m
gs 1 -1 sc (Z, B) col0 sh gr
/Times-Italic ff 270.00 scf sf
1595 2453 m
gs 1 -1 sc (e) col0 sh gr
/Times-Roman ff 270.00 scf sf
1954 2447 m
gs 1 -1 sc (\(       \)) col0 sh gr
/Times-Italic ff 180.00 scf sf
1723 2527 m
gs 1 -1 sc (K) col0 sh gr
/Times-Roman ff 360.00 scf sf
3784 5380 m
gs 1 -1 sc (\(OK \)) col0 sh gr
/Times-Italic ff 180.00 scf sf
3518 5444 m
gs 1 -1 sc (K) col0 sh gr
/Times-Italic ff 270.00 scf sf
3380 5362 m
gs 1 -1 sc (e) col0 sh gr
/Times-Italic ff 150.00 scf sf
3647 5484 m
gs 1 -1 sc (S) col0 sh gr
/Times-Roman ff 360.00 scf sf
3957 5900 m
gs 1 -1 sc (\(...\)) col0 sh gr
/Times-Italic ff 180.00 scf sf
3702 5975 m
gs 1 -1 sc (K) col0 sh gr
/Times-Italic ff 270.00 scf sf
3580 5902 m
gs 1 -1 sc (e) col0 sh gr
/Times-Italic ff 150.00 scf sf
3816 6010 m
gs 1 -1 sc (S) col0 sh gr
% Polyline
7.500 slw
 [60] 0 sd
n 1390 5007 m
 6197 5007 l gs col0 s gr  [] 0 sd
% Polyline
gs  clippath
5101 6076 m 5101 6016 l 4949 6016 l 5069 6046 l 4949 6076 l cp
2569 6016 m 2569 6076 l 2721 6076 l 2601 6046 l 2721 6016 l cp
eoclip
n 2584 6046 m
 5086 6046 l gs col0 s gr gr

% arrowhead
n 2721 6016 m 2601 6046 l 2721 6076 l  col0 s
% arrowhead
n 4949 6076 m 5069 6046 l 4949 6016 l  col0 s
% Polyline
gs  clippath
3317 1323 m 3267 1289 l 3183 1416 l 3275 1333 l 3233 1449 l cp
eoclip
n 1595 3870 m
 3284 1319 l gs col0 s gr gr

% arrowhead
n 3233 1449 m 3275 1333 l 3183 1416 l  col0 s
% Polyline
gs  clippath
5488 3886 m 5540 3855 l 5464 3725 l 5499 3844 l 5412 3755 l cp
eoclip
n 4550 2217 m
 5507 3858 l gs col0 s gr gr

% arrowhead
n 5412 3755 m 5499 3844 l 5464 3725 l  col0 s
% Polyline
gs  clippath
2095 3848 m 2146 3880 l 2227 3752 l 2138 3838 l 2176 3720 l cp
eoclip
n 3216 2116 m
 2129 3852 l gs col0 s gr gr

% arrowhead
n 2176 3720 m 2138 3838 l 2227 3752 l  col0 s
% Polyline
gs  clippath
2564 5517 m 2564 5577 l 2716 5577 l 2596 5547 l 2716 5517 l cp
eoclip
n 5025 5547 m
 2579 5547 l gs col0 s gr gr

% arrowhead
n 2716 5517 m 2596 5547 l 2716 5577 l  col0 s
/Times-Roman ff 360.00 scf sf
3316 1314 m
gs 1 -1 sc (Center) col0 sh gr
/Times-Roman ff 360.00 scf sf
1644 4257 m
gs 1 -1 sc (Anita) col0 sh gr
/Times-Roman ff 360.00 scf sf
4963 4246 m
gs 1 -1 sc (Bojan) col0 sh gr
/Times-Italic ff 255.00 scf sf
3384 1837 m
gs 1 -1 sc (K) col0 sh gr
/Times-Italic ff 255.00 scf sf
4038 1840 m
gs 1 -1 sc (K) col0 sh gr
/Times-Italic ff 255.00 scf sf
3614 2302 m
gs 1 -1 sc (K) col0 sh gr
/Times-Italic ff 180.00 scf sf
5279 3235 m
gs 1 -1 sc (K) col0 sh gr
/Times-Italic ff 150.00 scf sf
5386 3272 m
gs 1 -1 sc (B) col0 sh gr
/Times-Italic ff 240.00 scf sf
5662 4901 m
gs 1 -1 sc (K) col0 sh gr
/Times-Italic ff 150.00 scf sf
5818 4955 m
gs 1 -1 sc (B) col0 sh gr
/Times-Italic ff 255.00 scf sf
1595 4829 m
gs 1 -1 sc (K) col0 sh gr
/Times-Italic ff 270.00 scf sf
5162 3163 m
gs 1 -1 sc (e) col0 sh gr
/Times-Italic ff 150.00 scf sf
3582 1878 m
gs 1 -1 sc (A) col0 sh gr
/Times-Italic ff 240.00 scf sf
5873 3159 m
gs 1 -1 sc (, A) col0 sh gr
/Times-Italic ff 180.00 scf sf
2761 3250 m
gs 1 -1 sc (K) col0 sh gr
/Times-Italic ff 270.00 scf sf
2658 3188 m
gs 1 -1 sc (e) col0 sh gr
/Times-Italic ff 105.00 scf sf
2857 3280 m
gs 1 -1 sc (A) col0 sh gr
/Times-Italic ff 255.00 scf sf
2984 3203 m
gs 1 -1 sc (K) col0 sh gr
/Times-Roman ff 225.00 scf sf
2935 3184 m
gs 1 -1 sc (\(    \)) col0 sh gr
/Times-Italic ff 240.00 scf sf
5558 3159 m
gs 1 -1 sc (K) col0 sh gr
/Times-Roman ff 270.00 scf sf
5460 3131 m
gs 1 -1 sc (\(         \)) col0 sh gr
/Times-Italic ff 150.00 scf sf
1789 4884 m
gs 1 -1 sc (A) col0 sh gr
/Times-Italic ff 150.00 scf sf
3828 2368 m
gs 1 -1 sc (S) col0 sh gr
/Times-Italic ff 150.00 scf sf
4242 1879 m
gs 1 -1 sc (B) col0 sh gr
/Times-Roman ff 270.00 scf sf
2860 2851 m
gs 1 -1 sc (Generiranje kljuca) col0 sh gr
/Times-Italic ff 180.00 scf sf
3138 3253 m
gs 1 -1 sc (S) col0 sh gr
/Times-Italic ff 180.00 scf sf
5717 3226 m
gs 1 -1 sc (S) col0 sh gr
/Times-Roman ff 75.00 scf sf
3898 2691 m
gs 1 -1 sc (                                         v) col0 sh gr
% here ends figure;
% 
% here starts figure with depth 20
% Ellipse
7.500 slw
n 1991 2111 124 124 0 360 DrawEllipse gs 0.00 setgray ef gr gs col0 s gr

% Ellipse
n 4901 3134 124 124 0 360 DrawEllipse gs 0.00 setgray ef gr gs col0 s gr

% Ellipse
n 2371 3136 124 124 0 360 DrawEllipse gs 0.00 setgray ef gr gs col0 s gr

% Ellipse
n 3301 5846 124 124 0 360 DrawEllipse gs 0.00 setgray ef gr gs col0 s gr

% Ellipse
n 3189 5306 124 124 0 360 DrawEllipse gs 0.00 setgray ef gr gs col0 s gr

% here ends figure;
% 
% here starts figure with depth 5
/Times-Roman ff 180.00 scf sf
1957 2162 m
gs 1 -1 sc (1) col7 sh gr
/Times-Roman ff 180.00 scf sf
4861 3189 m
gs 1 -1 sc (2) col7 sh gr
/Times-Roman ff 180.00 scf sf
2331 3191 m
gs 1 -1 sc (2) col7 sh gr
/Times-Roman ff 180.00 scf sf
3254 5896 m
gs 1 -1 sc (4) col7 sh gr
/Times-Roman ff 180.00 scf sf
3155 5362 m
gs 1 -1 sc (3) col7 sh gr
% here ends figure;
$F2psEnd
rs
showpage
