%!PS-Adobe-2.0 EPSF-2.0
%%Title: 07-nabiralnik.fig
%%Creator: fig2dev Version 3.2 Patchlevel 4
%%CreationDate: Fri Mar  4 00:20:26 2005
%%For: ajurisic@bike ()
%%BoundingBox: 0 0 290 258
%%Magnification: 1.0000
%%EndComments
/$F2psDict 200 dict def
$F2psDict begin
$F2psDict /mtrx matrix put
/col-1 {0 setgray} bind def
/col0 {0.000 0.000 0.000 srgb} bind def
/col1 {0.000 0.000 1.000 srgb} bind def
/col2 {0.000 1.000 0.000 srgb} bind def
/col3 {0.000 1.000 1.000 srgb} bind def
/col4 {1.000 0.000 0.000 srgb} bind def
/col5 {1.000 0.000 1.000 srgb} bind def
/col6 {1.000 1.000 0.000 srgb} bind def
/col7 {1.000 1.000 1.000 srgb} bind def
/col8 {0.000 0.000 0.560 srgb} bind def
/col9 {0.000 0.000 0.690 srgb} bind def
/col10 {0.000 0.000 0.820 srgb} bind def
/col11 {0.530 0.810 1.000 srgb} bind def
/col12 {0.000 0.560 0.000 srgb} bind def
/col13 {0.000 0.690 0.000 srgb} bind def
/col14 {0.000 0.820 0.000 srgb} bind def
/col15 {0.000 0.560 0.560 srgb} bind def
/col16 {0.000 0.690 0.690 srgb} bind def
/col17 {0.000 0.820 0.820 srgb} bind def
/col18 {0.560 0.000 0.000 srgb} bind def
/col19 {0.690 0.000 0.000 srgb} bind def
/col20 {0.820 0.000 0.000 srgb} bind def
/col21 {0.560 0.000 0.560 srgb} bind def
/col22 {0.690 0.000 0.690 srgb} bind def
/col23 {0.820 0.000 0.820 srgb} bind def
/col24 {0.500 0.190 0.000 srgb} bind def
/col25 {0.630 0.250 0.000 srgb} bind def
/col26 {0.750 0.380 0.000 srgb} bind def
/col27 {1.000 0.500 0.500 srgb} bind def
/col28 {1.000 0.630 0.630 srgb} bind def
/col29 {1.000 0.750 0.750 srgb} bind def
/col30 {1.000 0.880 0.880 srgb} bind def
/col31 {1.000 0.840 0.000 srgb} bind def
/col32 {0.797 0.797 0.797 srgb} bind def
/col33 {0.797 0.797 0.797 srgb} bind def
/col34 {0.797 0.797 0.797 srgb} bind def
/col35 {0.797 0.797 0.797 srgb} bind def
/col36 {0.797 0.797 0.797 srgb} bind def
/col37 {0.797 0.797 0.797 srgb} bind def
/col38 {0.797 0.797 0.797 srgb} bind def
/col39 {0.797 0.797 0.797 srgb} bind def
/col40 {0.797 0.797 0.797 srgb} bind def
/col41 {0.797 0.797 0.797 srgb} bind def
/col42 {0.797 0.797 0.797 srgb} bind def
/col43 {0.797 0.797 0.797 srgb} bind def
/col44 {0.797 0.797 0.797 srgb} bind def
/col45 {0.797 0.797 0.797 srgb} bind def
/col46 {0.797 0.797 0.797 srgb} bind def
/col47 {0.797 0.797 0.797 srgb} bind def
/col48 {0.797 0.797 0.797 srgb} bind def
/col49 {0.797 0.797 0.797 srgb} bind def
/col50 {0.797 0.797 0.797 srgb} bind def
/col51 {0.797 0.797 0.797 srgb} bind def
/col52 {0.797 0.797 0.797 srgb} bind def
/col53 {0.797 0.797 0.797 srgb} bind def
/col54 {0.797 0.797 0.797 srgb} bind def
/col55 {0.797 0.797 0.797 srgb} bind def
/col56 {0.797 0.797 0.797 srgb} bind def
/col57 {0.809 0.809 0.809 srgb} bind def
/col58 {0.809 0.809 0.809 srgb} bind def
/col59 {0.797 0.797 0.797 srgb} bind def
/col60 {0.598 0.598 0.598 srgb} bind def
/col61 {0.797 0.797 0.797 srgb} bind def
/col62 {0.598 0.598 0.598 srgb} bind def
/col63 {0.695 0.695 0.695 srgb} bind def
/col64 {0.797 0.797 0.797 srgb} bind def
/col65 {0.250 0.250 0.250 srgb} bind def
/col66 {0.500 0.500 0.500 srgb} bind def
/col67 {0.750 0.750 0.750 srgb} bind def
/col68 {0.500 0.500 0.500 srgb} bind def
/col69 {0.750 0.750 0.750 srgb} bind def
/col70 {0.875 0.875 0.875 srgb} bind def
/col71 {0.555 0.559 0.555 srgb} bind def
/col72 {0.555 0.559 0.555 srgb} bind def
/col73 {0.250 0.250 0.250 srgb} bind def
/col74 {0.500 0.500 0.500 srgb} bind def
/col75 {0.750 0.750 0.750 srgb} bind def
/col76 {0.875 0.875 0.875 srgb} bind def
/col77 {0.773 0.715 0.590 srgb} bind def
/col78 {0.934 0.969 0.996 srgb} bind def
/col79 {0.859 0.793 0.648 srgb} bind def
/col80 {0.664 0.664 0.664 srgb} bind def
/col81 {0.332 0.332 0.332 srgb} bind def
/col82 {0.555 0.559 0.555 srgb} bind def
/col83 {0.250 0.250 0.250 srgb} bind def
/col84 {0.500 0.500 0.500 srgb} bind def
/col85 {0.750 0.750 0.750 srgb} bind def
/col86 {0.875 0.875 0.875 srgb} bind def
/col87 {0.250 0.250 0.250 srgb} bind def
/col88 {0.500 0.500 0.500 srgb} bind def
/col89 {0.750 0.750 0.750 srgb} bind def
/col90 {0.875 0.875 0.875 srgb} bind def
/col91 {0.500 0.500 0.500 srgb} bind def
/col92 {0.750 0.750 0.750 srgb} bind def
/col93 {0.875 0.875 0.875 srgb} bind def
/col94 {0.250 0.250 0.250 srgb} bind def
/col95 {0.500 0.500 0.500 srgb} bind def
/col96 {0.750 0.750 0.750 srgb} bind def
/col97 {0.250 0.250 0.250 srgb} bind def
/col98 {0.750 0.750 0.750 srgb} bind def
/col99 {0.875 0.875 0.875 srgb} bind def
/col100 {0.250 0.250 0.250 srgb} bind def
/col101 {0.500 0.500 0.500 srgb} bind def
/col102 {0.750 0.750 0.750 srgb} bind def
/col103 {0.555 0.559 0.555 srgb} bind def
/col104 {0.250 0.250 0.250 srgb} bind def
/col105 {0.500 0.500 0.500 srgb} bind def
/col106 {0.750 0.750 0.750 srgb} bind def
/col107 {0.875 0.875 0.875 srgb} bind def
/col108 {0.250 0.250 0.250 srgb} bind def
/col109 {0.500 0.500 0.500 srgb} bind def
/col110 {0.750 0.750 0.750 srgb} bind def
/col111 {0.875 0.875 0.875 srgb} bind def
/col112 {0.250 0.250 0.250 srgb} bind def
/col113 {0.500 0.500 0.500 srgb} bind def
/col114 {0.750 0.750 0.750 srgb} bind def
/col115 {0.875 0.875 0.875 srgb} bind def
/col116 {0.000 0.000 0.473 srgb} bind def
/col117 {0.000 0.000 0.473 srgb} bind def
/col118 {0.996 0.508 0.000 srgb} bind def
/col119 {0.000 0.488 0.000 srgb} bind def
/col120 {0.000 0.488 0.000 srgb} bind def
/col121 {0.000 0.000 0.742 srgb} bind def
/col122 {0.000 0.000 0.473 srgb} bind def
/col123 {0.000 0.488 0.000 srgb} bind def
/col124 {0.266 0.266 0.266 srgb} bind def
/col125 {0.555 0.559 0.555 srgb} bind def
/col126 {0.266 0.266 0.266 srgb} bind def
/col127 {0.555 0.559 0.555 srgb} bind def
/col128 {0.266 0.266 0.266 srgb} bind def
/col129 {0.555 0.559 0.555 srgb} bind def
/col130 {0.266 0.266 0.266 srgb} bind def
/col131 {0.555 0.559 0.555 srgb} bind def
/col132 {0.266 0.266 0.266 srgb} bind def
/col133 {0.555 0.559 0.555 srgb} bind def
/col134 {0.266 0.266 0.266 srgb} bind def
/col135 {0.555 0.559 0.555 srgb} bind def
/col136 {0.266 0.266 0.266 srgb} bind def
/col137 {0.555 0.559 0.555 srgb} bind def
/col138 {0.266 0.266 0.266 srgb} bind def
/col139 {0.555 0.559 0.555 srgb} bind def
/col140 {0.266 0.266 0.266 srgb} bind def
/col141 {0.555 0.559 0.555 srgb} bind def
/col142 {0.500 0.500 0.500 srgb} bind def
/col143 {0.750 0.750 0.750 srgb} bind def
/col144 {0.875 0.875 0.875 srgb} bind def
/col145 {0.555 0.555 0.555 srgb} bind def
/col146 {0.555 0.559 0.555 srgb} bind def
/col147 {0.555 0.559 0.555 srgb} bind def
/col148 {0.555 0.555 0.555 srgb} bind def
/col149 {0.266 0.266 0.266 srgb} bind def
/col150 {0.555 0.555 0.555 srgb} bind def
/col151 {0.555 0.555 0.555 srgb} bind def
/col152 {0.523 0.508 0.523 srgb} bind def
/col153 {0.777 0.762 0.777 srgb} bind def
/col154 {0.555 0.555 0.555 srgb} bind def
/col155 {0.555 0.555 0.555 srgb} bind def
/col156 {0.254 0.254 0.254 srgb} bind def
/col157 {0.777 0.762 0.777 srgb} bind def
/col158 {0.902 0.887 0.902 srgb} bind def
/col159 {0.934 0.980 0.996 srgb} bind def
/col160 {0.902 0.887 0.902 srgb} bind def
/col161 {0.555 0.555 0.555 srgb} bind def
/col162 {0.266 0.266 0.266 srgb} bind def
/col163 {0.664 0.664 0.664 srgb} bind def
/col164 {0.555 0.555 0.555 srgb} bind def
/col165 {0.266 0.266 0.266 srgb} bind def
/col166 {0.664 0.664 0.664 srgb} bind def
/col167 {0.332 0.332 0.332 srgb} bind def
/col168 {0.555 0.555 0.555 srgb} bind def
/col169 {0.266 0.266 0.266 srgb} bind def
/col170 {0.750 0.750 0.750 srgb} bind def
/col171 {0.875 0.875 0.875 srgb} bind def
/col172 {0.555 0.555 0.555 srgb} bind def
/col173 {0.266 0.266 0.266 srgb} bind def
/col174 {0.555 0.555 0.555 srgb} bind def
/col175 {0.266 0.266 0.266 srgb} bind def
/col176 {0.555 0.555 0.555 srgb} bind def
/col177 {0.266 0.266 0.266 srgb} bind def
/col178 {0.500 0.500 0.500 srgb} bind def
/col179 {0.750 0.750 0.750 srgb} bind def
/col180 {0.875 0.875 0.875 srgb} bind def
/col181 {0.750 0.750 0.750 srgb} bind def
/col182 {0.875 0.875 0.875 srgb} bind def
/col183 {0.555 0.555 0.555 srgb} bind def
/col184 {0.500 0.500 0.500 srgb} bind def
/col185 {0.750 0.750 0.750 srgb} bind def
/col186 {0.875 0.875 0.875 srgb} bind def
/col187 {0.555 0.555 0.555 srgb} bind def
/col188 {0.555 0.559 0.555 srgb} bind def
/col189 {0.555 0.559 0.555 srgb} bind def
/col190 {0.555 0.555 0.555 srgb} bind def
/col191 {0.266 0.266 0.266 srgb} bind def
/col192 {0.555 0.555 0.555 srgb} bind def
/col193 {0.555 0.555 0.555 srgb} bind def
/col194 {0.523 0.508 0.523 srgb} bind def
/col195 {0.777 0.762 0.777 srgb} bind def
/col196 {0.555 0.555 0.555 srgb} bind def
/col197 {0.555 0.555 0.555 srgb} bind def
/col198 {0.254 0.254 0.254 srgb} bind def
/col199 {0.777 0.762 0.777 srgb} bind def
/col200 {0.902 0.887 0.902 srgb} bind def
/col201 {0.934 0.980 0.996 srgb} bind def
/col202 {0.902 0.887 0.902 srgb} bind def
/col203 {0.555 0.555 0.555 srgb} bind def
/col204 {0.266 0.266 0.266 srgb} bind def
/col205 {0.664 0.664 0.664 srgb} bind def
/col206 {0.555 0.555 0.555 srgb} bind def
/col207 {0.266 0.266 0.266 srgb} bind def
/col208 {0.664 0.664 0.664 srgb} bind def
/col209 {0.332 0.332 0.332 srgb} bind def
/col210 {0.555 0.555 0.555 srgb} bind def
/col211 {0.266 0.266 0.266 srgb} bind def
/col212 {0.750 0.750 0.750 srgb} bind def
/col213 {0.875 0.875 0.875 srgb} bind def
/col214 {0.555 0.555 0.555 srgb} bind def
/col215 {0.266 0.266 0.266 srgb} bind def
/col216 {0.555 0.555 0.555 srgb} bind def
/col217 {0.266 0.266 0.266 srgb} bind def
/col218 {0.555 0.555 0.555 srgb} bind def
/col219 {0.266 0.266 0.266 srgb} bind def
/col220 {0.500 0.500 0.500 srgb} bind def
/col221 {0.750 0.750 0.750 srgb} bind def
/col222 {0.875 0.875 0.875 srgb} bind def
/col223 {0.750 0.750 0.750 srgb} bind def
/col224 {0.875 0.875 0.875 srgb} bind def

end
save
newpath 0 258 moveto 0 0 lineto 290 0 lineto 290 258 lineto closepath clip newpath
-66.8 342.7 translate
1 -1 scale

/cp {closepath} bind def
/ef {eofill} bind def
/gr {grestore} bind def
/gs {gsave} bind def
/sa {save} bind def
/rs {restore} bind def
/l {lineto} bind def
/m {moveto} bind def
/rm {rmoveto} bind def
/n {newpath} bind def
/s {stroke} bind def
/sh {show} bind def
/slc {setlinecap} bind def
/slj {setlinejoin} bind def
/slw {setlinewidth} bind def
/srgb {setrgbcolor} bind def
/rot {rotate} bind def
/sc {scale} bind def
/sd {setdash} bind def
/ff {findfont} bind def
/sf {setfont} bind def
/scf {scalefont} bind def
/sw {stringwidth} bind def
/tr {translate} bind def
/tnt {dup dup currentrgbcolor
  4 -2 roll dup 1 exch sub 3 -1 roll mul add
  4 -2 roll dup 1 exch sub 3 -1 roll mul add
  4 -2 roll dup 1 exch sub 3 -1 roll mul add srgb}
  bind def
/shd {dup dup currentrgbcolor 4 -2 roll mul 4 -2 roll mul
  4 -2 roll mul srgb} bind def
/reencdict 12 dict def /ReEncode { reencdict begin
/newcodesandnames exch def /newfontname exch def /basefontname exch def
/basefontdict basefontname findfont def /newfont basefontdict maxlength dict def
basefontdict { exch dup /FID ne { dup /Encoding eq
{ exch dup length array copy newfont 3 1 roll put }
{ exch newfont 3 1 roll put } ifelse } { pop pop } ifelse } forall
newfont /FontName newfontname put newcodesandnames aload pop
128 1 255 { newfont /Encoding get exch /.notdef put } for
newcodesandnames length 2 idiv { newfont /Encoding get 3 1 roll put } repeat
newfontname newfont definefont pop end } def
/isovec [
8#055 /minus 8#200 /grave 8#201 /acute 8#202 /circumflex 8#203 /tilde
8#204 /macron 8#205 /breve 8#206 /dotaccent 8#207 /dieresis
8#210 /ring 8#211 /cedilla 8#212 /hungarumlaut 8#213 /ogonek 8#214 /caron
8#220 /dotlessi 8#230 /oe 8#231 /OE
8#240 /space 8#241 /exclamdown 8#242 /cent 8#243 /sterling
8#244 /currency 8#245 /yen 8#246 /brokenbar 8#247 /section 8#250 /dieresis
8#251 /copyright 8#252 /ordfeminine 8#253 /guillemotleft 8#254 /logicalnot
8#255 /hyphen 8#256 /registered 8#257 /macron 8#260 /degree 8#261 /plusminus
8#262 /twosuperior 8#263 /threesuperior 8#264 /acute 8#265 /mu 8#266 /paragraph
8#267 /periodcentered 8#270 /cedilla 8#271 /onesuperior 8#272 /ordmasculine
8#273 /guillemotright 8#274 /onequarter 8#275 /onehalf
8#276 /threequarters 8#277 /questiondown 8#300 /Agrave 8#301 /Aacute
8#302 /Acircumflex 8#303 /Atilde 8#304 /Adieresis 8#305 /Aring
8#306 /AE 8#307 /Ccedilla 8#310 /Egrave 8#311 /Eacute
8#312 /Ecircumflex 8#313 /Edieresis 8#314 /Igrave 8#315 /Iacute
8#316 /Icircumflex 8#317 /Idieresis 8#320 /Eth 8#321 /Ntilde 8#322 /Ograve
8#323 /Oacute 8#324 /Ocircumflex 8#325 /Otilde 8#326 /Odieresis 8#327 /multiply
8#330 /Oslash 8#331 /Ugrave 8#332 /Uacute 8#333 /Ucircumflex
8#334 /Udieresis 8#335 /Yacute 8#336 /Thorn 8#337 /germandbls 8#340 /agrave
8#341 /aacute 8#342 /acircumflex 8#343 /atilde 8#344 /adieresis 8#345 /aring
8#346 /ae 8#347 /ccedilla 8#350 /egrave 8#351 /eacute
8#352 /ecircumflex 8#353 /edieresis 8#354 /igrave 8#355 /iacute
8#356 /icircumflex 8#357 /idieresis 8#360 /eth 8#361 /ntilde 8#362 /ograve
8#363 /oacute 8#364 /ocircumflex 8#365 /otilde 8#366 /odieresis 8#367 /divide
8#370 /oslash 8#371 /ugrave 8#372 /uacute 8#373 /ucircumflex
8#374 /udieresis 8#375 /yacute 8#376 /thorn 8#377 /ydieresis] def
/Times-Roman /Times-Roman-iso isovec ReEncode
/Times-Italic /Times-Italic-iso isovec ReEncode
 /DrawEllipse {
	/endangle exch def
	/startangle exch def
	/yrad exch def
	/xrad exch def
	/y exch def
	/x exch def
	/savematrix mtrx currentmatrix def
	x y tr xrad yrad sc 0 0 1 startangle endangle arc
	closepath
	savematrix setmatrix
	} def

/$F2psBegin {$F2psDict begin /$F2psEnteredState save def} def
/$F2psEnd {$F2psEnteredState restore end} def

$F2psBegin
10 setmiterlimit
0 slj 0 slc
 0.06000 0.06000 sc
%
% Fig objects follow
%
% 
% here starts figure with depth 53
% Ellipse
7.500 slw
n 2478 4001 113 194 0 360 DrawEllipse gs col32 1.00 shd ef gr gs col0 s gr

% here ends figure;
% 
% here starts figure with depth 50
% Polyline
n 5594 1969 m 5360 2146 l 5212 2145 l 5228 2128 l 5540 2132 l 5566 2095 l
 5263 2091 l 5321 2072 l 5616 2078 l 5635 2055 l 5166 2052 l
 5182 2031 l 5350 2034 l 5228 2127 l 4753 2119 l 4744 2141 l
 4897 2142 l 4945 2102 l 5248 2106 l 5360 2009 l 5518 2012 l
 5579 1971 l
 cp gs 0.00 setgray ef gr 
% Ellipse
7.500 slw
n 2478 3998 150 225 0 360 DrawEllipse gs col0 s gr

% Polyline
n 1125 2340 m 2100 2340 l 2100 5700 l 1125 5700 l
 cp gs col26 1.00 shd ef gr gs col0 s gr 
% Polyline
n 1125 2325 m 2925 1425 l 3900 1425 l 2100 2325 l
 cp gs col25 1.00 shd ef gr gs col0 s gr 
% Polyline
n 2370 2492 m 3690 1832 l 3690 2147 l 2370 2807 l
 cp gs col24 0.50 shd ef gr gs col0 s gr 
% Polyline
n 2100 5700 m 3900 4800 l
 3900 1425 l gs col0 s gr 
/Times-Italic-iso ff 180.00 scf sf
3004 4672 m
gs 1 -1 sc  26.0 rot (A. Jurisic) col0 sh gr
/Times-Italic-iso ff 180.00 scf sf
2971 4929 m
gs 1 -1 sc  26.0 rot (Jadranska 19) col0 sh gr
/Times-Italic-iso ff 180.00 scf sf
2964 5188 m
gs 1 -1 sc  26.0 rot (Ljubljana) col0 sh gr
% here ends figure;
% 
% here starts figure with depth 47
% Polyline
7.500 slw
n 2375 2707 m 3582 1919 l 5930 1919 l 4775 2917 l
 cp gs col7 1.00 shd ef gr gs col0 s gr 
% here ends figure;
% 
% here starts figure with depth 45
/Times-Roman-iso ff 135.00 scf sf
3958 2782 m
gs 1 -1 sc  354.0 rot (Ljubljana) col0 sh gr
/Times-Roman-iso ff 135.00 scf sf
4059 2642 m
gs 1 -1 sc  354.0 rot (Jadranska 19) col0 sh gr
/Times-Roman-iso ff 135.00 scf sf
4175 2493 m
gs 1 -1 sc  355.0 rot (A. Jurisic) col0 sh gr
% Polyline
7.500 slw
n 2455 3901 m 2509 3874 l 2509 3940 l 2492 3962 l 2510 3982 l 2510 4030 l
 2496 4054 l 2514 4076 l 2459 4108 l 2477 4058 l 2459 4035 l
 2459 3996 l 2476 3966 l 2455 3952 l
 cp gs col7 1.00 shd ef gr gs col0 s gr 
% Polyline
n 5749 1970 m 5540 2152 l 4587 2137 l 4831 1956 l
 cp gs col0 s gr 
% Polyline
0.000 slw
n 5698 1992 m 5660 2026 l 5507 2025 l 5540 1988 l
 cp gs 0.00 setgray ef gr 
% Polyline
n 5603 1970 m 5546 1989 l 5403 1988 l 5454 1966 l
 cp gs 0.00 setgray ef gr 
% Polyline
n 5300 1963 m 5259 1986 l 5104 1983 l 5128 1962 l
 cp gs 0.00 setgray ef gr 
% Polyline
n 5399 1988 m 5378 2009 l 5241 2006 l 5259 1985 l
 cp gs 0.00 setgray ef gr 
% Polyline
n 5236 2007 m 5223 2031 l 5073 2027 l 5117 2005 l
 cp gs 0.00 setgray ef gr 
% Polyline
n 4821 2081 m 4773 2119 l 4638 2118 l 4667 2080 l
 cp gs 0.00 setgray ef gr 
% Polyline
n 5120 1982 m 5100 2004 l 4933 2000 l 4965 1979 l
 cp gs 0.00 setgray ef gr 
% Polyline
n 4899 2020 m 4882 2043 l 4733 2040 l 4742 2016 l
 cp gs 0.00 setgray ef gr 
% Polyline
n 5321 2072 m 5278 2091 l 5132 2088 l 5184 2069 l
 cp gs 0.00 setgray ef gr 
% Polyline
n 5204 2049 m 5174 2072 l 5040 2069 l 5063 2045 l
 cp gs 0.00 setgray ef gr 
% Polyline
n 5049 2068 m 5024 2085 l 4836 2081 l 4856 2065 l
 cp gs 0.00 setgray ef gr 
% Polyline
n 4986 1958 m 4962 1978 l 4797 1975 l 4836 1955 l
 cp gs 0.00 setgray ef gr 
/Times-Roman-iso ff 105.00 scf sf
4660 2516 m
gs 1 -1 sc  355.0 rot (\264) col0 sh gr
/Times-Roman-iso ff 75.00 scf sf
4570 2449 m
gs 1 -1 sc  355.0 rot (v) col0 sh gr
% Polyline
30.000 slw
n 3879 1500 m 2161 2370 l
 2154 5655 l gs col0 s gr 
/Times-Roman-iso ff 75.00 scf sf
3421 4358 m
gs 1 -1 sc  26.0 rot (v) col0 sh gr
/Times-Roman-iso ff 105.00 scf sf
3567 4351 m
gs 1 -1 sc  26.0 rot (\264) col0 sh gr
% here ends figure;
$F2psEnd
rs
showpage
