%!PS-Adobe-2.0 EPSF-2.0
%%Title: 5-centrsim.fig
%%Creator: fig2dev Version 3.2 Patchlevel 4
%%CreationDate: Thu Mar  3 16:53:47 2005
%%For: ajurisic@bike ()
%%BoundingBox: 0 0 289 182
%%Magnification: 1.0000
%%EndComments
/$F2psDict 200 dict def
$F2psDict begin
$F2psDict /mtrx matrix put
/col-1 {0 setgray} bind def
/col0 {0.000 0.000 0.000 srgb} bind def
/col1 {0.000 0.000 1.000 srgb} bind def
/col2 {0.000 1.000 0.000 srgb} bind def
/col3 {0.000 1.000 1.000 srgb} bind def
/col4 {1.000 0.000 0.000 srgb} bind def
/col5 {1.000 0.000 1.000 srgb} bind def
/col6 {1.000 1.000 0.000 srgb} bind def
/col7 {1.000 1.000 1.000 srgb} bind def
/col8 {0.000 0.000 0.560 srgb} bind def
/col9 {0.000 0.000 0.690 srgb} bind def
/col10 {0.000 0.000 0.820 srgb} bind def
/col11 {0.530 0.810 1.000 srgb} bind def
/col12 {0.000 0.560 0.000 srgb} bind def
/col13 {0.000 0.690 0.000 srgb} bind def
/col14 {0.000 0.820 0.000 srgb} bind def
/col15 {0.000 0.560 0.560 srgb} bind def
/col16 {0.000 0.690 0.690 srgb} bind def
/col17 {0.000 0.820 0.820 srgb} bind def
/col18 {0.560 0.000 0.000 srgb} bind def
/col19 {0.690 0.000 0.000 srgb} bind def
/col20 {0.820 0.000 0.000 srgb} bind def
/col21 {0.560 0.000 0.560 srgb} bind def
/col22 {0.690 0.000 0.690 srgb} bind def
/col23 {0.820 0.000 0.820 srgb} bind def
/col24 {0.500 0.190 0.000 srgb} bind def
/col25 {0.630 0.250 0.000 srgb} bind def
/col26 {0.750 0.380 0.000 srgb} bind def
/col27 {1.000 0.500 0.500 srgb} bind def
/col28 {1.000 0.630 0.630 srgb} bind def
/col29 {1.000 0.750 0.750 srgb} bind def
/col30 {1.000 0.880 0.880 srgb} bind def
/col31 {1.000 0.840 0.000 srgb} bind def

end
save
newpath 0 182 moveto 0 0 lineto 289 0 lineto 289 182 lineto closepath clip newpath
-31.9 203.8 translate
1 -1 scale

/cp {closepath} bind def
/ef {eofill} bind def
/gr {grestore} bind def
/gs {gsave} bind def
/sa {save} bind def
/rs {restore} bind def
/l {lineto} bind def
/m {moveto} bind def
/rm {rmoveto} bind def
/n {newpath} bind def
/s {stroke} bind def
/sh {show} bind def
/slc {setlinecap} bind def
/slj {setlinejoin} bind def
/slw {setlinewidth} bind def
/srgb {setrgbcolor} bind def
/rot {rotate} bind def
/sc {scale} bind def
/sd {setdash} bind def
/ff {findfont} bind def
/sf {setfont} bind def
/scf {scalefont} bind def
/sw {stringwidth} bind def
/tr {translate} bind def
/tnt {dup dup currentrgbcolor
  4 -2 roll dup 1 exch sub 3 -1 roll mul add
  4 -2 roll dup 1 exch sub 3 -1 roll mul add
  4 -2 roll dup 1 exch sub 3 -1 roll mul add srgb}
  bind def
/shd {dup dup currentrgbcolor 4 -2 roll mul 4 -2 roll mul
  4 -2 roll mul srgb} bind def
 /DrawEllipse {
	/endangle exch def
	/startangle exch def
	/yrad exch def
	/xrad exch def
	/y exch def
	/x exch def
	/savematrix mtrx currentmatrix def
	x y tr xrad yrad sc 0 0 1 startangle endangle arc
	closepath
	savematrix setmatrix
	} def

/$F2psBegin {$F2psDict begin /$F2psEnteredState save def} def
/$F2psEnd {$F2psEnteredState restore end} def

$F2psBegin
10 setmiterlimit
0 slj 0 slc
 0.06000 0.06000 sc
%
% Fig objects follow
%
% 
% here starts figure with depth 60
% Ellipse
7.500 slw
n 3225 900 1200 525 0 360 DrawEllipse gs col11 1.00 shd ef gr gs col0 s gr

% Ellipse
n 1050 2490 510 510 0 360 DrawEllipse gs col6 1.00 shd ef gr gs col0 s gr

% Ellipse
n 2325 2880 510 510 0 360 DrawEllipse gs col6 1.00 shd ef gr gs col0 s gr

% Ellipse
n 4815 2670 510 510 0 360 DrawEllipse gs col6 1.00 shd ef gr gs col0 s gr

% here ends figure;
% 
% here starts figure with depth 50
% Ellipse
7.500 slw
n 3650 1147 21 21 0 360 DrawEllipse gs 0.00 setgray ef gr gs col0 s gr

% Ellipse
n 3380 1197 21 21 0 360 DrawEllipse gs 0.00 setgray ef gr gs col0 s gr

% Ellipse
n 3100 1197 21 21 0 360 DrawEllipse gs 0.00 setgray ef gr gs col0 s gr

% Ellipse
n 3834 2814 21 21 0 360 DrawEllipse gs 0.00 setgray ef gr gs col0 s gr

% Ellipse
n 3325 2847 21 21 0 360 DrawEllipse gs 0.00 setgray ef gr gs col0 s gr

% Ellipse
n 3575 2837 21 21 0 360 DrawEllipse gs 0.00 setgray ef gr gs col0 s gr

% Polyline
gs  clippath
2206 1180 m 2164 1138 l 2056 1245 l 2163 1182 l 2099 1288 l cp
1273 2029 m 1315 2071 l 1423 1964 l 1317 2028 l 1380 1921 l cp
eoclip
n 1305 2040 m
 2175 1170 l gs col0 s gr gr

% arrowhead
n 1380 1921 m 1317 2028 l 1423 1964 l  col0 s
% arrowhead
n 2099 1288 m 2163 1182 l 2056 1245 l  col0 s
% Polyline
gs  clippath
2748 1419 m 2691 1401 l 2644 1545 l 2710 1441 l 2701 1564 l cp
2381 2360 m 2438 2378 l 2485 2234 l 2420 2339 l 2428 2215 l cp
eoclip
n 2415 2355 m
 2715 1425 l gs col0 s gr gr

% arrowhead
n 2428 2215 m 2420 2339 l 2485 2234 l  col0 s
% arrowhead
n 2701 1564 m 2710 1441 l 2644 1545 l  col0 s
% Polyline
gs  clippath
4051 1275 m 4001 1309 l 4087 1434 l 4044 1319 l 4136 1400 l cp
4618 2204 m 4668 2170 l 4582 2045 l 4626 2161 l 4533 2079 l cp
eoclip
n 4635 2175 m
 4035 1305 l gs col0 s gr gr

% arrowhead
n 4533 2079 m 4626 2161 l 4582 2045 l  col0 s
% arrowhead
n 4136 1400 m 4044 1319 l 4087 1434 l  col0 s
/Times-Roman ff 360.00 scf sf
2700 750 m
gs 1 -1 sc (Center) col0 sh gr
/Times-Roman ff 180.00 scf sf
1110 2355 m
gs 1 -1 sc (1) col0 sh gr
/Times-Roman ff 180.00 scf sf
2385 2715 m
gs 1 -1 sc (2) col0 sh gr
/Times-Roman ff 180.00 scf sf
2340 1065 m
gs 1 -1 sc (1) col0 sh gr
/Times-Italic ff 180.00 scf sf
4110 1110 m
gs 1 -1 sc (n) col0 sh gr
/Times-Italic ff 180.00 scf sf
4770 2550 m
gs 1 -1 sc (n) col0 sh gr
/Times-Italic ff 180.00 scf sf
4920 3000 m
gs 1 -1 sc (n) col0 sh gr
/Times-Roman ff 180.00 scf sf
2355 3165 m
gs 1 -1 sc (2) col0 sh gr
/Times-Roman ff 180.00 scf sf
1110 2790 m
gs 1 -1 sc (1) col0 sh gr
/Times-Italic ff 270.00 scf sf
2210 2650 m
gs 1 -1 sc (K) col0 sh gr
/Times-Italic ff 270.00 scf sf
935 2280 m
gs 1 -1 sc (K) col0 sh gr
/Times-Italic ff 270.00 scf sf
4595 2495 m
gs 1 -1 sc (K) col0 sh gr
/Times-Italic ff 270.00 scf sf
2140 3100 m
gs 1 -1 sc (U) col0 sh gr
/Times-Italic ff 270.00 scf sf
915 2715 m
gs 1 -1 sc (U) col0 sh gr
/Times-Italic ff 270.00 scf sf
4725 2955 m
gs 1 -1 sc (U) col0 sh gr
/Times-Italic ff 270.00 scf sf
2165 1000 m
gs 1 -1 sc (K) col0 sh gr
/Times-Italic ff 270.00 scf sf
3905 1055 m
gs 1 -1 sc (K) col0 sh gr
/Times-Roman ff 180.00 scf sf
2730 1260 m
gs 1 -1 sc (2) col0 sh gr
/Times-Italic ff 270.00 scf sf
2545 1185 m
gs 1 -1 sc (K) col0 sh gr
% here ends figure;
$F2psEnd
rs
showpage
