%!PS-Adobe-2.0 EPSF-2.0
%%Title: 02-diagonale.eps
%%Creator: fig2dev Version 3.2 Patchlevel 3c
%%CreationDate: Sun Jun 10 03:04:43 2001
%%For: ajurisic@sasha (RHS Linux User)
%%BoundingBox: 0 0 422 421
%%Magnification: 1.0000
%%EndComments
/$F2psDict 200 dict def
$F2psDict begin
$F2psDict /mtrx matrix put
/col-1 {0 setgray} bind def
/col0 {0.000 0.000 0.000 srgb} bind def
/col1 {0.000 0.000 1.000 srgb} bind def
/col2 {0.000 1.000 0.000 srgb} bind def
/col3 {0.000 1.000 1.000 srgb} bind def
/col4 {1.000 0.000 0.000 srgb} bind def
/col5 {1.000 0.000 1.000 srgb} bind def
/col6 {1.000 1.000 0.000 srgb} bind def
/col7 {1.000 1.000 1.000 srgb} bind def
/col8 {0.000 0.000 0.560 srgb} bind def
/col9 {0.000 0.000 0.690 srgb} bind def
/col10 {0.000 0.000 0.820 srgb} bind def
/col11 {0.530 0.810 1.000 srgb} bind def
/col12 {0.000 0.560 0.000 srgb} bind def
/col13 {0.000 0.690 0.000 srgb} bind def
/col14 {0.000 0.820 0.000 srgb} bind def
/col15 {0.000 0.560 0.560 srgb} bind def
/col16 {0.000 0.690 0.690 srgb} bind def
/col17 {0.000 0.820 0.820 srgb} bind def
/col18 {0.560 0.000 0.000 srgb} bind def
/col19 {0.690 0.000 0.000 srgb} bind def
/col20 {0.820 0.000 0.000 srgb} bind def
/col21 {0.560 0.000 0.560 srgb} bind def
/col22 {0.690 0.000 0.690 srgb} bind def
/col23 {0.820 0.000 0.820 srgb} bind def
/col24 {0.500 0.190 0.000 srgb} bind def
/col25 {0.630 0.250 0.000 srgb} bind def
/col26 {0.750 0.380 0.000 srgb} bind def
/col27 {1.000 0.500 0.500 srgb} bind def
/col28 {1.000 0.630 0.630 srgb} bind def
/col29 {1.000 0.750 0.750 srgb} bind def
/col30 {1.000 0.880 0.880 srgb} bind def
/col31 {1.000 0.840 0.000 srgb} bind def

end
save
newpath 0 421 moveto 0 0 lineto 422 0 lineto 422 421 lineto closepath clip newpath
-78.0 464.0 translate
1 -1 scale

/cp {closepath} bind def
/ef {eofill} bind def
/gr {grestore} bind def
/gs {gsave} bind def
/sa {save} bind def
/rs {restore} bind def
/l {lineto} bind def
/m {moveto} bind def
/rm {rmoveto} bind def
/n {newpath} bind def
/s {stroke} bind def
/sh {show} bind def
/slc {setlinecap} bind def
/slj {setlinejoin} bind def
/slw {setlinewidth} bind def
/srgb {setrgbcolor} bind def
/rot {rotate} bind def
/sc {scale} bind def
/sd {setdash} bind def
/ff {findfont} bind def
/sf {setfont} bind def
/scf {scalefont} bind def
/sw {stringwidth} bind def
/tr {translate} bind def
/tnt {dup dup currentrgbcolor
  4 -2 roll dup 1 exch sub 3 -1 roll mul add
  4 -2 roll dup 1 exch sub 3 -1 roll mul add
  4 -2 roll dup 1 exch sub 3 -1 roll mul add srgb}
  bind def
/shd {dup dup currentrgbcolor 4 -2 roll mul 4 -2 roll mul
  4 -2 roll mul srgb} bind def
 /DrawEllipse {
	/endangle exch def
	/startangle exch def
	/yrad exch def
	/xrad exch def
	/y exch def
	/x exch def
	/savematrix mtrx currentmatrix def
	x y tr xrad yrad sc 0 0 1 startangle endangle arc
	closepath
	savematrix setmatrix
	} def

/$F2psBegin {$F2psDict begin /$F2psEnteredState save def} def
/$F2psEnd {$F2psEnteredState restore end} def

$F2psBegin
%%Page: 1 1
10 setmiterlimit
 0.06000 0.06000 sc
%
% Fig objects follow
%
% Polyline
7.500 slw
n 4958 7637 m
 2842 7020 l gs col0 s gr 
% Polyline
n 4958 7653 m
 2042 6203 l gs col0 s gr 
% Polyline
n 4958 7653 m
 1558 5187 l gs col0 s gr 
% Polyline
n 1425 4103 m 4958 7670 l
 1642 2937 l gs col0 s gr 
% Polyline
n 2258 1937 m 4958 7653 l
 3092 1220 l gs col0 s gr 
% Polyline
n 4958 7653 m
 4125 837 l gs col0 s gr 
% Polyline
n 3825 7467 m
 2024 6196 l gs col0 s gr 
% Polyline
n 3820 7482 m
 1533 5164 l gs col0 s gr 
% Polyline
n 3820 7482 m
 1405 4045 l gs col0 s gr 
% Polyline
n 1631 2977 m 3815 7498 l
 2215 1945 l gs col0 s gr 
% Polyline
n 3123 1199 m 3820 7482 l
 4144 792 l gs col0 s gr 
% Polyline
n 3820 7482 m
 5246 765 l gs col0 s gr 
% Polyline
n 2033 6181 m
 1392 4072 l gs col0 s gr 
% Polyline
n 2019 6190 m
 1639 2957 l gs col0 s gr 
% Polyline
n 2019 6190 m
 2225 1995 l gs col0 s gr 
% Polyline
n 3060 1291 m 2006 6199 l
 4154 834 l gs col0 s gr 
% Polyline
n 5329 804 m 2019 6190 l
 6385 1110 l gs col0 s gr 
% Polyline
n 2019 6190 m
 7271 1766 l gs col0 s gr 
% Polyline
n 1549 5150 m
 1628 2947 l gs col0 s gr 
% Polyline
n 1534 5154 m
 2223 1972 l gs col0 s gr 
% Polyline
n 1534 5154 m
 3090 1253 l gs col0 s gr 
% Polyline
n 4108 858 m 1517 5158 l
 5291 782 l gs col0 s gr 
% Polyline
n 6412 1134 m 1534 5154 l
 7311 1768 l gs col0 s gr 
% Polyline
n 1534 5154 m
 7937 2675 l gs col0 s gr 
% Polyline
n 1415 4035 m
 2206 1978 l gs col0 s gr 
% Polyline
n 1401 4035 m
 3086 1249 l gs col0 s gr 
% Polyline
n 1401 4035 m
 4140 850 l gs col0 s gr 
% Polyline
n 5230 807 m 1384 4034 l
 6374 1120 l gs col0 s gr 
% Polyline
n 7320 1817 m 1401 4035 l
 7965 2708 l gs col0 s gr 
% Polyline
n 1401 4035 m
 8262 3769 l gs col0 s gr 
% Polyline
n 2819 6989 m
 1528 5202 l gs col0 s gr 
% Polyline
n 2809 7002 m
 1399 4067 l gs col0 s gr 
% Polyline
n 2809 7002 m
 1641 2967 l gs col0 s gr 
% Polyline
n 2202 2030 m 2799 7015 l
 3089 1244 l gs col0 s gr 
% Polyline
n 4190 833 m 2809 7002 l
 5288 780 l gs col0 s gr 
% Polyline
n 2809 7002 m
 6339 1112 l gs col0 s gr 
% Polyline
n 6039 7401 m
 3838 7504 l gs col0 s gr 
% Polyline
n 6044 7416 m
 2816 6991 l gs col0 s gr 
% Polyline
n 6044 7416 m
 2028 6188 l gs col0 s gr 
% Polyline
n 1550 5206 m 6050 7432 l
 1377 4032 l gs col0 s gr 
% Polyline
n 1635 2887 m 6044 7416 l
 2191 1938 l gs col0 s gr 
% Polyline
n 6044 7416 m
 3043 1240 l gs col0 s gr 
% Polyline
n 7016 6819 m
 4967 7632 l gs col0 s gr 
% Polyline
n 7025 6832 m
 3833 7478 l gs col0 s gr 
% Polyline
n 7025 6832 m
 2828 6973 l gs col0 s gr 
% Polyline
n 2057 6200 m 7036 6845 l
 1512 5147 l gs col0 s gr 
% Polyline
n 1383 3979 m 7025 6832 l
 1601 2901 l gs col0 s gr 
% Polyline
n 7025 6832 m
 2181 1965 l gs col0 s gr 
% Polyline
n 4169 849 m
 6357 1108 l gs col0 s gr 
% Polyline
n 4165 832 m
 7281 1782 l gs col0 s gr 
% Polyline
n 4165 832 m
 7925 2704 l gs col0 s gr 
% Polyline
n 8236 3750 m 4162 815 l
 8214 4937 l gs col0 s gr 
% Polyline
n 7772 6024 m 4165 832 l
 7068 6869 l gs col0 s gr 
% Polyline
n 4165 832 m
 6111 7418 l gs col0 s gr 
% Polyline
n 2194 1946 m
 4082 807 l gs col0 s gr 
% Polyline
n 2181 1935 m
 5224 771 l gs col0 s gr 
% Polyline
n 2181 1935 m
 6299 1104 l gs col0 s gr 
% Polyline
n 7187 1741 m 2170 1923 l
 7897 2690 l gs col0 s gr 
% Polyline
n 8215 3821 m 2181 1935 l
 8178 4920 l gs col0 s gr 
% Polyline
n 2181 1935 m
 7760 5939 l gs col0 s gr 
% Polyline
n 8203 4913 m
 7087 6812 l gs col0 s gr 
% Polyline
n 8220 4915 m
 6099 7387 l gs col0 s gr 
% Polyline
n 8220 4915 m
 4996 7607 l gs col0 s gr 
% Polyline
n 3911 7470 m 8236 4919 l
 2835 6974 l gs col0 s gr 
% Polyline
n 2017 6131 m 8220 4915 l
 1526 5147 l gs col0 s gr 
% Polyline
n 8220 4915 m
 1407 4051 l gs col0 s gr 
% Polyline
n 6356 1138 m
 7923 2687 l gs col0 s gr 
% Polyline
n 6364 1122 m
 8238 3785 l gs col0 s gr 
% Polyline
n 6364 1122 m
 8181 4907 l gs col0 s gr 
% Polyline
n 7783 5926 m 6372 1107 l
 7037 6847 l gs col0 s gr 
% Polyline
n 6018 7434 m 6364 1122 l
 4945 7668 l gs col0 s gr 
% Polyline
n 6364 1122 m
 3855 7514 l gs col0 s gr 
% Polyline
n 5287 813 m
 7272 1770 l gs col0 s gr 
% Polyline
n 5290 797 m
 7928 2706 l gs col0 s gr 
% Polyline
n 5290 797 m
 8238 3787 l gs col0 s gr 
% Polyline
n 8192 4878 m 5291 780 l
 7786 5993 l gs col0 s gr 
% Polyline
n 7015 6877 m 5290 797 l
 6075 7447 l gs col0 s gr 
% Polyline
n 5290 797 m
 4992 7656 l gs col0 s gr 
% Polyline
n 3093 1269 m
 5246 805 l gs col0 s gr 
% Polyline
n 3084 1257 m
 6339 1143 l gs col0 s gr 
% Polyline
n 3084 1257 m
 7248 1805 l gs col0 s gr 
% Polyline
n 7883 2692 m 3076 1241 l
 8246 3823 l gs col0 s gr 
% Polyline
n 8180 4994 m 3084 1257 l
 7788 6023 l gs col0 s gr 
% Polyline
n 3084 1257 m
 7065 6851 l gs col0 s gr 
% Polyline
n 7893 2723 m
 8177 4909 l gs col0 s gr 
% Polyline
n 7908 2718 m
 7752 5970 l gs col0 s gr 
% Polyline
n 7908 2718 m
 7016 6821 l gs col0 s gr 
% Polyline
n 6076 7378 m 7923 2710 l
 4922 7649 l gs col0 s gr 
% Polyline
n 3759 7487 m 7908 2718 l
 2766 7011 l gs col0 s gr 
% Polyline
n 7908 2718 m
 2001 6219 l gs col0 s gr 
% Polyline
n 7300 1803 m
 8278 3777 l gs col0 s gr 
% Polyline
n 7311 1792 m
 8219 4919 l gs col0 s gr 
% Polyline
n 7311 1792 m
 7801 5963 l gs col0 s gr 
% Polyline
n 7095 6796 m 7324 1780 l
 6089 7426 l gs col0 s gr 
% Polyline
n 4938 7649 m 7311 1792 l
 3844 7521 l gs col0 s gr 
% Polyline
n 7311 1792 m
 2863 7023 l gs col0 s gr 
% Polyline
n 8206 3766 m
 7766 5925 l gs col0 s gr 
% Polyline
n 8222 3765 m
 7018 6790 l gs col0 s gr 
% Polyline
n 8222 3765 m
 6046 7356 l gs col0 s gr 
% Polyline
n 4977 7578 m 8239 3762 l
 3797 7458 l gs col0 s gr 
% Polyline
n 2750 6927 m 8222 3765 l
 1967 6156 l gs col0 s gr 
% Polyline
n 8222 3765 m
 1498 5158 l gs col0 s gr 
% Polyline
n 7715 5981 m
 6042 7414 l gs col0 s gr 
% Polyline
n 7729 5990 m
 4920 7638 l gs col0 s gr 
% Polyline
n 7729 5990 m
 3805 7488 l gs col0 s gr 
% Polyline
n 2825 7007 m 7743 5999 l
 1967 6187 l gs col0 s gr 
% Polyline
n 1467 5125 m 7729 5990 l
 1323 4034 l gs col0 s gr 
% Polyline
n 7729 5990 m
 1567 2960 l gs col0 s gr 
% Polyline
n 1628 2958 m
 3042 1267 l gs col0 s gr 
% Polyline
n 1613 2951 m
 4114 866 l gs col0 s gr 
% Polyline
n 1613 2951 m
 5239 830 l gs col0 s gr 
% Polyline
n 6284 1142 m 1599 2944 l
 7265 1811 l gs col0 s gr 
% Polyline
n 7933 2777 m 1613 2951 l
 8255 3829 l gs col0 s gr 
% Polyline
n 1613 2951 m
 8190 4929 l gs col0 s gr 
% Polyline
n 1391 4040 m 1526 5164 l 2018 6183 l 2815 6986 l 3829 7488 l 4951 7633 l
 6060 7406 l 7035 6831 l 7770 5971 l 8186 4919 l 8238 3789 l
 7920 2703 l 7267 1779 l 6349 1117 l 5266 789 l 4135 830 l
 3079 1237 l 2212 1964 l 1628 2934 l
 cp gs col0 s gr 
% Ellipse
n 4950 7642 75 75 0 360 DrawEllipse gs col7 1.00 shd ef gr gs col-1 s gr

% Ellipse
n 2847 7022 75 75 0 360 DrawEllipse gs col7 1.00 shd ef gr gs col-1 s gr

% Ellipse
n 2032 6207 75 75 0 360 DrawEllipse gs col7 1.00 shd ef gr gs col-1 s gr

% Ellipse
n 1543 5180 75 75 0 360 DrawEllipse gs col7 1.00 shd ef gr gs col-1 s gr

% Ellipse
n 1412 4088 75 75 0 360 DrawEllipse gs col7 1.00 shd ef gr gs col-1 s gr

% Ellipse
n 2244 1935 75 75 0 360 DrawEllipse gs col7 1.00 shd ef gr gs col-1 s gr

% Ellipse
n 4119 843 75 75 0 360 DrawEllipse gs col7 1.00 shd ef gr gs col-1 s gr

% Ellipse
n 6385 1137 75 75 0 360 DrawEllipse gs col7 1.00 shd ef gr gs col-1 s gr

% Ellipse
n 7282 1805 75 75 0 360 DrawEllipse gs col7 1.00 shd ef gr gs col-1 s gr

% Ellipse
n 1642 2937 75 75 0 360 DrawEllipse gs col7 1.00 shd ef gr gs col-1 s gr

% Ellipse
n 5249 807 75 75 0 360 DrawEllipse gs col7 1.00 shd ef gr gs col-1 s gr

% Ellipse
n 3089 1227 75 75 0 360 DrawEllipse gs col7 1.00 shd ef gr gs col-1 s gr

% Ellipse
n 3839 7506 75 75 0 360 DrawEllipse gs col7 1.00 shd ef gr gs col-1 s gr

% Ellipse
n 6059 7409 75 75 0 360 DrawEllipse gs col7 1.00 shd ef gr gs col-1 s gr

% Ellipse
n 7049 6824 75 75 0 360 DrawEllipse gs col7 1.00 shd ef gr gs col-1 s gr

% Ellipse
n 7784 5969 75 75 0 360 DrawEllipse gs col7 1.00 shd ef gr gs col-1 s gr

% Ellipse
n 8189 4919 75 75 0 360 DrawEllipse gs col7 1.00 shd ef gr gs col-1 s gr

% Ellipse
n 8234 3764 75 75 0 360 DrawEllipse gs col7 1.00 shd ef gr gs col-1 s gr

% Ellipse
n 7912 2684 75 75 0 360 DrawEllipse gs col7 1.00 shd ef gr gs col-1 s gr

$F2psEnd
rs
