%!PS-Adobe-2.0 EPSF-2.0
%%Title: simprot.eps
%%Creator: fig2dev Version 3.2 Patchlevel 3c
%%CreationDate: Fri May 25 09:55:13 2001
%%For: jernej@darkstar (Jernej Tonejc,,,)
%%BoundingBox: 0 0 293 213
%%Magnification: 1.0000
%%EndComments
/$F2psDict 200 dict def
$F2psDict begin
$F2psDict /mtrx matrix put
/col-1 {0 setgray} bind def
/col0 {0.000 0.000 0.000 srgb} bind def
/col1 {0.000 0.000 1.000 srgb} bind def
/col2 {0.000 1.000 0.000 srgb} bind def
/col3 {0.000 1.000 1.000 srgb} bind def
/col4 {1.000 0.000 0.000 srgb} bind def
/col5 {1.000 0.000 1.000 srgb} bind def
/col6 {1.000 1.000 0.000 srgb} bind def
/col7 {1.000 1.000 1.000 srgb} bind def
/col8 {0.000 0.000 0.560 srgb} bind def
/col9 {0.000 0.000 0.690 srgb} bind def
/col10 {0.000 0.000 0.820 srgb} bind def
/col11 {0.530 0.810 1.000 srgb} bind def
/col12 {0.000 0.560 0.000 srgb} bind def
/col13 {0.000 0.690 0.000 srgb} bind def
/col14 {0.000 0.820 0.000 srgb} bind def
/col15 {0.000 0.560 0.560 srgb} bind def
/col16 {0.000 0.690 0.690 srgb} bind def
/col17 {0.000 0.820 0.820 srgb} bind def
/col18 {0.560 0.000 0.000 srgb} bind def
/col19 {0.690 0.000 0.000 srgb} bind def
/col20 {0.820 0.000 0.000 srgb} bind def
/col21 {0.560 0.000 0.560 srgb} bind def
/col22 {0.690 0.000 0.690 srgb} bind def
/col23 {0.820 0.000 0.820 srgb} bind def
/col24 {0.500 0.190 0.000 srgb} bind def
/col25 {0.630 0.250 0.000 srgb} bind def
/col26 {0.750 0.380 0.000 srgb} bind def
/col27 {1.000 0.500 0.500 srgb} bind def
/col28 {1.000 0.630 0.630 srgb} bind def
/col29 {1.000 0.750 0.750 srgb} bind def
/col30 {1.000 0.880 0.880 srgb} bind def
/col31 {1.000 0.840 0.000 srgb} bind def

end
save
newpath 0 213 moveto 0 0 lineto 293 0 lineto 293 213 lineto closepath clip newpath
-19.0 227.0 translate
1 -1 scale

/cp {closepath} bind def
/ef {eofill} bind def
/gr {grestore} bind def
/gs {gsave} bind def
/sa {save} bind def
/rs {restore} bind def
/l {lineto} bind def
/m {moveto} bind def
/rm {rmoveto} bind def
/n {newpath} bind def
/s {stroke} bind def
/sh {show} bind def
/slc {setlinecap} bind def
/slj {setlinejoin} bind def
/slw {setlinewidth} bind def
/srgb {setrgbcolor} bind def
/rot {rotate} bind def
/sc {scale} bind def
/sd {setdash} bind def
/ff {findfont} bind def
/sf {setfont} bind def
/scf {scalefont} bind def
/sw {stringwidth} bind def
/tr {translate} bind def
/tnt {dup dup currentrgbcolor
  4 -2 roll dup 1 exch sub 3 -1 roll mul add
  4 -2 roll dup 1 exch sub 3 -1 roll mul add
  4 -2 roll dup 1 exch sub 3 -1 roll mul add srgb}
  bind def
/shd {dup dup currentrgbcolor 4 -2 roll mul 4 -2 roll mul
  4 -2 roll mul srgb} bind def
/$F2psBegin {$F2psDict begin /$F2psEnteredState save def} def
/$F2psEnd {$F2psEnteredState restore end} def

$F2psBegin
%%Page: 1 1
10 setmiterlimit
 0.06000 0.06000 sc
%
% Fig objects follow
%
/Times-Italic ff 150.00 scf sf
445 492 m
gs 1 -1 sc (K) col0 sh gr
/Times-Italic ff 90.00 scf sf
540 525 m
gs 1 -1 sc (A) col0 sh gr
/Times-Italic ff 150.00 scf sf
2545 642 m
gs 1 -1 sc (K) col0 sh gr
/Times-Italic ff 90.00 scf sf
2640 675 m
gs 1 -1 sc (A) col0 sh gr
/Times-Italic ff 150.00 scf sf
2770 642 m
gs 1 -1 sc (K) col0 sh gr
/Times-Italic ff 90.00 scf sf
2865 675 m
gs 1 -1 sc (B) col0 sh gr
/Times-Italic ff 150.00 scf sf
4945 492 m
gs 1 -1 sc (K) col0 sh gr
/Times-Italic ff 90.00 scf sf
5040 525 m
gs 1 -1 sc (B) col0 sh gr
/Times-Roman ff 150.00 scf sf
1296 763 m
gs 1 -1 sc (\(       \)) col0 sh gr
/Times-Italic ff 90.00 scf sf
1185 806 m
gs 1 -1 sc (K) col0 sh gr
/Times-Italic ff 75.00 scf sf
1249 826 m
gs 1 -1 sc (A) col0 sh gr
/Times-Italic ff 150.00 scf sf
1351 770 m
gs 1 -1 sc (Z, B) col0 sh gr
/Times-Italic ff 150.00 scf sf
1116 765 m
gs 1 -1 sc (e) col0 sh gr
% Polyline
7.500 slw
gs  clippath
2283 924 m 2283 864 l 2131 864 l 2251 894 l 2131 924 l cp
eoclip
n 986 894 m
 2268 894 l gs col0 s gr gr

% arrowhead
n 2131 924 m 2251 894 l 2131 864 l  col0 s
/Times-Roman ff 150.00 scf sf
2194 1079 m
gs 1 -1 sc (Generiranje kljuca) col0 sh gr
/Times-Roman ff 75.00 scf sf
2436 988 m
gs 1 -1 sc (                                         v) col0 sh gr
/Times-Italic ff 150.00 scf sf
2692 1252 m
gs 1 -1 sc (K) col0 sh gr
/Times-Italic ff 90.00 scf sf
2787 1285 m
gs 1 -1 sc (S) col0 sh gr
/Times-Italic ff 150.00 scf sf
3146 1616 m
gs 1 -1 sc (K) col0 sh gr
/Times-Italic ff 90.00 scf sf
3241 1649 m
gs 1 -1 sc (S) col0 sh gr
% Polyline
gs  clippath
4169 1720 m 4169 1660 l 4017 1660 l 4137 1690 l 4017 1720 l cp
eoclip
n 2872 1690 m
 4154 1690 l gs col0 s gr gr

% arrowhead
n 4017 1720 m 4137 1690 l 4017 1660 l  col0 s
/Times-Italic ff 90.00 scf sf
2997 1647 m
gs 1 -1 sc (K) col0 sh gr
/Times-Italic ff 150.00 scf sf
2928 1606 m
gs 1 -1 sc (e) col0 sh gr
/Times-Italic ff 75.00 scf sf
3061 1667 m
gs 1 -1 sc (B) col0 sh gr
/Times-Roman ff 150.00 scf sf
3090 1603 m
gs 1 -1 sc (\(         \)) col0 sh gr
/Times-Italic ff 150.00 scf sf
3305 1625 m
gs 1 -1 sc (, A) col0 sh gr
/Times-Italic ff 150.00 scf sf
2213 1615 m
gs 1 -1 sc (K) col0 sh gr
/Times-Italic ff 90.00 scf sf
2308 1648 m
gs 1 -1 sc (S) col0 sh gr
/Times-Italic ff 90.00 scf sf
2064 1646 m
gs 1 -1 sc (K) col0 sh gr
/Times-Italic ff 150.00 scf sf
1995 1605 m
gs 1 -1 sc (e) col0 sh gr
/Times-Italic ff 75.00 scf sf
2128 1666 m
gs 1 -1 sc (A) col0 sh gr
/Times-Roman ff 150.00 scf sf
2157 1602 m
gs 1 -1 sc (\(    \)) col0 sh gr
/Times-Italic ff 90.00 scf sf
2549 2412 m
gs 1 -1 sc (K) col0 sh gr
/Times-Italic ff 150.00 scf sf
2480 2371 m
gs 1 -1 sc (e) col0 sh gr
/Times-Italic ff 75.00 scf sf
2613 2432 m
gs 1 -1 sc (S) col0 sh gr
/Times-Italic ff 90.00 scf sf
2487 3010 m
gs 1 -1 sc (K) col0 sh gr
/Times-Italic ff 150.00 scf sf
2418 2969 m
gs 1 -1 sc (e) col0 sh gr
/Times-Italic ff 75.00 scf sf
2551 3030 m
gs 1 -1 sc (S) col0 sh gr
% Polyline
 [15 45] 45 sd
n 334 300 m 1950 300 l 1950 3762 l 334 3762 l
 cp gs col0 s gr  [] 0 sd
% Polyline
 [15 45] 45 sd
n 3600 300 m 5149 300 l 5149 3762 l 3600 3762 l
 cp gs col0 s gr  [] 0 sd
% Polyline
gs  clippath
1357 1660 m 1357 1720 l 1509 1720 l 1389 1690 l 1509 1660 l cp
eoclip
n 2654 1690 m
 1372 1690 l gs col0 s gr gr

% arrowhead
n 1509 1660 m 1389 1690 l 1509 1720 l  col0 s
% Polyline
 [15 45] 45 sd
n 1950 300 m 3600 300 l 3600 1950 l 1950 1950 l
 cp gs col0 s gr  [] 0 sd
% Polyline
 [60] 0 sd
n 340 2007 m
 5147 2007 l gs col0 s gr  [] 0 sd
% Polyline
gs  clippath
1538 2413 m 1538 2473 l 1690 2473 l 1570 2443 l 1690 2413 l cp
eoclip
n 3999 2443 m
 1553 2443 l gs col0 s gr gr

% arrowhead
n 1690 2413 m 1570 2443 l 1690 2473 l  col0 s
% Polyline
gs  clippath
4051 3076 m 4051 3016 l 3899 3016 l 4019 3046 l 3899 3076 l cp
1519 3016 m 1519 3076 l 1671 3076 l 1551 3046 l 1671 3016 l cp
eoclip
n 1534 3046 m
 4036 3046 l gs col0 s gr gr

% arrowhead
n 1671 3016 m 1551 3046 l 1671 3076 l  col0 s
% arrowhead
n 3899 3076 m 4019 3046 l 3899 3016 l  col0 s
/Times-Roman ff 210.00 scf sf
2475 525 m
gs 1 -1 sc (Center) col0 sh gr
/Times-Roman ff 210.00 scf sf
900 525 m
gs 1 -1 sc (Anita) col0 sh gr
/Times-Roman ff 210.00 scf sf
4125 525 m
gs 1 -1 sc (Bojan) col0 sh gr
/Times-Roman ff 150.00 scf sf
2685 2387 m
gs 1 -1 sc (\(OK \)) col0 sh gr
/Times-Roman ff 150.00 scf sf
2622 2991 m
gs 1 -1 sc (\(...\)) col0 sh gr
$F2psEnd
rs
