%!PS-Adobe-2.0 EPSF-2.0
%%Title: srednji.eps
%%Creator: fig2dev Version 3.2 Patchlevel 3c
%%CreationDate: Tue May 22 03:06:28 2001
%%For: jernej@darkstar (Jernej Tonejc,,,)
%%BoundingBox: 0 0 617 58
%%Magnification: 1.0000
%%EndComments
/$F2psDict 200 dict def
$F2psDict begin
$F2psDict /mtrx matrix put
/col-1 {0 setgray} bind def
/col0 {0.000 0.000 0.000 srgb} bind def
/col1 {0.000 0.000 1.000 srgb} bind def
/col2 {0.000 1.000 0.000 srgb} bind def
/col3 {0.000 1.000 1.000 srgb} bind def
/col4 {1.000 0.000 0.000 srgb} bind def
/col5 {1.000 0.000 1.000 srgb} bind def
/col6 {1.000 1.000 0.000 srgb} bind def
/col7 {1.000 1.000 1.000 srgb} bind def
/col8 {0.000 0.000 0.560 srgb} bind def
/col9 {0.000 0.000 0.690 srgb} bind def
/col10 {0.000 0.000 0.820 srgb} bind def
/col11 {0.530 0.810 1.000 srgb} bind def
/col12 {0.000 0.560 0.000 srgb} bind def
/col13 {0.000 0.690 0.000 srgb} bind def
/col14 {0.000 0.820 0.000 srgb} bind def
/col15 {0.000 0.560 0.560 srgb} bind def
/col16 {0.000 0.690 0.690 srgb} bind def
/col17 {0.000 0.820 0.820 srgb} bind def
/col18 {0.560 0.000 0.000 srgb} bind def
/col19 {0.690 0.000 0.000 srgb} bind def
/col20 {0.820 0.000 0.000 srgb} bind def
/col21 {0.560 0.000 0.560 srgb} bind def
/col22 {0.690 0.000 0.690 srgb} bind def
/col23 {0.820 0.000 0.820 srgb} bind def
/col24 {0.500 0.190 0.000 srgb} bind def
/col25 {0.630 0.250 0.000 srgb} bind def
/col26 {0.750 0.380 0.000 srgb} bind def
/col27 {1.000 0.500 0.500 srgb} bind def
/col28 {1.000 0.630 0.630 srgb} bind def
/col29 {1.000 0.750 0.750 srgb} bind def
/col30 {1.000 0.880 0.880 srgb} bind def
/col31 {1.000 0.840 0.000 srgb} bind def
/col32 {0.557 0.557 0.557 srgb} bind def
/col33 {0.714 0.698 0.714 srgb} bind def
/col34 {0.557 0.557 0.557 srgb} bind def
/col35 {0.557 0.557 0.557 srgb} bind def
/col36 {0.557 0.557 0.557 srgb} bind def
/col37 {0.557 0.557 0.557 srgb} bind def
/col38 {0.435 0.396 0.416 srgb} bind def
/col39 {0.396 0.184 0.447 srgb} bind def
/col40 {0.431 0.455 0.447 srgb} bind def
/col41 {0.557 0.557 0.557 srgb} bind def
/col42 {0.557 0.557 0.557 srgb} bind def

end
save
newpath 0 58 moveto 0 0 lineto 617 0 lineto 617 58 lineto closepath clip newpath
-60.0 167.0 translate
1 -1 scale

/cp {closepath} bind def
/ef {eofill} bind def
/gr {grestore} bind def
/gs {gsave} bind def
/sa {save} bind def
/rs {restore} bind def
/l {lineto} bind def
/m {moveto} bind def
/rm {rmoveto} bind def
/n {newpath} bind def
/s {stroke} bind def
/sh {show} bind def
/slc {setlinecap} bind def
/slj {setlinejoin} bind def
/slw {setlinewidth} bind def
/srgb {setrgbcolor} bind def
/rot {rotate} bind def
/sc {scale} bind def
/sd {setdash} bind def
/ff {findfont} bind def
/sf {setfont} bind def
/scf {scalefont} bind def
/sw {stringwidth} bind def
/tr {translate} bind def
/tnt {dup dup currentrgbcolor
  4 -2 roll dup 1 exch sub 3 -1 roll mul add
  4 -2 roll dup 1 exch sub 3 -1 roll mul add
  4 -2 roll dup 1 exch sub 3 -1 roll mul add srgb}
  bind def
/shd {dup dup currentrgbcolor 4 -2 roll mul 4 -2 roll mul
  4 -2 roll mul srgb} bind def
 /DrawEllipse {
	/endangle exch def
	/startangle exch def
	/yrad exch def
	/xrad exch def
	/y exch def
	/x exch def
	/savematrix mtrx currentmatrix def
	x y tr xrad yrad sc 0 0 1 startangle endangle arc
	closepath
	savematrix setmatrix
	} def

/$F2psBegin {$F2psDict begin /$F2psEnteredState save def} def
/$F2psEnd {$F2psEnteredState restore end} def

$F2psBegin
%%Page: 1 1
10 setmiterlimit
 0.06000 0.06000 sc
%
% Fig objects follow
%
7.500 slw
% Ellipse
n 6236 2329 1080 412 0 360 DrawEllipse gs col0 s gr

% Ellipse
n 10181 2359 1080 412 0 360 DrawEllipse gs col0 s gr

% Ellipse
n 2096 2299 1080 412 0 360 DrawEllipse gs col0 s gr

% Polyline
gs  clippath
4991 2157 m 4991 2097 l 4840 2097 l 4960 2127 l 4840 2157 l cp
eoclip
n 3326 2127 m
 4976 2127 l gs col0 s gr gr

% arrowhead
n 4840 2157 m 4960 2127 l 4840 2097 l 4840 2157 l  cp gs 0.00 setgray ef gr  col0 s
% Polyline
gs  clippath
3266 2442 m 3266 2502 l 3417 2502 l 3297 2472 l 3417 2442 l cp
eoclip
n 4931 2472 m
 3281 2472 l gs col0 s gr gr

% arrowhead
n 3417 2442 m 3297 2472 l 3417 2502 l 3417 2442 l  cp gs 0.00 setgray ef gr  col0 s
% Polyline
gs  clippath
9056 2202 m 9056 2142 l 8905 2142 l 9025 2172 l 8905 2202 l cp
eoclip
n 7451 2172 m
 9041 2172 l gs col0 s gr gr

% arrowhead
n 8905 2202 m 9025 2172 l 8905 2142 l 8905 2202 l  cp gs 0.00 setgray ef gr  col0 s
% Polyline
gs  clippath
7376 2502 m 7376 2562 l 7527 2562 l 7407 2532 l 7527 2502 l cp
eoclip
n 8951 2532 m
 7391 2532 l gs col0 s gr gr

% arrowhead
n 7527 2502 m 7407 2532 l 7527 2562 l 7527 2502 l  cp gs 0.00 setgray ef gr  col0 s
/Times-Roman ff 360.00 scf sf
1676 2427 m
gs 1 -1 sc (Anita) col0 sh gr
/Times-Roman ff 360.00 scf sf
9776 2487 m
gs 1 -1 sc (Bojan) col0 sh gr
/Times-Roman ff 360.00 scf sf
5726 2442 m
gs 1 -1 sc (Oskar) col0 sh gr
/Times-Roman ff 210.00 scf sf
3566 2022 m
gs 1 -1 sc (Cert\(A\)) col0 sh gr
/Times-Roman ff 210.00 scf sf
7676 2067 m
gs 1 -1 sc (Cert'\(A\)) col0 sh gr
/Times-Roman ff 210.00 scf sf
7766 2457 m
gs 1 -1 sc (Cert\(B\)) col0 sh gr
/Times-Roman ff 210.00 scf sf
3596 2397 m
gs 1 -1 sc (Cert'\(B\)) col0 sh gr
$F2psEnd
rs
