#FIG 3.2  Produced by xfig version 3.2.5
Landscape
Center
Metric
A4      
100.00
Single
-2
1200 2
2 5 0 1 0 -1 50 -1 -1 0.000 0 0 -1 0 0 5
	0 225px-Pierre_de_Fermat.jpg
	 2115 2430 4267 2430 4267 5310 2115 5310 2115 2430
