%!PS-Adobe-2.0 EPSF-2.0
%%Title: ca_podpis.fig
%%Creator: fig2dev Version 3.2 Patchlevel 5
%%CreationDate: Sun Nov  8 15:35:27 2009
%%For: ajurisic@ski (Sasa,,,)
%%BoundingBox: 0 0 675 464
%Magnification: 1.0000
%%EndComments
%%BeginProlog
/$F2psDict 200 dict def
$F2psDict begin
$F2psDict /mtrx matrix put
/col-1 {0 setgray} bind def
/col0 {0.000 0.000 0.000 srgb} bind def
/col1 {0.000 0.000 1.000 srgb} bind def
/col2 {0.000 1.000 0.000 srgb} bind def
/col3 {0.000 1.000 1.000 srgb} bind def
/col4 {1.000 0.000 0.000 srgb} bind def
/col5 {1.000 0.000 1.000 srgb} bind def
/col6 {1.000 1.000 0.000 srgb} bind def
/col7 {1.000 1.000 1.000 srgb} bind def
/col8 {0.000 0.000 0.560 srgb} bind def
/col9 {0.000 0.000 0.690 srgb} bind def
/col10 {0.000 0.000 0.820 srgb} bind def
/col11 {0.530 0.810 1.000 srgb} bind def
/col12 {0.000 0.560 0.000 srgb} bind def
/col13 {0.000 0.690 0.000 srgb} bind def
/col14 {0.000 0.820 0.000 srgb} bind def
/col15 {0.000 0.560 0.560 srgb} bind def
/col16 {0.000 0.690 0.690 srgb} bind def
/col17 {0.000 0.820 0.820 srgb} bind def
/col18 {0.560 0.000 0.000 srgb} bind def
/col19 {0.690 0.000 0.000 srgb} bind def
/col20 {0.820 0.000 0.000 srgb} bind def
/col21 {0.560 0.000 0.560 srgb} bind def
/col22 {0.690 0.000 0.690 srgb} bind def
/col23 {0.820 0.000 0.820 srgb} bind def
/col24 {0.500 0.190 0.000 srgb} bind def
/col25 {0.630 0.250 0.000 srgb} bind def
/col26 {0.750 0.380 0.000 srgb} bind def
/col27 {1.000 0.500 0.500 srgb} bind def
/col28 {1.000 0.630 0.630 srgb} bind def
/col29 {1.000 0.750 0.750 srgb} bind def
/col30 {1.000 0.880 0.880 srgb} bind def
/col31 {1.000 0.840 0.000 srgb} bind def

end

/cp {closepath} bind def
/ef {eofill} bind def
/gr {grestore} bind def
/gs {gsave} bind def
/sa {save} bind def
/rs {restore} bind def
/l {lineto} bind def
/m {moveto} bind def
/rm {rmoveto} bind def
/n {newpath} bind def
/s {stroke} bind def
/sh {show} bind def
/slc {setlinecap} bind def
/slj {setlinejoin} bind def
/slw {setlinewidth} bind def
/srgb {setrgbcolor} bind def
/rot {rotate} bind def
/sc {scale} bind def
/sd {setdash} bind def
/ff {findfont} bind def
/sf {setfont} bind def
/scf {scalefont} bind def
/sw {stringwidth} bind def
/tr {translate} bind def
/tnt {dup dup currentrgbcolor
  4 -2 roll dup 1 exch sub 3 -1 roll mul add
  4 -2 roll dup 1 exch sub 3 -1 roll mul add
  4 -2 roll dup 1 exch sub 3 -1 roll mul add srgb}
  bind def
/shd {dup dup currentrgbcolor 4 -2 roll mul 4 -2 roll mul
  4 -2 roll mul srgb} bind def
/reencdict 12 dict def /ReEncode { reencdict begin
/newcodesandnames exch def /newfontname exch def /basefontname exch def
/basefontdict basefontname findfont def /newfont basefontdict maxlength dict def
basefontdict { exch dup /FID ne { dup /Encoding eq
{ exch dup length array copy newfont 3 1 roll put }
{ exch newfont 3 1 roll put } ifelse } { pop pop } ifelse } forall
newfont /FontName newfontname put newcodesandnames aload pop
128 1 255 { newfont /Encoding get exch /.notdef put } for
newcodesandnames length 2 idiv { newfont /Encoding get 3 1 roll put } repeat
newfontname newfont definefont pop end } def
/isovec [
8#055 /minus 8#200 /grave 8#201 /acute 8#202 /circumflex 8#203 /tilde
8#204 /macron 8#205 /breve 8#206 /dotaccent 8#207 /dieresis
8#210 /ring 8#211 /cedilla 8#212 /hungarumlaut 8#213 /ogonek 8#214 /caron
8#220 /dotlessi 8#230 /oe 8#231 /OE
8#240 /space 8#241 /exclamdown 8#242 /cent 8#243 /sterling
8#244 /currency 8#245 /yen 8#246 /brokenbar 8#247 /section 8#250 /dieresis
8#251 /copyright 8#252 /ordfeminine 8#253 /guillemotleft 8#254 /logicalnot
8#255 /hyphen 8#256 /registered 8#257 /macron 8#260 /degree 8#261 /plusminus
8#262 /twosuperior 8#263 /threesuperior 8#264 /acute 8#265 /mu 8#266 /paragraph
8#267 /periodcentered 8#270 /cedilla 8#271 /onesuperior 8#272 /ordmasculine
8#273 /guillemotright 8#274 /onequarter 8#275 /onehalf
8#276 /threequarters 8#277 /questiondown 8#300 /Agrave 8#301 /Aacute
8#302 /Acircumflex 8#303 /Atilde 8#304 /Adieresis 8#305 /Aring
8#306 /AE 8#307 /Ccedilla 8#310 /Egrave 8#311 /Eacute
8#312 /Ecircumflex 8#313 /Edieresis 8#314 /Igrave 8#315 /Iacute
8#316 /Icircumflex 8#317 /Idieresis 8#320 /Eth 8#321 /Ntilde 8#322 /Ograve
8#323 /Oacute 8#324 /Ocircumflex 8#325 /Otilde 8#326 /Odieresis 8#327 /multiply
8#330 /Oslash 8#331 /Ugrave 8#332 /Uacute 8#333 /Ucircumflex
8#334 /Udieresis 8#335 /Yacute 8#336 /Thorn 8#337 /germandbls 8#340 /agrave
8#341 /aacute 8#342 /acircumflex 8#343 /atilde 8#344 /adieresis 8#345 /aring
8#346 /ae 8#347 /ccedilla 8#350 /egrave 8#351 /eacute
8#352 /ecircumflex 8#353 /edieresis 8#354 /igrave 8#355 /iacute
8#356 /icircumflex 8#357 /idieresis 8#360 /eth 8#361 /ntilde 8#362 /ograve
8#363 /oacute 8#364 /ocircumflex 8#365 /otilde 8#366 /odieresis 8#367 /divide
8#370 /oslash 8#371 /ugrave 8#372 /uacute 8#373 /ucircumflex
8#374 /udieresis 8#375 /yacute 8#376 /thorn 8#377 /ydieresis] def
/Palatino-Bold /Palatino-Bold-iso isovec ReEncode
/Helvetica-Bold /Helvetica-Bold-iso isovec ReEncode
 /DrawEllipse {
	/endangle exch def
	/startangle exch def
	/yrad exch def
	/xrad exch def
	/y exch def
	/x exch def
	/savematrix mtrx currentmatrix def
	x y tr xrad yrad sc 0 0 1 startangle endangle arc
	closepath
	savematrix setmatrix
	} def

/$F2psBegin {$F2psDict begin /$F2psEnteredState save def} def
/$F2psEnd {$F2psEnteredState restore end} def

/pageheader {
save
newpath 0 464 moveto 0 0 lineto 675 0 lineto 675 464 lineto closepath clip newpath
-136.8 543.7 translate
1 -1 scale
$F2psBegin
10 setmiterlimit
0 slj 0 slc
 0.06299 0.06299 sc
} bind def
/pagefooter {
$F2psEnd
restore
} bind def
%%EndProlog
pageheader
%
% Fig objects follow
%
% 
% here starts figure with depth 50
% Polyline
0 slj
0 slc
7.500 slw
n 2218 2893 m
 2565 2880 l gs col0 s gr 
% Polyline
n 2741 8235 m 2749 8235 l gs col0 s gr
% Polyline
n 3438 7793 m 2803 8198 l 3013 7968 l 3123 7823 l 3233 7593 l 3303 7328 l
 3343 6978 l 3338 6658 l 3313 6378 l 3268 6018 l 3193 5733 l
 3098 5488 l 2943 5218 l 2803 4863 l 2678 4503 l 2403 3577 l
 2213 2873 l 2528 2888 l 2583 3388 l 2788 4278 l 2938 4783 l
 3153 5178 l 3328 5463 l 3438 5808 l 3523 6313 l 3563 6618 l
 3573 6923 l 3563 7113 l 3538 7363 l
 3468 7723 l gs 0.00 setgray ef gr gs col0 s gr 
% Polyline
n 2583 2633 m 3523 2468 l 4488 2183 l 5278 1838 l 6028 1383 l 5948 1623 l
 5913 1908 l 5948 2298 l 6093 2908 l 6288 3418 l 6463 3688 l
 6663 3918 l 6818 4258 l 6963 4853 l 7013 5478 l 6928 5993 l
 6643 6583 l 6163 6848 l 5533 7093 l 5168 7188 l 4923 7263 l
 4418 7493 l 3958 7748 l 3588 8003 l 3258 8243 l 3433 7863 l
 3533 7558 l 3583 7183 l 3588 6768 l 3543 6308 l 3463 5868 l
 3358 5493 l 3208 5223 l 3103 5073 l 2948 4713 l 2773 4113 l
 2638 3538 l 2578 3108 l
 2583 2633 l  cp gs col30 1.00 shd ef gr gs col0 s gr 
% Polyline
n 5310 2205 m
 9675 2205 l gs col0 s gr 
% Polyline
n 4725 4050 m
 7605 4815 l gs col0 s gr 
% Polyline
n 7605 2745 m
 7605 6795 l gs col0 s gr 
% Polyline
2 slj
30.000 slw
n 2565 2610 m 2565 2611 l 2565 2612 l 2564 2614 l 2564 2618 l 2563 2623 l
 2563 2630 l 2562 2639 l 2561 2650 l 2559 2663 l 2558 2678 l
 2557 2696 l 2555 2716 l 2554 2738 l 2553 2762 l 2552 2788 l
 2551 2816 l 2551 2845 l 2551 2877 l 2551 2911 l 2552 2947 l
 2554 2984 l 2556 3024 l 2560 3066 l 2563 3111 l 2568 3158 l
 2574 3209 l 2582 3263 l 2590 3320 l 2600 3382 l 2611 3448 l
 2625 3519 l 2640 3594 l 2657 3675 l 2676 3762 l 2697 3853 l
 2720 3950 l 2745 4050 l 2765 4128 l 2786 4206 l 2808 4284 l
 2829 4360 l 2851 4435 l 2873 4506 l 2894 4574 l 2915 4638 l
 2936 4699 l 2956 4755 l 2975 4808 l 2994 4856 l 3012 4901 l
 3030 4943 l 3047 4980 l 3064 5015 l 3080 5047 l 3095 5076 l
 3110 5102 l 3125 5127 l 3140 5150 l 3154 5171 l 3168 5192 l
 3181 5212 l 3195 5231 l 3209 5251 l 3222 5271 l 3236 5292 l
 3249 5314 l 3263 5337 l 3277 5362 l 3291 5390 l 3306 5419 l
 3320 5452 l 3335 5488 l 3350 5527 l 3366 5570 l 3382 5617 l
 3397 5668 l 3413 5723 l 3429 5783 l 3446 5846 l 3461 5915 l
 3477 5987 l 3492 6063 l 3507 6142 l 3521 6224 l 3534 6309 l
 3545 6394 l 3555 6480 l 3564 6581 l 3571 6679 l 3576 6775 l
 3578 6866 l 3578 6954 l 3575 7037 l 3572 7117 l 3566 7192 l
 3559 7264 l 3550 7333 l 3541 7398 l 3530 7460 l 3518 7519 l
 3505 7576 l 3491 7631 l 3476 7684 l 3461 7734 l 3445 7783 l
 3429 7830 l 3412 7875 l 3395 7919 l 3377 7960 l 3360 8000 l
 3343 8038 l 3327 8074 l 3310 8108 l 3295 8140 l 3280 8169 l
 3266 8196 l 3253 8220 l 3242 8242 l 3232 8261 l 3223 8277 l
 3215 8290 l 3209 8301 l 3204 8309 l 3200 8316 l 3198 8320 l
 3196 8323 l 3195 8324 l
 3195 8325 l gs col0 s gr 
% Polyline
n 6067 1350 m 6066 1352 l 6065 1354 l 6063 1357 l 6060 1361 l 6057 1368 l
 6053 1376 l 6047 1385 l 6041 1397 l 6035 1411 l 6027 1427 l
 6019 1444 l 6010 1464 l 6002 1486 l 5993 1509 l 5984 1534 l
 5975 1561 l 5966 1590 l 5958 1620 l 5950 1652 l 5943 1686 l
 5937 1722 l 5931 1760 l 5927 1800 l 5924 1843 l 5922 1889 l
 5921 1938 l 5922 1990 l 5925 2046 l 5930 2106 l 5937 2170 l
 5946 2239 l 5957 2313 l 5971 2392 l 5988 2476 l 6008 2563 l
 6030 2655 l 6050 2729 l 6071 2804 l 6093 2878 l 6115 2950 l
 6138 3020 l 6162 3088 l 6185 3152 l 6208 3212 l 6231 3268 l
 6254 3321 l 6276 3369 l 6298 3414 l 6319 3455 l 6339 3493 l
 6359 3527 l 6379 3558 l 6398 3587 l 6417 3613 l 6435 3637 l
 6453 3660 l 6471 3680 l 6489 3700 l 6506 3719 l 6523 3738 l
 6541 3757 l 6558 3777 l 6575 3797 l 6593 3818 l 6610 3841 l
 6628 3865 l 6647 3892 l 6665 3922 l 6684 3954 l 6703 3990 l
 6723 4029 l 6742 4072 l 6763 4119 l 6783 4170 l 6804 4225 l
 6824 4284 l 6845 4348 l 6865 4416 l 6885 4488 l 6905 4563 l
 6923 4641 l 6941 4722 l 6957 4803 l 6971 4885 l 6985 4982 l
 6996 5076 l 7004 5168 l 7010 5255 l 7013 5338 l 7013 5417 l
 7011 5492 l 7007 5564 l 7001 5631 l 6994 5695 l 6985 5756 l
 6974 5814 l 6963 5870 l 6950 5923 l 6936 5974 l 6921 6023 l
 6905 6070 l 6889 6115 l 6872 6158 l 6855 6200 l 6838 6240 l
 6820 6278 l 6803 6314 l 6786 6348 l 6770 6380 l 6754 6410 l
 6739 6437 l 6725 6462 l 6712 6484 l 6701 6503 l 6691 6520 l
 6683 6534 l 6676 6545 l 6670 6554 l 6666 6560 l 6663 6565 l
 6661 6568 l 6660 6569 l
 6660 6570 l gs col0 s gr 
% Polyline
n 2565 2610 m 2566 2610 l 2567 2610 l 2571 2609 l 2576 2609 l 2583 2608 l
 2593 2607 l 2606 2605 l 2621 2603 l 2640 2601 l 2662 2598 l
 2687 2594 l 2715 2591 l 2746 2586 l 2779 2582 l 2816 2576 l
 2855 2571 l 2896 2565 l 2939 2558 l 2984 2551 l 3030 2543 l
 3078 2535 l 3128 2527 l 3178 2518 l 3230 2509 l 3283 2499 l
 3338 2488 l 3393 2477 l 3449 2465 l 3507 2452 l 3566 2439 l
 3627 2425 l 3689 2409 l 3754 2393 l 3819 2376 l 3887 2357 l
 3957 2337 l 4030 2316 l 4104 2294 l 4180 2270 l 4259 2244 l
 4338 2217 l 4419 2189 l 4500 2160 l 4584 2129 l 4667 2097 l
 4747 2065 l 4824 2033 l 4898 2001 l 4969 1970 l 5037 1939 l
 5102 1909 l 5164 1879 l 5224 1850 l 5280 1821 l 5335 1793 l
 5387 1766 l 5437 1738 l 5486 1711 l 5533 1684 l 5578 1658 l
 5622 1632 l 5664 1607 l 5705 1581 l 5745 1557 l 5783 1533 l
 5819 1509 l 5854 1486 l 5887 1465 l 5918 1444 l 5948 1424 l
 5975 1406 l 6000 1389 l 6022 1374 l 6042 1360 l 6060 1348 l
 6075 1337 l 6087 1328 l 6097 1321 l 6105 1315 l 6111 1311 l
 6115 1308 l 6118 1306 l 6119 1305 l
 6120 1305 l gs col0 s gr 
% Polyline
n 3195 8325 m 3196 8325 l 3197 8323 l 3199 8321 l 3203 8318 l 3208 8313 l
 3215 8307 l 3224 8299 l 3236 8289 l 3249 8277 l 3264 8264 l
 3282 8249 l 3302 8232 l 3323 8214 l 3346 8195 l 3372 8174 l
 3398 8152 l 3427 8129 l 3457 8106 l 3488 8081 l 3521 8056 l
 3555 8031 l 3590 8004 l 3627 7977 l 3666 7950 l 3707 7922 l
 3750 7893 l 3795 7863 l 3843 7833 l 3893 7801 l 3946 7769 l
 4003 7735 l 4062 7701 l 4126 7665 l 4192 7628 l 4262 7591 l
 4335 7553 l 4410 7515 l 4479 7481 l 4547 7448 l 4615 7416 l
 4680 7386 l 4742 7358 l 4801 7332 l 4856 7309 l 4908 7287 l
 4955 7268 l 4999 7251 l 5039 7236 l 5075 7222 l 5108 7211 l
 5139 7201 l 5166 7192 l 5191 7185 l 5214 7178 l 5236 7173 l
 5256 7168 l 5276 7163 l 5295 7159 l 5314 7155 l 5333 7150 l
 5353 7146 l 5374 7141 l 5396 7135 l 5420 7129 l 5446 7121 l
 5474 7113 l 5504 7103 l 5538 7092 l 5574 7080 l 5613 7066 l
 5656 7051 l 5701 7034 l 5750 7016 l 5801 6996 l 5854 6975 l
 5909 6953 l 5965 6931 l 6020 6908 l 6075 6885 l 6165 6847 l
 6245 6812 l 6315 6781 l 6375 6753 l 6426 6728 l 6470 6706 l
 6506 6687 l 6537 6670 l 6562 6655 l 6583 6642 l 6601 6630 l
 6615 6619 l 6627 6610 l 6636 6601 l 6643 6594 l 6649 6587 l
 6653 6582 l 6656 6578 l 6658 6575 l 6659 6573 l 6660 6571 l

 6660 6570 l gs col0 s gr 
% Polyline
n 2205 2880 m 2205 2881 l 2206 2883 l 2206 2886 l 2207 2890 l 2209 2895 l
 2211 2902 l 2213 2911 l 2216 2922 l 2219 2934 l 2222 2948 l
 2227 2964 l 2231 2982 l 2237 3002 l 2242 3024 l 2249 3047 l
 2256 3073 l 2263 3101 l 2272 3131 l 2281 3163 l 2290 3198 l
 2301 3236 l 2312 3276 l 2325 3321 l 2339 3368 l 2354 3421 l
 2370 3477 l 2388 3539 l 2407 3606 l 2429 3680 l 2452 3759 l
 2478 3845 l 2505 3938 l 2534 4036 l 2565 4140 l 2588 4217 l
 2612 4295 l 2635 4373 l 2659 4450 l 2682 4525 l 2705 4598 l
 2728 4668 l 2750 4735 l 2771 4798 l 2792 4857 l 2812 4913 l
 2831 4965 l 2850 5014 l 2868 5059 l 2886 5101 l 2902 5139 l
 2919 5175 l 2934 5209 l 2949 5240 l 2964 5269 l 2979 5297 l
 2993 5323 l 3007 5348 l 3020 5373 l 3034 5397 l 3047 5421 l
 3061 5446 l 3074 5472 l 3087 5498 l 3100 5526 l 3114 5556 l
 3127 5587 l 3141 5621 l 3155 5658 l 3169 5698 l 3182 5740 l
 3196 5787 l 3211 5836 l 3225 5890 l 3239 5948 l 3252 6009 l
 3266 6074 l 3279 6144 l 3291 6216 l 3303 6292 l 3314 6371 l
 3324 6452 l 3332 6534 l 3338 6617 l 3343 6700 l 3346 6796 l
 3346 6889 l 3343 6978 l 3337 7063 l 3330 7143 l 3320 7218 l
 3308 7289 l 3295 7356 l 3280 7418 l 3264 7477 l 3246 7533 l
 3228 7585 l 3208 7634 l 3187 7681 l 3166 7725 l 3143 7767 l
 3120 7807 l 3097 7844 l 3072 7880 l 3048 7915 l 3023 7947 l
 2999 7978 l 2975 8008 l 2950 8035 l 2927 8061 l 2904 8085 l
 2883 8108 l 2862 8128 l 2843 8147 l 2825 8164 l 2809 8179 l
 2795 8192 l 2783 8202 l 2773 8212 l 2764 8219 l 2757 8225 l
 2752 8229 l 2749 8232 l 2747 8234 l 2746 8235 l
 2745 8235 l gs col0 s gr 
/Helvetica-Bold-iso ff 285.75 scf sf
7718 3826 m
gs 1 -1 sc (- serijska stevilka certifikata) col0 sh gr
/Helvetica-Bold-iso ff 285.75 scf sf
7701 4195 m
gs 1 -1 sc (- identifikacijska stevilka algoritma) col0 sh gr
/Helvetica-Bold-iso ff 285.75 scf sf
7856 4581 m
gs 1 -1 sc (za podpis \(za izdajateljev) col0 sh gr
/Helvetica-Bold-iso ff 285.75 scf sf
7710 3483 m
gs 1 -1 sc (- unikatno ime izdajatelja) col0 sh gr
/Helvetica-Bold-iso ff 285.75 scf sf
7726 3089 m
gs 1 -1 sc (- unikatno ime lastnika kartice \(DN\)) col0 sh gr
/Helvetica-Bold-iso ff 285.75 scf sf
7701 5260 m
gs 1 -1 sc (- identifikacijska stevilka algoritma) col0 sh gr
/Helvetica-Bold-iso ff 285.75 scf sf
7930 4917 m
gs 1 -1 sc (podpis na certifikatu\)) col0 sh gr
/Helvetica-Bold-iso ff 285.75 scf sf
7864 5597 m
gs 1 -1 sc (za podpis \(certifikatne agencije CA\)) col0 sh gr
/Helvetica-Bold-iso ff 285.75 scf sf
7693 5982 m
gs 1 -1 sc (- cas veljavnosti) col0 sh gr
/Helvetica-Bold-iso ff 285.75 scf sf
7881 6301 m
gs 1 -1 sc (\(casa za zacetek in konec\)) col0 sh gr
/Helvetica-Bold-iso ff 285.75 scf sf
7693 6687 m
gs 1 -1 sc (- razsiritve) col0 sh gr
/Helvetica-Bold-iso ff 190.50 scf sf
8349 6523 m
gs 1 -1 sc (v) col0 sh gr
/Helvetica-Bold-iso ff 190.50 scf sf
8005 6146 m
gs 1 -1 sc (v) col0 sh gr
/Helvetica-Bold-iso ff 190.50 scf sf
9513 6163 m
gs 1 -1 sc (v) col0 sh gr
/Helvetica-Bold-iso ff 190.50 scf sf
7898 5826 m
gs 1 -1 sc (v) col0 sh gr
/Helvetica-Bold-iso ff 190.50 scf sf
10185 5113 m
gs 1 -1 sc (v) col0 sh gr
/Helvetica-Bold-iso ff 190.50 scf sf
10185 4048 m
gs 1 -1 sc (v) col0 sh gr
/Helvetica-Bold-iso ff 190.50 scf sf
9144 3687 m
gs 1 -1 sc (v) col0 sh gr
/Helvetica-Bold-iso ff 285.75 scf sf
6215 2118 m
gs 1 -1 sc (vrednost javnega kljuca) col0 sh gr
/Helvetica-Bold-iso ff 190.50 scf sf
9370 1979 m
gs 1 -1 sc (v) col0 sh gr
/Helvetica-Bold-iso ff 285.75 scf sf
4099 8159 m
gs 1 -1 sc (digitalni podpis) col0 sh gr
/Helvetica-Bold-iso ff 285.75 scf sf
4066 8536 m
gs 1 -1 sc (certifikatne agencije) col0 sh gr
/Helvetica-Bold-iso ff 285.75 scf sf
6845 8151 m
gs 1 -1 sc (\(t.i. korenski certifikat\)) col0 sh gr
/Helvetica-Bold-iso ff 285.75 scf sf
6852 7815 m
gs 1 -1 sc (certifikatne agencije) col0 sh gr
/Helvetica-Bold-iso ff 285.75 scf sf
6861 7487 m
gs 1 -1 sc (zasebni kljuc) col0 sh gr
/Helvetica-Bold-iso ff 190.50 scf sf
8617 7347 m
gs 1 -1 sc (v) col0 sh gr
% here ends figure;
% 
% here starts figure with depth 20
% Polyline
2 slj
0 slc
30.000 slw
n 5265 6139 m 5266 6138 l 5269 6136 l 5273 6132 l 5280 6127 l 5289 6119 l
 5301 6110 l 5315 6099 l 5331 6087 l 5349 6074 l 5369 6060 l
 5390 6047 l 5413 6034 l 5437 6021 l 5463 6009 l 5491 5998 l
 5521 5987 l 5554 5978 l 5590 5970 l 5629 5964 l 5671 5960 l
 5715 5959 l 5760 5960 l 5803 5965 l 5843 5971 l 5878 5980 l
 5908 5991 l 5934 6002 l 5955 6015 l 5973 6029 l 5989 6043 l
 6002 6057 l 6015 6072 l 6027 6086 l 6040 6099 l 6054 6113 l
 6071 6125 l 6089 6135 l 6111 6144 l 6136 6151 l 6164 6154 l
 6194 6153 l 6225 6149 l 6255 6139 l 6280 6126 l 6301 6110 l
 6319 6093 l 6333 6075 l 6345 6059 l 6354 6043 l 6361 6028 l
 6366 6014 l 6370 6001 l 6372 5989 l 6374 5978 l 6375 5966 l
 6376 5955 l 6376 5942 l 6376 5929 l 6376 5913 l 6375 5895 l
 6374 5875 l 6373 5852 l 6370 5825 l 6367 5795 l 6362 5762 l
 6355 5726 l 6345 5689 l 6333 5655 l 6320 5621 l 6307 5590 l
 6293 5560 l 6280 5533 l 6267 5509 l 6256 5487 l 6245 5467 l
 6235 5449 l 6227 5432 l 6218 5417 l 6210 5403 l 6202 5389 l
 6194 5376 l 6186 5363 l 6177 5349 l 6166 5336 l 6154 5323 l
 6140 5309 l 6125 5295 l 6107 5282 l 6086 5269 l 6064 5258 l
 6039 5248 l 6013 5241 l 5985 5239 l 5955 5242 l 5927 5250 l
 5902 5261 l 5880 5275 l 5862 5291 l 5847 5307 l 5836 5325 l
 5828 5342 l 5822 5359 l 5818 5377 l 5815 5394 l 5812 5412 l
 5810 5429 l 5807 5448 l 5803 5467 l 5796 5487 l 5787 5508 l
 5775 5531 l 5760 5555 l 5740 5580 l 5717 5607 l 5689 5634 l
 5658 5662 l 5625 5689 l 5588 5716 l 5552 5741 l 5517 5762 l
 5484 5780 l 5453 5796 l 5424 5809 l 5396 5820 l 5370 5829 l
 5344 5837 l 5319 5844 l 5296 5849 l 5274 5854 l 5253 5858 l
 5234 5861 l 5218 5864 l 5204 5866 l 5193 5867 l 5185 5868 l
 5179 5869 l 5176 5869 l
 5175 5869 l gs col25 1.00 shd ef gr gs col0 s gr 
% Polyline
0 slj
n 5010 5409 m 5400 6525 l 4995 6570 l 4706 5761 l
 4995 5400 l gs col25 1.00 shd ef gr gs col0 s gr 
% here ends figure;
% 
% here starts figure with depth 15
% Polyline
2 slj
0 slc
7.500 slw
n 4075 5819 m 4105 5816 l 4135 5816 l 4163 5816 l 4188 5816 l 4210 5816 l
 4228 5817 l 4243 5817 l 4256 5816 l 4268 5816 l 4279 5816 l
 4289 5817 l 4301 5818 l 4314 5820 l 4330 5824 l 4349 5830 l
 4371 5839 l 4398 5851 l 4427 5866 l 4460 5886 l 4493 5909 l
 4525 5935 l 4553 5962 l 4577 5987 l 4596 6010 l 4611 6029 l
 4622 6046 l 4630 6060 l 4636 6072 l 4640 6082 l 4643 6092 l
 4646 6102 l 4649 6113 l 4654 6126 l 4659 6142 l 4667 6161 l
 4676 6185 l 4688 6213 l 4702 6245 l 4716 6281 l 4731 6319 l
 4744 6356 l 4755 6391 l 4765 6420 l 4773 6445 l 4780 6465 l
 4786 6480 l 4791 6491 l 4796 6499 l 4801 6505 l 4805 6510 l
 4808 6515 l 4811 6521 l 4814 6528 l 4815 6538 l 4814 6551 l
 4812 6568 l 4807 6589 l 4800 6614 l 4788 6642 l 4772 6671 l
 4752 6699 l 4731 6725 l 4709 6747 l 4690 6766 l 4672 6781 l
 4657 6792 l 4645 6802 l 4634 6809 l 4624 6815 l 4614 6820 l
 4604 6825 l 4593 6830 l 4580 6836 l 4563 6842 l 4543 6850 l
 4518 6859 l 4488 6869 l 4453 6880 l 4413 6891 l 4370 6901 l
 4326 6908 l 4285 6913 l 4248 6917 l 4217 6919 l 4191 6921 l
 4170 6922 l 4153 6923 l 4140 6924 l 4129 6925 l 4119 6925 l
 4109 6925 l 4098 6925 l 4086 6923 l 4070 6919 l 4051 6914 l
 4027 6907 l 3999 6896 l 3967 6882 l 3931 6865 l 3895 6843 l
 3864 6821 l 3836 6798 l 3811 6775 l 3790 6755 l 3773 6737 l
 3759 6722 l 3747 6710 l 3738 6699 l 3731 6690 l 3725 6682 l
 3719 6675 l 3714 6667 l 3710 6658 l 3705 6648 l 3699 6635 l
 3693 6619 l 3687 6599 l 3680 6574 l 3672 6545 l 3666 6511 l
 3660 6474 l 3657 6433 l 3657 6392 l 3660 6352 l 3666 6315 l
 3673 6282 l 3681 6253 l 3689 6228 l 3698 6207 l 3708 6188 l
 3717 6172 l 3727 6158 l 3736 6145 l 3746 6132 l 3756 6118 l
 3767 6104 l 3777 6088 l 3789 6070 l 3800 6050 l 3813 6028 l
 3825 6005 l 3838 5980 l 3850 5955 l 3862 5933 l 3872 5916 l
 3880 5903 l 3886 5895 l 3891 5890 l 3894 5888 l 3896 5889 l
 3896 5892 l 3895 5897 l 3893 5904 l 3891 5912 l 3888 5921 l
 3885 5930 l 3882 5939 l 3879 5949 l 3877 5957 l 3875 5966 l
 3874 5973 l 3874 5979 l 3875 5984 l 3878 5988 l 3882 5989 l
 3888 5989 l 3895 5987 l 3903 5983 l 3919 5973 l 3933 5961 l
 3945 5948 l 3952 5935 l 3956 5922 l 3957 5910 l 3958 5898 l
 3959 5886 l 3962 5874 l 3970 5861 l 3983 5849 l 4005 5837 l
 4036 5827 l
 cp gs col20 1.00 shd ef gr gs col0 s gr 
% here ends figure;
% 
% here starts figure with depth 10
% Polyline
0 slj
0 slc
7.500 slw
n 4731 5851 m 4616 5868 l 4854 6540 l
 4944 6450 l gs 0.00 setgray ef gr gs col0 s gr 
% Polyline
2 slj
n 6030 5670 m 6040 5692 l 6052 5711 l 6064 5727 l 6075 5740 l 6086 5751 l
 6097 5760 l 6107 5768 l 6116 5775 l 6126 5781 l 6136 5787 l
 6147 5793 l 6158 5799 l 6171 5804 l 6184 5807 l 6198 5808 l
 6210 5805 l 6220 5797 l 6227 5786 l 6232 5773 l 6235 5760 l
 6236 5747 l 6237 5735 l 6237 5723 l 6236 5711 l 6235 5699 l
 6234 5687 l 6232 5673 l 6230 5657 l 6227 5640 l 6223 5621 l
 6217 5600 l 6210 5580 l 6197 5556 l 6184 5539 l 6172 5528 l
 6161 5522 l 6151 5520 l 6142 5520 l 6134 5520 l 6124 5520 l
 6113 5517 l 6101 5511 l 6088 5501 l 6075 5490 l 6072 5487 l
 6069 5483 l 6066 5480 l 6064 5477 l 6062 5474 l 6061 5471 l
 6060 5468 l 6060 5466 l 6059 5463 l 6059 5461 l 6060 5458 l
 6060 5456 l 6061 5454 l 6062 5451 l 6063 5449 l 6064 5447 l
 6065 5445 l 6066 5443 l 6068 5441 l 6069 5439 l 6070 5438 l
 6071 5436 l 6073 5434 l 6074 5433 l 6075 5431 l 6076 5430 l
 6077 5429 l 6078 5429 l 6078 5428 l 6079 5428 l 6079 5429 l
 6079 5430 l 6078 5432 l 6078 5434 l 6077 5437 l 6076 5441 l
 6075 5445 l 6071 5460 l 6067 5477 l 6062 5493 l 6056 5508 l
 6050 5520 l 6044 5532 l 6037 5543 l 6032 5554 l 6026 5566 l
 6022 5580 l 6020 5598 l 6019 5619 l 6023 5644 l
 cp gs col7 1.00 shd ef gr gs col7 s gr 
% here ends figure;
% 
% here starts figure with depth 6
/Palatino-Bold-iso ff 127.00 scf sf
3934 6498 m
gs 1 -1 sc  20.0 rot (124831767) col0 sh gr
/Palatino-Bold-iso ff 127.00 scf sf
3975 6645 m
gs 1 -1 sc  20.0 rot (957314416) col0 sh gr
% Ellipse
7.500 slw
n 4253 6380 409 409 0 360 DrawEllipse gs col0 s gr

% Polyline
0 slj
0 slc
n 6795 7290 m
 6165 5985 l gs col0 s gr 
% Polyline
n 5135 7828 m
 4354 6565 l gs col0 s gr 
/Palatino-Bold-iso ff 381.00 scf sf
3057 4456 m
gs 1 -1 sc  20.0 rot (DN=Janez Novak) col0 sh gr
% here ends figure;
pagefooter
showpage
%%Trailer
%EOF
