%!PS-Adobe-2.0 EPSF-2.0
%%Title: izziv-odg.eps
%%Creator: fig2dev Version 3.2 Patchlevel 3d
%%CreationDate: Wed Jan 16 04:14:24 2002
%%For: ajurisic@f9pcd8.ijs.si (Aleksandar Jurisic)
%%BoundingBox: 0 0 336 120
%%Magnification: 1.0000
%%EndComments
/$F2psDict 200 dict def
$F2psDict begin
$F2psDict /mtrx matrix put
/col-1 {0 setgray} bind def
/col0 {0.000 0.000 0.000 srgb} bind def
/col1 {0.000 0.000 1.000 srgb} bind def
/col2 {0.000 1.000 0.000 srgb} bind def
/col3 {0.000 1.000 1.000 srgb} bind def
/col4 {1.000 0.000 0.000 srgb} bind def
/col5 {1.000 0.000 1.000 srgb} bind def
/col6 {1.000 1.000 0.000 srgb} bind def
/col7 {1.000 1.000 1.000 srgb} bind def
/col8 {0.000 0.000 0.560 srgb} bind def
/col9 {0.000 0.000 0.690 srgb} bind def
/col10 {0.000 0.000 0.820 srgb} bind def
/col11 {0.530 0.810 1.000 srgb} bind def
/col12 {0.000 0.560 0.000 srgb} bind def
/col13 {0.000 0.690 0.000 srgb} bind def
/col14 {0.000 0.820 0.000 srgb} bind def
/col15 {0.000 0.560 0.560 srgb} bind def
/col16 {0.000 0.690 0.690 srgb} bind def
/col17 {0.000 0.820 0.820 srgb} bind def
/col18 {0.560 0.000 0.000 srgb} bind def
/col19 {0.690 0.000 0.000 srgb} bind def
/col20 {0.820 0.000 0.000 srgb} bind def
/col21 {0.560 0.000 0.560 srgb} bind def
/col22 {0.690 0.000 0.690 srgb} bind def
/col23 {0.820 0.000 0.820 srgb} bind def
/col24 {0.500 0.190 0.000 srgb} bind def
/col25 {0.630 0.250 0.000 srgb} bind def
/col26 {0.750 0.380 0.000 srgb} bind def
/col27 {1.000 0.500 0.500 srgb} bind def
/col28 {1.000 0.630 0.630 srgb} bind def
/col29 {1.000 0.750 0.750 srgb} bind def
/col30 {1.000 0.880 0.880 srgb} bind def
/col31 {1.000 0.840 0.000 srgb} bind def

end
save
newpath 0 120 moveto 0 0 lineto 336 0 lineto 336 120 lineto closepath clip newpath
0.4 168.6 translate
1 -1 scale

/cp {closepath} bind def
/ef {eofill} bind def
/gr {grestore} bind def
/gs {gsave} bind def
/sa {save} bind def
/rs {restore} bind def
/l {lineto} bind def
/m {moveto} bind def
/rm {rmoveto} bind def
/n {newpath} bind def
/s {stroke} bind def
/sh {show} bind def
/slc {setlinecap} bind def
/slj {setlinejoin} bind def
/slw {setlinewidth} bind def
/srgb {setrgbcolor} bind def
/rot {rotate} bind def
/sc {scale} bind def
/sd {setdash} bind def
/ff {findfont} bind def
/sf {setfont} bind def
/scf {scalefont} bind def
/sw {stringwidth} bind def
/tr {translate} bind def
/tnt {dup dup currentrgbcolor
  4 -2 roll dup 1 exch sub 3 -1 roll mul add
  4 -2 roll dup 1 exch sub 3 -1 roll mul add
  4 -2 roll dup 1 exch sub 3 -1 roll mul add srgb}
  bind def
/shd {dup dup currentrgbcolor 4 -2 roll mul 4 -2 roll mul
  4 -2 roll mul srgb} bind def
/$F2psBegin {$F2psDict begin /$F2psEnteredState save def} def
/$F2psEnd {$F2psEnteredState restore end} def

$F2psBegin
10 setmiterlimit
 0.06000 0.06000 sc
%
% Fig objects follow
%
% Polyline
7.500 slw
 [15 45] 45 sd
n 905 827 m 2405 827 l 2405 2798 l 905 2798 l
 cp gs col11 1.00 shd ef gr gs col0 s gr  [] 0 sd
% Polyline
 [15 45] 45 sd
n 3268 845 m 4675 845 l 4675 2798 l 3268 2798 l
 cp gs col31 1.00 shd ef gr gs col0 s gr  [] 0 sd
/Times-Italic ff 75.00 scf sf
1990 1290 m
gs 1 -1 sc (S) col0 sh gr
/Times-Italic ff 90.00 scf sf
1935 1259 m
gs 1 -1 sc (K) col0 sh gr
/Times-Italic ff 150.00 scf sf
1676 1224 m
gs 1 -1 sc (y'=e) col0 sh gr
/Times-Roman ff 150.00 scf sf
2002 1221 m
gs 1 -1 sc (\(   \)) col0 sh gr
/Times-Italic ff 150.00 scf sf
2051 1222 m
gs 1 -1 sc (x') col0 sh gr
% Polyline
gs  clippath
2315 1057 m 2316 1117 l 2468 1115 l 2348 1087 l 2467 1055 l cp
eoclip
n 3292 1078 m
 2331 1087 l gs col0 s gr gr

% arrowhead
n 2467 1055 m 2348 1087 l 2468 1115 l  col0 s
/Times-Italic ff 150.00 scf sf
2781 1042 m
gs 1 -1 sc (x') col0 sh gr
/Times-Italic ff 150.00 scf sf
4053 2073 m
gs 1 -1 sc (y=e) col0 sh gr
/Times-Italic ff 90.00 scf sf
4271 2107 m
gs 1 -1 sc (K) col0 sh gr
/Times-Italic ff 75.00 scf sf
4335 2127 m
gs 1 -1 sc (U) col0 sh gr
/Times-Roman ff 150.00 scf sf
4382 2064 m
gs 1 -1 sc (\(  \)) col0 sh gr
/Times-Italic ff 150.00 scf sf
4437 2071 m
gs 1 -1 sc (x) col0 sh gr
/Times-Italic ff 150.00 scf sf
1580 2375 m
gs 1 -1 sc (K) col0 sh gr
/Times-Italic ff 90.00 scf sf
1675 2408 m
gs 1 -1 sc (U) col0 sh gr
/Times-Italic ff 150.00 scf sf
1770 2369 m
gs 1 -1 sc (=) col0 sh gr
/Times-Italic ff 150.00 scf sf
1902 2364 m
gs 1 -1 sc (e) col0 sh gr
/Times-Italic ff 90.00 scf sf
1953 2391 m
gs 1 -1 sc (M) col0 sh gr
/Times-Roman ff 150.00 scf sf
2042 2364 m
gs 1 -1 sc (\() col0 sh gr
/Times-Italic ff 150.00 scf sf
2097 2374 m
gs 1 -1 sc (SN ) col0 sh gr
/Times-Roman ff 150.00 scf sf
2242 2358 m
gs 1 -1 sc (  \)) col0 sh gr
/Times-Roman ff 75.00 scf sf
1758 1740 m
gs 1 -1 sc (v) col0 sh gr
/Times-Italic ff 150.00 scf sf
2019 1828 m
gs 1 -1 sc (x) col0 sh gr
/Times-Roman ff 150.00 scf sf
1010 1828 m
gs 1 -1 sc (Izberi nakljucen) col0 sh gr
/Times-Roman ff 150.00 scf sf
990 2368 m
gs 1 -1 sc (Izracunaj) col0 sh gr
/Times-Roman ff 75.00 scf sf
1232 2277 m
gs 1 -1 sc (v) col0 sh gr
/Times-Italic ff 150.00 scf sf
1861 2676 m
gs 1 -1 sc (y=e) col0 sh gr
/Times-Italic ff 90.00 scf sf
2079 2710 m
gs 1 -1 sc (K) col0 sh gr
/Times-Italic ff 75.00 scf sf
2143 2730 m
gs 1 -1 sc (U) col0 sh gr
/Times-Roman ff 150.00 scf sf
2190 2667 m
gs 1 -1 sc (\(  \)) col0 sh gr
/Times-Italic ff 150.00 scf sf
2245 2674 m
gs 1 -1 sc (x) col0 sh gr
/Times-Roman ff 75.00 scf sf
3632 1993 m
gs 1 -1 sc (v) col0 sh gr
/Times-Roman ff 150.00 scf sf
3389 2075 m
gs 1 -1 sc (Izracunaj) col0 sh gr
/Times-Roman ff 75.00 scf sf
1269 1149 m
gs 1 -1 sc (v) col0 sh gr
/Times-Roman ff 150.00 scf sf
1025 1234 m
gs 1 -1 sc (Izracunaj) col0 sh gr
/Times-Roman ff 75.00 scf sf
4131 941 m
gs 1 -1 sc (v) col0 sh gr
/Times-Roman ff 150.00 scf sf
3382 1026 m
gs 1 -1 sc (Izberi nakljucen) col0 sh gr
/Times-Italic ff 150.00 scf sf
4391 1026 m
gs 1 -1 sc (x') col0 sh gr
/Times-Roman ff 75.00 scf sf
3806 1360 m
gs 1 -1 sc (v) col0 sh gr
/Times-Roman ff 150.00 scf sf
3300 1447 m
gs 1 -1 sc (Preveri, ce je) col0 sh gr
/Times-Italic ff 75.00 scf sf
4436 1513 m
gs 1 -1 sc (S) col0 sh gr
/Times-Italic ff 90.00 scf sf
4381 1482 m
gs 1 -1 sc (K) col0 sh gr
/Times-Italic ff 150.00 scf sf
4122 1447 m
gs 1 -1 sc (y'=e) col0 sh gr
/Times-Roman ff 150.00 scf sf
4448 1444 m
gs 1 -1 sc (\(   \)) col0 sh gr
/Times-Italic ff 150.00 scf sf
4497 1445 m
gs 1 -1 sc (x') col0 sh gr
% Polyline
gs  clippath
3313 1382 m 3313 1322 l 3161 1322 l 3281 1352 l 3161 1382 l cp
eoclip
n 2364 1352 m
 3298 1352 l gs col0 s gr gr

% arrowhead
n 3161 1382 m 3281 1352 l 3161 1322 l  col0 s
% Polyline
 [60] 0 sd
n 914 1573 m
 4686 1564 l gs col0 s gr  [] 0 sd
% Polyline
gs  clippath
3316 1942 m 3317 1882 l 3165 1880 l 3285 1912 l 3164 1940 l cp
eoclip
n 2326 1903 m
 3302 1912 l gs col0 s gr gr

% arrowhead
n 3164 1940 m 3285 1912 l 3165 1880 l  col0 s
% Polyline
gs  clippath
2320 2208 m 2320 2268 l 2472 2268 l 2352 2238 l 2472 2208 l cp
eoclip
n 3287 2238 m
 2335 2238 l gs col0 s gr gr

% arrowhead
n 2472 2208 m 2352 2238 l 2472 2268 l  col0 s
/Times-Roman ff 210.00 scf sf
-6 1824 m
gs 1 -1 sc (Terminal) col0 sh gr
/Times-Italic ff 150.00 scf sf
2707 1297 m
gs 1 -1 sc (S, y') col0 sh gr
/Times-Italic ff 150.00 scf sf
2649 2152 m
gs 1 -1 sc (SN, y) col0 sh gr
/Times-Italic ff 150.00 scf sf
2777 1851 m
gs 1 -1 sc (x) col0 sh gr
/Times-Roman ff 150.00 scf sf
990 2668 m
gs 1 -1 sc (Preveri, ce je) col0 sh gr
/Times-Roman ff 75.00 scf sf
1509 2587 m
gs 1 -1 sc (v) col0 sh gr
/Times-Roman ff 210.00 scf sf
4760 1731 m
gs 1 -1 sc (Pametna ) col0 sh gr
/Times-Roman ff 210.00 scf sf
4781 1949 m
gs 1 -1 sc (kartica) col0 sh gr
$F2psEnd
rs
