%!PS-Adobe-2.0 EPSF-2.0
%%Title: massey-omura.fig
%%Creator: fig2dev Version 3.1 Patchlevel 2
%%CreationDate: Mon May  4 03:44:05 1998
%%For: ajurisic@sasha (RHS Linux User)
%Magnification: 1.00
%%Orientation: Portrait
%%BoundingBox: 0 0 344 404
%%Pages: 0
%%BeginSetup
%%IncludeFeature: *PageSize Letter
%%EndSetup
%%EndComments
/$F2psDict 200 dict def
$F2psDict begin
$F2psDict /mtrx matrix put
/col-1 {0 setgray} bind def
/col0 {0.000 0.000 0.000 srgb} bind def
/col1 {0.000 0.000 1.000 srgb} bind def
/col2 {0.000 1.000 0.000 srgb} bind def
/col3 {0.000 1.000 1.000 srgb} bind def
/col4 {1.000 0.000 0.000 srgb} bind def
/col5 {1.000 0.000 1.000 srgb} bind def
/col6 {1.000 1.000 0.000 srgb} bind def
/col7 {1.000 1.000 1.000 srgb} bind def
/col8 {0.000 0.000 0.560 srgb} bind def
/col9 {0.000 0.000 0.690 srgb} bind def
/col10 {0.000 0.000 0.820 srgb} bind def
/col11 {0.530 0.810 1.000 srgb} bind def
/col12 {0.000 0.560 0.000 srgb} bind def
/col13 {0.000 0.690 0.000 srgb} bind def
/col14 {0.000 0.820 0.000 srgb} bind def
/col15 {0.000 0.560 0.560 srgb} bind def
/col16 {0.000 0.690 0.690 srgb} bind def
/col17 {0.000 0.820 0.820 srgb} bind def
/col18 {0.560 0.000 0.000 srgb} bind def
/col19 {0.690 0.000 0.000 srgb} bind def
/col20 {0.820 0.000 0.000 srgb} bind def
/col21 {0.560 0.000 0.560 srgb} bind def
/col22 {0.690 0.000 0.690 srgb} bind def
/col23 {0.820 0.000 0.820 srgb} bind def
/col24 {0.500 0.190 0.000 srgb} bind def
/col25 {0.630 0.250 0.000 srgb} bind def
/col26 {0.750 0.380 0.000 srgb} bind def
/col27 {1.000 0.500 0.500 srgb} bind def
/col28 {1.000 0.630 0.630 srgb} bind def
/col29 {1.000 0.750 0.750 srgb} bind def
/col30 {1.000 0.880 0.880 srgb} bind def
/col31 {1.000 0.840 0.000 srgb} bind def

end
save
-22.0 409.0 translate
1 -1 scale

/cp {closepath} bind def
/ef {eofill} bind def
/gr {grestore} bind def
/gs {gsave} bind def
/sa {save} bind def
/rs {restore} bind def
/l {lineto} bind def
/m {moveto} bind def
/rm {rmoveto} bind def
/n {newpath} bind def
/s {stroke} bind def
/sh {show} bind def
/slc {setlinecap} bind def
/slj {setlinejoin} bind def
/slw {setlinewidth} bind def
/srgb {setrgbcolor} bind def
/rot {rotate} bind def
/sc {scale} bind def
/sd {setdash} bind def
/ff {findfont} bind def
/sf {setfont} bind def
/scf {scalefont} bind def
/sw {stringwidth} bind def
/tr {translate} bind def
/tnt {dup dup currentrgbcolor
  4 -2 roll dup 1 exch sub 3 -1 roll mul add
  4 -2 roll dup 1 exch sub 3 -1 roll mul add
  4 -2 roll dup 1 exch sub 3 -1 roll mul add srgb}
  bind def
/shd {dup dup currentrgbcolor 4 -2 roll mul 4 -2 roll mul
  4 -2 roll mul srgb} bind def
 /DrawEllipse {
	/endangle exch def
	/startangle exch def
	/yrad exch def
	/xrad exch def
	/y exch def
	/x exch def
	/savematrix mtrx currentmatrix def
	x y tr xrad yrad sc 0 0 1 startangle endangle arc
	closepath
	savematrix setmatrix
	} def

/$F2psBegin {$F2psDict begin /$F2psEnteredState save def} def
/$F2psEnd {$F2psEnteredState restore end} def
%%EndProlog

$F2psBegin
10 setmiterlimit
n 0 792 m 0 0 l 612 0 l 612 792 l cp clip
 0.06000 0.06000 sc
75.000 slw
% Ellipse
n 5605 2633 247 667 0 360 DrawEllipse gs col-1 s gr

% Ellipse
n 4675 2633 247 667 0 360 DrawEllipse gs col-1 s gr

% Ellipse
n 1855 6083 247 667 0 360 DrawEllipse gs col-1 s gr

% Ellipse
n 850 2618 247 667 0 360 DrawEllipse gs col-1 s gr

165.000 slw
% Ellipse
n 1320 1785 605 605 0 360 DrawEllipse gs col-1 s gr

% Ellipse
n 5145 1800 605 605 0 360 DrawEllipse gs col-1 s gr

% Ellipse
n 1395 5250 605 605 0 360 DrawEllipse gs col-1 s gr

% Ellipse
n 5145 5265 605 605 0 360 DrawEllipse gs col-1 s gr

30.000 slw
% Polyline
n 5205 2555 m 5970 2555 l 5970 3320 l 5205 3320 l cp gs col7 1.00 shd ef gr gs col-1 s gr 
% Polyline
n 4275 2555 m 5040 2555 l 5040 3320 l 4275 3320 l cp gs col7 1.00 shd ef gr gs col-1 s gr 
% Polyline
n 1455 6005 m 2220 6005 l 2220 6770 l 1455 6770 l cp gs col7 1.00 shd ef gr gs col-1 s gr 
% Polyline
n 450 2540 m 1215 2540 l 1215 3305 l 450 3305 l cp gs col7 1.00 shd ef gr gs col-1 s gr 
45.000 slw
% Polyline
n 420 510 m 2220 510 l 2220 1710 l 420 1710 l cp gs col20 1.00 shd ef gr gs col-1 s gr 
% Polyline
n 4245 525 m 6045 525 l 6045 1725 l 4245 1725 l cp gs col20 1.00 shd ef gr gs col-1 s gr 
% Polyline
n 495 3975 m 2295 3975 l 2295 5175 l 495 5175 l cp gs col20 1.00 shd ef gr gs col-1 s gr 
% Polyline
n 4245 3990 m 6045 3990 l 6045 5190 l 4245 5190 l cp gs col20 1.00 shd ef gr gs col-1 s gr 
7.500 slw
% Ellipse
n 5593 2988 122 122 0 360 DrawEllipse gs 0.00 setgray ef gr gs col-1 s gr

% Polyline
n 5505 3320 m 5595 2885 l 5685 3320 l gs 0.00 setgray ef gr gs col-1 s gr 
% Ellipse
n 4663 2988 122 122 0 360 DrawEllipse gs 0.00 setgray ef gr gs col-1 s gr

% Polyline
n 4575 3320 m 4665 2885 l 4755 3320 l gs 0.00 setgray ef gr gs col-1 s gr 
% Ellipse
n 1843 6438 122 122 0 360 DrawEllipse gs 0.00 setgray ef gr gs col-1 s gr

% Polyline
n 1755 6770 m 1845 6335 l 1935 6770 l gs 0.00 setgray ef gr gs col-1 s gr 
% Ellipse
n 838 2973 122 122 0 360 DrawEllipse gs 0.00 setgray ef gr gs col-1 s gr

% Polyline
n 750 3305 m 840 2870 l 930 3305 l gs 0.00 setgray ef gr gs col-1 s gr 
% Polyline
n 4020 1275 m 4020 1275 l gs col-1 s gr
30.000 slw
% Polyline
gs  clippath
3789 4450 m 4009 4530 l 3789 4610 l 4110 4610 l 4110 4450 l  cp clip
n 2430 4530 m 4065 4530 l gs col-1 s gr gr

% arrowhead
n 3789 4450 m 4009 4530 l 3789 4610 l  col-1 s
% Polyline
gs  clippath
2688 3622 m 2484 3736 l 2566 3518 l 2370 3747 l 2492 3851 l  cp clip
n 4065 1890 m 2460 3765 l gs col-1 s gr gr

% arrowhead
15.000 slw
n 2688 3622 m 2484 3736 l 2566 3518 l  col-1 s
30.000 slw
% Polyline
gs  clippath
3778 1030 m 3997 1110 l 3778 1190 l 4080 1190 l 4080 1030 l  cp clip
n 2400 1110 m 4035 1110 l gs col-1 s gr gr

% arrowhead
15.000 slw
n 3778 1030 m 3997 1110 l 3778 1190 l  col-1 s
/Times-Roman ff 450.00 scf sf
825 360 m
gs 1 -1 sc (Anita) col-1 sh gr
/Times-Roman ff 300.00 scf sf
525 2805 m
gs 1 -1 sc (Anita) col-1 sh gr
/Times-Roman ff 300.00 scf sf
4335 2820 m
gs 1 -1 sc (Anita) col-1 sh gr
/Times-Roman ff 300.00 scf sf
1500 6255 m
gs 1 -1 sc (Bojan) col-1 sh gr
/Times-Roman ff 300.00 scf sf
5250 2805 m
gs 1 -1 sc (Bojan) col-1 sh gr
/Times-Roman ff 450.00 scf sf
4710 420 m
gs 1 -1 sc (Bojan) col-1 sh gr
/Times-Roman ff 450.00 scf sf
855 3870 m
gs 1 -1 sc (Anita) col-1 sh gr
/Times-Roman ff 450.00 scf sf
4605 3900 m
gs 1 -1 sc (Bojan) col-1 sh gr
$F2psEnd
rs
