%!PS-Adobe-2.0 EPSF-2.0
%%Title: mo2.eps
%%Creator: fig2dev Version 3.2 Patchlevel 3d
%%CreationDate: Fri Nov 30 00:25:59 2001
%%For: ajurisic@f9pcd8.ijs.si (Aleksandar Jurisic)
%%BoundingBox: 0 0 494 522
%%Magnification: 1.0000
%%EndComments
/$F2psDict 200 dict def
$F2psDict begin
$F2psDict /mtrx matrix put
/col-1 {0 setgray} bind def
/col0 {0.000 0.000 0.000 srgb} bind def
/col1 {0.000 0.000 1.000 srgb} bind def
/col2 {0.000 1.000 0.000 srgb} bind def
/col3 {0.000 1.000 1.000 srgb} bind def
/col4 {1.000 0.000 0.000 srgb} bind def
/col5 {1.000 0.000 1.000 srgb} bind def
/col6 {1.000 1.000 0.000 srgb} bind def
/col7 {1.000 1.000 1.000 srgb} bind def
/col8 {0.000 0.000 0.560 srgb} bind def
/col9 {0.000 0.000 0.690 srgb} bind def
/col10 {0.000 0.000 0.820 srgb} bind def
/col11 {0.530 0.810 1.000 srgb} bind def
/col12 {0.000 0.560 0.000 srgb} bind def
/col13 {0.000 0.690 0.000 srgb} bind def
/col14 {0.000 0.820 0.000 srgb} bind def
/col15 {0.000 0.560 0.560 srgb} bind def
/col16 {0.000 0.690 0.690 srgb} bind def
/col17 {0.000 0.820 0.820 srgb} bind def
/col18 {0.560 0.000 0.000 srgb} bind def
/col19 {0.690 0.000 0.000 srgb} bind def
/col20 {0.820 0.000 0.000 srgb} bind def
/col21 {0.560 0.000 0.560 srgb} bind def
/col22 {0.690 0.000 0.690 srgb} bind def
/col23 {0.820 0.000 0.820 srgb} bind def
/col24 {0.500 0.190 0.000 srgb} bind def
/col25 {0.630 0.250 0.000 srgb} bind def
/col26 {0.750 0.380 0.000 srgb} bind def
/col27 {1.000 0.500 0.500 srgb} bind def
/col28 {1.000 0.630 0.630 srgb} bind def
/col29 {1.000 0.750 0.750 srgb} bind def
/col30 {1.000 0.880 0.880 srgb} bind def
/col31 {1.000 0.840 0.000 srgb} bind def

end
save
newpath 0 522 moveto 0 0 lineto 494 0 lineto 494 522 lineto closepath clip newpath
-21.5 521.6 translate
1 -1 scale

/cp {closepath} bind def
/ef {eofill} bind def
/gr {grestore} bind def
/gs {gsave} bind def
/sa {save} bind def
/rs {restore} bind def
/l {lineto} bind def
/m {moveto} bind def
/rm {rmoveto} bind def
/n {newpath} bind def
/s {stroke} bind def
/sh {show} bind def
/slc {setlinecap} bind def
/slj {setlinejoin} bind def
/slw {setlinewidth} bind def
/srgb {setrgbcolor} bind def
/rot {rotate} bind def
/sc {scale} bind def
/sd {setdash} bind def
/ff {findfont} bind def
/sf {setfont} bind def
/scf {scalefont} bind def
/sw {stringwidth} bind def
/tr {translate} bind def
/tnt {dup dup currentrgbcolor
  4 -2 roll dup 1 exch sub 3 -1 roll mul add
  4 -2 roll dup 1 exch sub 3 -1 roll mul add
  4 -2 roll dup 1 exch sub 3 -1 roll mul add srgb}
  bind def
/shd {dup dup currentrgbcolor 4 -2 roll mul 4 -2 roll mul
  4 -2 roll mul srgb} bind def
 /DrawEllipse {
	/endangle exch def
	/startangle exch def
	/yrad exch def
	/xrad exch def
	/y exch def
	/x exch def
	/savematrix mtrx currentmatrix def
	x y tr xrad yrad sc 0 0 1 startangle endangle arc
	closepath
	savematrix setmatrix
	} def

/$F2psBegin {$F2psDict begin /$F2psEnteredState save def} def
/$F2psEnd {$F2psEnteredState restore end} def

$F2psBegin
10 setmiterlimit
 0.06000 0.06000 sc
%
% Fig objects follow
%
75.000 slw
% Ellipse
n 7105 2633 247 667 0 360 DrawEllipse gs col-1 s gr

% Ellipse
n 850 2618 247 667 0 360 DrawEllipse gs col-1 s gr

165.000 slw
% Ellipse
n 1320 1785 605 605 0 360 DrawEllipse gs col-1 s gr

% Ellipse
n 7575 1800 605 605 0 360 DrawEllipse gs col-1 s gr

% Ellipse
n 7560 6840 605 605 0 360 DrawEllipse gs col-1 s gr

% Ellipse
n 1335 6900 605 605 0 360 DrawEllipse gs col-1 s gr

75.000 slw
% Ellipse
n 1795 7733 247 667 0 360 DrawEllipse gs col-1 s gr

% Ellipse
n 8035 2633 247 667 0 360 DrawEllipse gs col-1 s gr

% Polyline
45.000 slw
n 420 510 m 2220 510 l 2220 1710 l 420 1710 l
 cp gs col20 1.00 shd ef gr gs col-1 s gr 
% Polyline
n 6675 525 m 8475 525 l 8475 1725 l 6675 1725 l
 cp gs col20 1.00 shd ef gr gs col-1 s gr 
% Polyline
n 6660 5565 m 8460 5565 l 8460 6765 l 6660 6765 l
 cp gs col20 1.00 shd ef gr gs col-1 s gr 
% Polyline
n 435 5625 m 2235 5625 l 2235 6825 l 435 6825 l
 cp gs col20 1.00 shd ef gr gs col-1 s gr 
% Polyline
30.000 slw
n 1395 7655 m 2160 7655 l 2160 8420 l 1395 8420 l
 cp gs col7 1.00 shd ef gr gs col-1 s gr 
% Polyline
n 6705 2555 m 7470 2555 l 7470 3320 l 6705 3320 l
 cp gs col7 1.00 shd ef gr gs col-1 s gr 
% Polyline
n 7635 2555 m 8400 2555 l 8400 3320 l 7635 3320 l
 cp gs col7 1.00 shd ef gr gs col-1 s gr 
% Polyline
n 450 2540 m 1215 2540 l 1215 3305 l 450 3305 l
 cp gs col7 1.00 shd ef gr gs col-1 s gr 
7.500 slw
% Ellipse
n 1783 8088 122 122 0 360 DrawEllipse gs 0.00 setgray ef gr gs col-1 s gr

% Ellipse
n 7093 2988 122 122 0 360 DrawEllipse gs 0.00 setgray ef gr gs col-1 s gr

% Ellipse
n 8023 2988 122 122 0 360 DrawEllipse gs 0.00 setgray ef gr gs col-1 s gr

% Ellipse
n 838 2973 122 122 0 360 DrawEllipse gs 0.00 setgray ef gr gs col-1 s gr

% Polyline
30.000 slw
gs  clippath
5265 1340 m 5265 1179 l 5006 1179 l 5227 1260 l 5006 1340 l cp
eoclip
n 3615 1260 m
 5250 1260 l gs col-1 s gr gr

% arrowhead
15.000 slw
n 5006 1340 m 5227 1260 l 5006 1179 l  col-1 s
% Polyline
30.000 slw
gs  clippath
3510 4500 m 3632 4604 l 3800 4407 l 3596 4523 l 3678 4303 l cp
eoclip
n 5186 2666 m
 3581 4541 l gs col-1 s gr gr

% arrowhead
15.000 slw
n 3678 4303 m 3596 4523 l 3800 4407 l  col-1 s
% Polyline
30.000 slw
gs  clippath
5265 6215 m 5265 6054 l 4982 6054 l 5203 6135 l 4982 6215 l cp
eoclip
n 3615 6135 m
 5250 6135 l gs col-1 s gr gr

% arrowhead
n 4982 6215 m 5203 6135 l 4982 6054 l  col-1 s
% Polyline
7.500 slw
n 1695 8420 m 1785 7985 l
 1875 8420 l gs 0.00 setgray ef gr gs col-1 s gr 
% Polyline
n 7005 3320 m 7095 2885 l
 7185 3320 l gs 0.00 setgray ef gr gs col-1 s gr 
% Polyline
n 7935 3320 m 8025 2885 l
 8115 3320 l gs 0.00 setgray ef gr gs col-1 s gr 
% Polyline
n 750 3305 m 840 2870 l
 930 3305 l gs 0.00 setgray ef gr gs col-1 s gr 
/Times-Roman ff 450.00 scf sf
825 360 m
gs 1 -1 sc (Anita) col-1 sh gr
/Times-Roman ff 300.00 scf sf
525 2805 m
gs 1 -1 sc (Anita) col-1 sh gr
/Times-Roman ff 300.00 scf sf
6765 2820 m
gs 1 -1 sc (Anita) col-1 sh gr
/Times-Roman ff 300.00 scf sf
7680 2805 m
gs 1 -1 sc (Bojan) col-1 sh gr
/Times-Roman ff 300.00 scf sf
1440 7905 m
gs 1 -1 sc (Bojan) col-1 sh gr
/Times-Roman ff 450.00 scf sf
795 5520 m
gs 1 -1 sc (Anita) col-1 sh gr
/Times-Roman ff 450.00 scf sf
7131 370 m
gs 1 -1 sc (Bojan) col-1 sh gr
/Times-Roman ff 450.00 scf sf
7139 5396 m
gs 1 -1 sc (Bojan) col-1 sh gr
% Polyline
2 slj
30.000 slw
n 945 2110 m 945 2111 l 947 2116 l 951 2128 l 957 2146 l 964 2168 l
 972 2192 l 979 2214 l 985 2233 l 990 2250 l 994 2266 l
 998 2279 l 1001 2293 l 1004 2305 l 1006 2318 l 1008 2332 l
 1010 2346 l 1012 2363 l 1014 2381 l 1016 2399 l 1018 2417 l
 1019 2431 l 1020 2440 l 1020 2444 l
 1020 2445 l gs col7 s gr 
% Polyline
n 1120 2210 m 1120 2211 l 1121 2216 l 1123 2226 l 1126 2241 l 1129 2258 l
 1131 2274 l 1134 2289 l 1136 2302 l 1138 2315 l 1139 2328 l
 1140 2339 l 1142 2351 l 1143 2364 l 1145 2380 l 1146 2398 l
 1148 2419 l 1150 2440 l 1152 2461 l 1154 2478 l 1155 2489 l
 1155 2494 l
 1155 2495 l gs col7 s gr 
% Polyline
n 750 2220 m 750 2219 l 747 2214 l 741 2204 l 733 2190 l 724 2175 l
 716 2160 l 709 2147 l 702 2136 l 697 2126 l 692 2117 l
 687 2107 l 681 2098 l 676 2087 l 669 2075 l 662 2062 l
 654 2047 l 648 2034 l 643 2025 l 640 2021 l
 640 2020 l gs col7 s gr 
% Polyline
n 935 2105 m 935 2104 l 933 2101 l 928 2092 l 922 2079 l 914 2063 l
 905 2046 l 898 2030 l 891 2016 l 885 2003 l 880 1991 l
 875 1980 l 871 1970 l 866 1958 l 862 1944 l 857 1930 l
 852 1913 l 846 1894 l 841 1874 l 835 1855 l 832 1842 l
 830 1836 l
 830 1835 l gs col7 s gr 
% Polyline
n 7939 2146 m 7939 2147 l 7937 2152 l 7933 2164 l 7927 2182 l 7920 2204 l
 7912 2228 l 7905 2250 l 7899 2269 l 7894 2286 l 7890 2302 l
 7886 2315 l 7883 2329 l 7880 2341 l 7878 2354 l 7876 2368 l
 7874 2382 l 7872 2399 l 7870 2417 l 7868 2435 l 7866 2453 l
 7865 2467 l 7864 2476 l 7864 2480 l
 7864 2481 l gs col7 s gr 
% Polyline
n 7764 2246 m 7764 2247 l 7763 2252 l 7761 2262 l 7758 2277 l 7755 2293 l
 7753 2309 l 7750 2323 l 7748 2336 l 7747 2348 l 7745 2360 l
 7744 2370 l 7742 2381 l 7741 2394 l 7740 2408 l 7738 2424 l
 7736 2442 l 7734 2462 l 7733 2480 l 7731 2495 l 7730 2505 l
 7730 2509 l
 7730 2510 l gs col7 s gr 
% Polyline
n 8134 2256 m 8134 2255 l 8137 2250 l 8143 2240 l 8151 2226 l 8160 2211 l
 8168 2196 l 8175 2183 l 8182 2172 l 8187 2162 l 8192 2153 l
 8197 2143 l 8203 2134 l 8208 2123 l 8215 2111 l 8222 2098 l
 8230 2083 l 8236 2070 l 8241 2061 l 8244 2057 l
 8244 2056 l gs col7 s gr 
% Polyline
n 7949 2141 m 7949 2140 l 7952 2136 l 7958 2128 l 7967 2114 l 7978 2097 l
 7989 2080 l 7999 2063 l 8008 2048 l 8016 2034 l 8022 2022 l
 8028 2011 l 8032 2000 l 8037 1987 l 8042 1974 l 8046 1958 l
 8050 1941 l 8054 1921 l 8058 1900 l 8061 1881 l 8064 1867 l
 8065 1861 l
 8065 1860 l gs col7 s gr 
% Polyline
n 1690 7267 m 1690 7268 l 1688 7273 l 1684 7285 l 1678 7303 l 1671 7325 l
 1663 7349 l 1656 7371 l 1650 7390 l 1645 7407 l 1641 7423 l
 1637 7436 l 1634 7450 l 1631 7462 l 1629 7475 l 1627 7489 l
 1625 7503 l 1623 7520 l 1621 7538 l 1619 7556 l 1617 7574 l
 1616 7588 l 1615 7597 l 1615 7601 l
 1615 7602 l gs col7 s gr 
% Polyline
n 1515 7367 m 1515 7368 l 1514 7373 l 1512 7383 l 1509 7398 l 1506 7414 l
 1504 7430 l 1501 7444 l 1499 7457 l 1498 7469 l 1496 7481 l
 1495 7491 l 1493 7502 l 1492 7515 l 1491 7529 l 1489 7545 l
 1487 7563 l 1485 7583 l 1484 7601 l 1482 7616 l 1481 7626 l
 1481 7630 l
 1481 7631 l gs col7 s gr 
% Polyline
n 1885 7377 m 1885 7376 l 1888 7371 l 1894 7361 l 1902 7347 l 1911 7332 l
 1919 7317 l 1926 7304 l 1933 7293 l 1938 7283 l 1943 7274 l
 1948 7264 l 1954 7255 l 1959 7244 l 1966 7232 l 1973 7219 l
 1981 7204 l 1987 7191 l 1992 7182 l 1995 7178 l
 1995 7177 l gs col7 s gr 
% Polyline
n 1700 7262 m 1700 7261 l 1703 7257 l 1709 7249 l 1718 7235 l 1729 7218 l
 1740 7201 l 1750 7184 l 1759 7169 l 1767 7155 l 1773 7143 l
 1779 7132 l 1783 7121 l 1788 7108 l 1793 7095 l 1797 7079 l
 1801 7062 l 1805 7042 l 1809 7021 l 1812 7002 l 1815 6988 l
 1816 6982 l
 1816 6981 l gs col7 s gr 
% Polyline
n 7204 2141 m 7204 2142 l 7206 2147 l 7210 2159 l 7216 2177 l 7223 2199 l
 7231 2223 l 7238 2245 l 7244 2264 l 7249 2281 l 7253 2297 l
 7257 2310 l 7260 2324 l 7263 2336 l 7265 2349 l 7267 2363 l
 7269 2377 l 7271 2394 l 7273 2412 l 7275 2430 l 7277 2448 l
 7278 2462 l 7279 2471 l 7279 2475 l
 7279 2476 l gs col7 s gr 
% Polyline
n 7379 2241 m 7379 2242 l 7380 2247 l 7382 2257 l 7385 2272 l 7388 2289 l
 7390 2305 l 7393 2320 l 7395 2333 l 7397 2346 l 7398 2359 l
 7399 2370 l 7401 2382 l 7402 2395 l 7404 2411 l 7405 2429 l
 7407 2450 l 7409 2471 l 7411 2492 l 7413 2509 l 7414 2520 l
 7414 2525 l
 7414 2526 l gs col7 s gr 
% Polyline
n 7009 2251 m 7009 2250 l 7006 2245 l 7000 2235 l 6992 2221 l 6983 2206 l
 6975 2191 l 6968 2178 l 6961 2167 l 6956 2157 l 6951 2148 l
 6946 2138 l 6940 2129 l 6935 2118 l 6928 2106 l 6921 2093 l
 6913 2078 l 6907 2065 l 6902 2056 l 6899 2052 l
 6899 2051 l gs col7 s gr 
% Polyline
n 7204 2150 m 7204 2149 l 7201 2145 l 7195 2135 l 7186 2119 l 7175 2101 l
 7164 2081 l 7153 2062 l 7144 2046 l 7136 2031 l 7130 2018 l
 7124 2006 l 7120 1995 l 7115 1982 l 7110 1969 l 7106 1955 l
 7102 1939 l 7099 1921 l 7095 1902 l 7092 1885 l 7090 1873 l
 7089 1867 l
 7089 1866 l gs col7 s gr 
% Polyline
0 slj
7.500 slw
n 6446 1275 m 6454 1275 l gs col-1 s gr
% Polyline
30.000 slw
n 3392 2304 m 5359 2304 l 5359 5343 l 3392 5343 l
 cp gs col7 1.00 shd ef gr gs col7 s gr 
% Polyline
n 3452 5622 m 5419 5622 l 5419 8661 l 3452 8661 l
 cp gs col7 1.00 shd ef gr gs col7 s gr 
% Polyline
n 392 5244 m 2329 5244 l 2329 8522 l 392 8522 l
 cp gs col7 1.00 shd ef gr gs col7 s gr 
% Polyline
n 6561 5035 m 8548 5035 l 8548 8522 l 6561 8522 l
 cp gs col7 1.00 shd ef gr gs col7 s gr 
$F2psEnd
rs
