%!PS-Adobe-2.0 EPSF-2.0
%%Title: mrak1.eps
%%Creator: fig2dev Version 3.2 Patchlevel 3d
%%CreationDate: Wed Jan  9 16:38:08 2002
%%For: ajurisic@f9pcd8.ijs.si (Aleksandar Jurisic)
%%BoundingBox: 0 0 317 217
%%Magnification: 1.0000
%%EndComments
/$F2psDict 200 dict def
$F2psDict begin
$F2psDict /mtrx matrix put
/col-1 {0 setgray} bind def
/col0 {0.000 0.000 0.000 srgb} bind def
/col1 {0.000 0.000 1.000 srgb} bind def
/col2 {0.000 1.000 0.000 srgb} bind def
/col3 {0.000 1.000 1.000 srgb} bind def
/col4 {1.000 0.000 0.000 srgb} bind def
/col5 {1.000 0.000 1.000 srgb} bind def
/col6 {1.000 1.000 0.000 srgb} bind def
/col7 {1.000 1.000 1.000 srgb} bind def
/col8 {0.000 0.000 0.560 srgb} bind def
/col9 {0.000 0.000 0.690 srgb} bind def
/col10 {0.000 0.000 0.820 srgb} bind def
/col11 {0.530 0.810 1.000 srgb} bind def
/col12 {0.000 0.560 0.000 srgb} bind def
/col13 {0.000 0.690 0.000 srgb} bind def
/col14 {0.000 0.820 0.000 srgb} bind def
/col15 {0.000 0.560 0.560 srgb} bind def
/col16 {0.000 0.690 0.690 srgb} bind def
/col17 {0.000 0.820 0.820 srgb} bind def
/col18 {0.560 0.000 0.000 srgb} bind def
/col19 {0.690 0.000 0.000 srgb} bind def
/col20 {0.820 0.000 0.000 srgb} bind def
/col21 {0.560 0.000 0.560 srgb} bind def
/col22 {0.690 0.000 0.690 srgb} bind def
/col23 {0.820 0.000 0.820 srgb} bind def
/col24 {0.500 0.190 0.000 srgb} bind def
/col25 {0.630 0.250 0.000 srgb} bind def
/col26 {0.750 0.380 0.000 srgb} bind def
/col27 {1.000 0.500 0.500 srgb} bind def
/col28 {1.000 0.630 0.630 srgb} bind def
/col29 {1.000 0.750 0.750 srgb} bind def
/col30 {1.000 0.880 0.880 srgb} bind def
/col31 {1.000 0.840 0.000 srgb} bind def

end
save
newpath 0 217 moveto 0 0 lineto 317 0 lineto 317 217 lineto closepath clip newpath
-48.8 260.8 translate
1 -1 scale

/cp {closepath} bind def
/ef {eofill} bind def
/gr {grestore} bind def
/gs {gsave} bind def
/sa {save} bind def
/rs {restore} bind def
/l {lineto} bind def
/m {moveto} bind def
/rm {rmoveto} bind def
/n {newpath} bind def
/s {stroke} bind def
/sh {show} bind def
/slc {setlinecap} bind def
/slj {setlinejoin} bind def
/slw {setlinewidth} bind def
/srgb {setrgbcolor} bind def
/rot {rotate} bind def
/sc {scale} bind def
/sd {setdash} bind def
/ff {findfont} bind def
/sf {setfont} bind def
/scf {scalefont} bind def
/sw {stringwidth} bind def
/tr {translate} bind def
/tnt {dup dup currentrgbcolor
  4 -2 roll dup 1 exch sub 3 -1 roll mul add
  4 -2 roll dup 1 exch sub 3 -1 roll mul add
  4 -2 roll dup 1 exch sub 3 -1 roll mul add srgb}
  bind def
/shd {dup dup currentrgbcolor 4 -2 roll mul 4 -2 roll mul
  4 -2 roll mul srgb} bind def
 /DrawEllipse {
	/endangle exch def
	/startangle exch def
	/yrad exch def
	/xrad exch def
	/y exch def
	/x exch def
	/savematrix mtrx currentmatrix def
	x y tr xrad yrad sc 0 0 1 startangle endangle arc
	closepath
	savematrix setmatrix
	} def

/$F2psBegin {$F2psDict begin /$F2psEnteredState save def} def
/$F2psEnd {$F2psEnteredState restore end} def

$F2psBegin
10 setmiterlimit
 0.06000 0.06000 sc
%
% Fig objects follow
%
% Polyline
7.500 slw
n 825 750 m 6075 750 l 6075 3900 l 825 3900 l
 cp gs 0.00 setgray ef gr gs col0 s gr 
% Polyline
n 1106 4335 m 1114 4335 l gs col0 s gr
/Times-Bold ff 270.00 scf sf
957 1188 m
gs 1 -1 sc (Geslo ali streljam!!!) col4 sh gr
/Times-Roman ff 270.00 scf sf
3582 3438 m
gs 1 -1 sc (ali sovraznik?) col6 sh gr
/Times-Bold ff 150.00 scf sf
4003 3002 m
gs 1 -1 sc (v) col6 sh gr
/Times-Roman ff 270.00 scf sf
3580 3133 m
gs 1 -1 sc (Ali sepeta prijatelj) col6 sh gr
/Times-Bold ff 150.00 scf sf
4524 3302 m
gs 1 -1 sc (v) col6 sh gr
% Polyline
15.000 slw
n 2040 2310 m 2340 2655 l 2160 2805 l
 1860 2415 l gs col7 s gr 
% Polyline
n 2265 2235 m 2565 2580 l 2385 2730 l
 2085 2340 l gs col7 s gr 
% Ellipse
n 2280 2745 120 135 0 360 DrawEllipse gs 0.00 setgray ef gr gs col7 s gr

% Ellipse
n 2505 2670 120 135 0 360 DrawEllipse gs 0.00 setgray ef gr gs col7 s gr

7.500 slw
% Ellipse
n 4596 2485 112 225 0 360 DrawEllipse gs col7 1.00 shd ef gr gs col0 s gr

% Ellipse
n 1685 1665 112 225 0 360 DrawEllipse gs col7 1.00 shd ef gr gs col0 s gr

% Ellipse
n 4331 2485 112 225 0 360 DrawEllipse gs col7 1.00 shd ef gr gs col0 s gr

% Ellipse
n 1942 1665 112 225 0 360 DrawEllipse gs col7 1.00 shd ef gr gs col0 s gr

% Ellipse
n 4607 2500 62 62 0 360 DrawEllipse gs 0.00 setgray ef gr gs col0 s gr

% Ellipse
n 1715 1720 62 62 0 360 DrawEllipse gs 0.00 setgray ef gr gs col0 s gr

% Ellipse
n 4334 2505 62 62 0 360 DrawEllipse gs 0.00 setgray ef gr gs col0 s gr

% Ellipse
n 1970 1720 62 62 0 360 DrawEllipse gs 0.00 setgray ef gr gs col0 s gr

% Ellipse
n 5105 2122 18 18 0 360 DrawEllipse gs col7 1.00 shd ef gr gs col7 s gr

% Polyline
30.000 slw
n 5105 1626 m
 5105 2034 l gs col7 s gr 
7.500 slw
% Ellipse
n 5218 2122 18 18 0 360 DrawEllipse gs col7 1.00 shd ef gr gs col7 s gr

% Polyline
30.000 slw
n 5218 1626 m
 5218 2034 l gs col7 s gr 
% Arc
60.000 slw
n 4845.8 1773.9 127.1 -166.9 89.5 arc
gs col7 s gr

7.500 slw
% Ellipse
n 4841 2123 18 18 0 360 DrawEllipse gs col7 1.00 shd ef gr gs col7 s gr

% Polyline
135.000 slw
n 4460 2237 m
 4820 2470 l gs col0 s gr 
% Polyline
n 2025 1470 m
 1770 1635 l gs col0 s gr 
% Polyline
n 1603 1468 m
 1858 1633 l gs col0 s gr 
% Polyline
n 4414 2269 m
 4159 2434 l gs col0 s gr 
% Polyline
30.000 slw
n 4841 1875 m
 4841 2061 l gs col7 s gr 
$F2psEnd
rs
