#FIG 3.2
Landscape
Center
Inches
Letter  
100.00
Single
-2
1200 2
6 12248 3335 13635 4614
2 1 0 2 0 7 50 -1 -1 0.000 0 0 -1 0 0 2
	 12340 3359 13458 3382
2 1 0 2 0 7 50 -1 -1 0.000 0 0 -1 0 0 4
	 12350 3518 13488 3508 13497 3440 13439 3372
2 1 0 2 0 7 50 -1 -1 0.000 0 0 -1 0 0 2
	 12433 4590 13604 4491
3 2 0 2 0 7 50 -1 -1 0.000 0 0 0 13
	 12498 4475 12371 4494 12352 4572 12439 4582 12507 4465 12488 4134
	 12332 3755 12254 3473 12313 3366 12410 3414 12342 3512 12303 3444
	 12381 3444
	 0.000 -1.000 -1.000 -1.000 -1.000 -1.000 -1.000 -1.000
	 -1.000 -1.000 -1.000 -1.000 0.000
3 2 0 2 0 7 50 -1 -1 0.000 0 0 0 5
	 13585 4491 13633 4306 13585 4014 13439 3693 13351 3518
	 0.000 -1.000 -1.000 -1.000 0.000
-6
6 6013 3375 7400 4654
2 1 0 2 0 7 50 -1 -1 0.000 0 0 -1 0 0 2
	 6105 3399 7223 3422
2 1 0 2 0 7 50 -1 -1 0.000 0 0 -1 0 0 4
	 6115 3558 7253 3548 7262 3480 7204 3412
2 1 0 2 0 7 50 -1 -1 0.000 0 0 -1 0 0 2
	 6198 4630 7369 4531
3 2 0 2 0 7 50 -1 -1 0.000 0 0 0 13
	 6263 4515 6136 4534 6117 4612 6204 4622 6272 4505 6253 4174
	 6097 3795 6019 3513 6078 3406 6175 3454 6107 3552 6068 3484
	 6146 3484
	 0.000 -1.000 -1.000 -1.000 -1.000 -1.000 -1.000 -1.000
	 -1.000 -1.000 -1.000 -1.000 0.000
3 2 0 2 0 7 50 -1 -1 0.000 0 0 0 5
	 7350 4531 7398 4346 7350 4054 7204 3733 7116 3558
	 0.000 -1.000 -1.000 -1.000 0.000
-6
6 -211 3320 1176 4599
2 1 0 2 0 7 50 -1 -1 0.000 0 0 -1 0 0 2
	 -119 3344 999 3367
2 1 0 2 0 7 50 -1 -1 0.000 0 0 -1 0 0 4
	 -109 3503 1029 3493 1038 3425 980 3357
2 1 0 2 0 7 50 -1 -1 0.000 0 0 -1 0 0 2
	 -26 4575 1145 4476
3 2 0 2 0 7 50 -1 -1 0.000 0 0 0 13
	 39 4460 -88 4479 -107 4557 -20 4567 48 4450 29 4119
	 -127 3740 -205 3458 -146 3351 -49 3399 -117 3497 -156 3429
	 -78 3429
	 0.000 -1.000 -1.000 -1.000 -1.000 -1.000 -1.000 -1.000
	 -1.000 -1.000 -1.000 -1.000 0.000
3 2 0 2 0 7 50 -1 -1 0.000 0 0 0 5
	 1126 4476 1174 4291 1126 3999 980 3678 892 3503
	 0.000 -1.000 -1.000 -1.000 0.000
-6
6 5 4736 1115 5105
6 44 4736 149 4841
4 0 0 50 -1 0 14 0.0000 4 105 105 44 4841 v\001
-6
4 0 0 50 -1 0 24 0.0000 4 330 1110 5 5030 cistopis\001
-6
6 12532 4665 13642 5034
6 12571 4665 12676 4770
4 0 0 50 -1 0 14 0.0000 4 105 105 12571 4770 v\001
-6
4 0 0 50 -1 0 24 0.0000 4 330 1110 12532 4959 cistopis\001
-6
6 8939 2972 10408 3691
2 1 0 1 4 4 50 -1 20 0.000 0 0 -1 0 0 28
	 9158 2972 9366 2972 9481 3128 9575 3128 9575 3160 9689 3160
	 9689 3191 10304 3191 10408 3305 10314 3420 10252 3368 10200 3430
	 10148 3368 10054 3451 9970 3368 9887 3441 9835 3378 9741 3451
	 9689 3451 9679 3483 9585 3483 9585 3535 9491 3535 9366 3691
	 9158 3691 8939 3430 8939 3222 9147 2972
2 1 0 1 7 7 50 -1 20 0.000 0 0 -1 0 0 5
	 9048 3233 9007 3305 9007 3368 9059 3420 9059 3243
-6
6 3011 2972 4480 3691
2 1 0 1 4 4 50 -1 20 0.000 0 0 -1 0 0 28
	 3230 2972 3438 2972 3553 3128 3647 3128 3647 3160 3761 3160
	 3761 3191 4376 3191 4480 3305 4386 3420 4324 3368 4272 3430
	 4220 3368 4126 3451 4042 3368 3959 3441 3907 3378 3813 3451
	 3761 3451 3751 3483 3657 3483 3657 3535 3563 3535 3438 3691
	 3230 3691 3011 3430 3011 3222 3219 2972
2 1 0 1 7 7 50 -1 20 0.000 0 0 -1 0 0 5
	 3120 3233 3079 3305 3079 3368 3131 3420 3131 3243
-6
2 2 0 2 0 2 50 -1 20 0.000 0 0 -1 0 0 5
	 8715 3825 10815 3825 10815 4500 8715 4500 8715 3825
2 2 0 2 0 2 50 -1 20 0.000 0 0 -1 0 0 5
	 2700 3825 4800 3825 4800 4500 2700 4500 2700 3825
2 1 0 2 0 7 50 -1 -1 0.000 0 0 -1 1 0 2
	2 1 1.00 120.00 240.00
	 4875 4140 8655 4140
2 1 0 2 0 7 50 -1 -1 0.000 0 0 -1 1 0 2
	2 1 1.00 120.00 240.00
	 10869 4203 12202 4203
2 1 0 1 7 7 40 -1 20 0.000 0 0 -1 0 0 5
	 6232 4004 6302 4264 7362 4234 7332 4054 6364 4051
2 1 0 2 0 7 50 -1 -1 0.000 0 0 -1 1 0 2
	2 1 1.00 120.00 240.00
	 1281 4144 2614 4144
4 0 0 50 -1 0 24 0.0000 4 330 1290 3120 4305 sifriranje\001
4 0 0 50 -1 0 24 0.0000 4 330 1650 8970 4305 odsifriranje\001
4 0 0 50 -1 0 24 0.0000 4 330 1155 6220 5014 tajnopis\001
4 0 0 50 -1 0 24 0.0000 4 330 765 212 4099 glava\001
4 0 0 50 -1 0 24 0.0000 4 330 765 12672 4119 glava\001
4 0 0 30 -1 0 24 0.0000 4 255 945 6272 4129 !#4?%\001
4 0 0 50 -1 0 14 0.0000 4 105 105 3160 4085 v\001
4 0 0 50 -1 0 14 0.0000 4 105 105 9380 4105 v\001
