%!PS-Adobe-2.0 EPSF-2.0
%%Title: sim_sifra.fig
%%Creator: fig2dev Version 3.2 Patchlevel 4
%%CreationDate: Sun Feb 20 02:02:53 2005
%%For: ajurisic@bike ()
%%BoundingBox: 0 0 834 131
%%Magnification: 1.0000
%%EndComments
/$F2psDict 200 dict def
$F2psDict begin
$F2psDict /mtrx matrix put
/col-1 {0 setgray} bind def
/col0 {0.000 0.000 0.000 srgb} bind def
/col1 {0.000 0.000 1.000 srgb} bind def
/col2 {0.000 1.000 0.000 srgb} bind def
/col3 {0.000 1.000 1.000 srgb} bind def
/col4 {1.000 0.000 0.000 srgb} bind def
/col5 {1.000 0.000 1.000 srgb} bind def
/col6 {1.000 1.000 0.000 srgb} bind def
/col7 {1.000 1.000 1.000 srgb} bind def
/col8 {0.000 0.000 0.560 srgb} bind def
/col9 {0.000 0.000 0.690 srgb} bind def
/col10 {0.000 0.000 0.820 srgb} bind def
/col11 {0.530 0.810 1.000 srgb} bind def
/col12 {0.000 0.560 0.000 srgb} bind def
/col13 {0.000 0.690 0.000 srgb} bind def
/col14 {0.000 0.820 0.000 srgb} bind def
/col15 {0.000 0.560 0.560 srgb} bind def
/col16 {0.000 0.690 0.690 srgb} bind def
/col17 {0.000 0.820 0.820 srgb} bind def
/col18 {0.560 0.000 0.000 srgb} bind def
/col19 {0.690 0.000 0.000 srgb} bind def
/col20 {0.820 0.000 0.000 srgb} bind def
/col21 {0.560 0.000 0.560 srgb} bind def
/col22 {0.690 0.000 0.690 srgb} bind def
/col23 {0.820 0.000 0.820 srgb} bind def
/col24 {0.500 0.190 0.000 srgb} bind def
/col25 {0.630 0.250 0.000 srgb} bind def
/col26 {0.750 0.380 0.000 srgb} bind def
/col27 {1.000 0.500 0.500 srgb} bind def
/col28 {1.000 0.630 0.630 srgb} bind def
/col29 {1.000 0.750 0.750 srgb} bind def
/col30 {1.000 0.880 0.880 srgb} bind def
/col31 {1.000 0.840 0.000 srgb} bind def

end
save
newpath 0 131 moveto 0 0 lineto 834 0 lineto 834 131 lineto closepath clip newpath
13.6 307.7 translate
1 -1 scale

/cp {closepath} bind def
/ef {eofill} bind def
/gr {grestore} bind def
/gs {gsave} bind def
/sa {save} bind def
/rs {restore} bind def
/l {lineto} bind def
/m {moveto} bind def
/rm {rmoveto} bind def
/n {newpath} bind def
/s {stroke} bind def
/sh {show} bind def
/slc {setlinecap} bind def
/slj {setlinejoin} bind def
/slw {setlinewidth} bind def
/srgb {setrgbcolor} bind def
/rot {rotate} bind def
/sc {scale} bind def
/sd {setdash} bind def
/ff {findfont} bind def
/sf {setfont} bind def
/scf {scalefont} bind def
/sw {stringwidth} bind def
/tr {translate} bind def
/tnt {dup dup currentrgbcolor
  4 -2 roll dup 1 exch sub 3 -1 roll mul add
  4 -2 roll dup 1 exch sub 3 -1 roll mul add
  4 -2 roll dup 1 exch sub 3 -1 roll mul add srgb}
  bind def
/shd {dup dup currentrgbcolor 4 -2 roll mul 4 -2 roll mul
  4 -2 roll mul srgb} bind def
/$F2psBegin {$F2psDict begin /$F2psEnteredState save def} def
/$F2psEnd {$F2psEnteredState restore end} def

$F2psBegin
10 setmiterlimit
0 slj 0 slc
 0.06000 0.06000 sc
%
% Fig objects follow
%
% 
% here starts figure with depth 50
% Polyline
15.000 slw
n 12340 3359 m
 13458 3382 l gs col0 s gr 
% Polyline
n 12350 3518 m 13488 3508 l 13497 3440 l
 13439 3372 l gs col0 s gr 
% Polyline
n 12433 4590 m
 13604 4491 l gs col0 s gr 
% Polyline
2 slj
n 12498 4475 m 12497 4475 l 12493 4475 l 12485 4474 l 12472 4474 l 12456 4474 l
 12439 4475 l 12422 4477 l 12404 4480 l 12387 4486 l 12371 4494 l
 12362 4501 l 12355 4509 l 12350 4515 l 12347 4521 l 12345 4526 l
 12344 4530 l 12344 4534 l 12344 4538 l 12344 4542 l 12344 4546 l
 12345 4552 l 12346 4558 l 12348 4565 l 12352 4572 l 12359 4578 l
 12366 4583 l 12373 4587 l 12379 4589 l 12384 4592 l 12388 4593 l
 12393 4595 l 12399 4595 l 12406 4595 l 12415 4593 l 12426 4589 l
 12439 4582 l 12450 4574 l 12459 4565 l 12466 4559 l 12472 4555 l
 12476 4553 l 12479 4552 l 12482 4552 l 12484 4551 l 12487 4549 l
 12490 4543 l 12494 4533 l 12498 4517 l 12503 4494 l 12507 4465 l
 12509 4439 l 12511 4414 l 12512 4392 l 12513 4372 l 12513 4357 l
 12514 4345 l 12515 4336 l 12516 4328 l 12516 4321 l 12517 4314 l
 12517 4306 l 12516 4295 l 12515 4281 l 12513 4262 l 12509 4238 l
 12504 4208 l 12497 4173 l 12488 4134 l 12479 4099 l 12469 4066 l
 12460 4036 l 12451 4012 l 12443 3991 l 12436 3976 l 12430 3964 l
 12425 3954 l 12420 3947 l 12415 3940 l 12410 3934 l 12405 3927 l
 12399 3918 l 12393 3906 l 12385 3891 l 12377 3871 l 12367 3847 l
 12356 3819 l 12344 3788 l 12332 3755 l 12318 3715 l 12306 3680 l
 12297 3652 l 12290 3631 l 12284 3615 l 12280 3604 l 12277 3597 l
 12275 3591 l 12273 3586 l 12271 3580 l 12269 3571 l 12266 3559 l
 12263 3542 l 12259 3522 l 12256 3498 l 12254 3473 l 12254 3450 l
 12255 3432 l 12257 3417 l 12259 3407 l 12262 3400 l 12264 3396 l
 12266 3393 l 12269 3392 l 12272 3391 l 12275 3390 l 12278 3388 l
 12283 3385 l 12289 3381 l 12295 3376 l 12304 3371 l 12313 3366 l
 12324 3363 l 12335 3363 l 12345 3364 l 12353 3365 l 12360 3368 l
 12366 3370 l 12372 3373 l 12378 3376 l 12383 3379 l 12389 3384 l
 12395 3389 l 12401 3396 l 12407 3404 l 12410 3414 l 12410 3426 l
 12408 3438 l 12403 3449 l 12398 3458 l 12393 3466 l 12387 3473 l
 12381 3479 l 12375 3486 l 12368 3494 l 12360 3501 l 12351 3508 l
 12342 3512 l 12334 3512 l 12327 3510 l 12321 3505 l 12317 3499 l
 12313 3493 l 12310 3486 l 12308 3479 l 12305 3472 l 12303 3465 l
 12302 3458 l 12301 3450 l 12303 3444 l 12311 3438 l 12322 3435 l
 12336 3436 l 12351 3438 l 12364 3440 l 12375 3443 l 12380 3444 l

 12381 3444 l gs col0 s gr 
% Polyline
n 13585 4491 m 13586 4489 l 13589 4485 l 13594 4477 l 13600 4467 l 13606 4455 l
 13613 4440 l 13619 4422 l 13624 4401 l 13629 4375 l 13632 4344 l
 13633 4306 l 13632 4276 l 13631 4248 l 13630 4225 l 13628 4207 l
 13627 4193 l 13626 4184 l 13626 4177 l 13625 4171 l 13624 4166 l
 13623 4158 l 13621 4148 l 13617 4133 l 13612 4112 l 13605 4085 l
 13596 4051 l 13585 4014 l 13574 3980 l 13563 3949 l 13552 3922 l
 13543 3900 l 13536 3882 l 13530 3869 l 13524 3859 l 13520 3851 l
 13515 3844 l 13511 3837 l 13506 3829 l 13501 3820 l 13494 3807 l
 13486 3791 l 13476 3771 l 13465 3748 l 13452 3721 l 13439 3693 l
 13421 3654 l 13405 3623 l 13393 3597 l 13383 3577 l 13375 3561 l
 13368 3548 l 13362 3537 l 13357 3529 l 13354 3523 l 13352 3520 l

 13351 3518 l gs col0 s gr 
% Polyline
0 slj
n 6105 3399 m
 7223 3422 l gs col0 s gr 
% Polyline
n 6115 3558 m 7253 3548 l 7262 3480 l
 7204 3412 l gs col0 s gr 
% Polyline
n 6198 4630 m
 7369 4531 l gs col0 s gr 
% Polyline
2 slj
n 6263 4515 m 6262 4515 l 6258 4515 l 6250 4514 l 6237 4514 l 6221 4514 l
 6204 4515 l 6187 4517 l 6169 4520 l 6152 4526 l 6136 4534 l
 6127 4541 l 6120 4549 l 6115 4555 l 6112 4561 l 6110 4566 l
 6109 4570 l 6109 4574 l 6109 4578 l 6109 4582 l 6109 4586 l
 6110 4592 l 6111 4598 l 6113 4605 l 6117 4612 l 6124 4618 l
 6131 4623 l 6138 4627 l 6144 4629 l 6149 4632 l 6153 4633 l
 6158 4635 l 6164 4635 l 6171 4635 l 6180 4633 l 6191 4629 l
 6204 4622 l 6215 4614 l 6224 4605 l 6231 4599 l 6237 4595 l
 6241 4593 l 6244 4592 l 6247 4592 l 6249 4591 l 6252 4589 l
 6255 4583 l 6259 4573 l 6263 4557 l 6268 4534 l 6272 4505 l
 6274 4479 l 6276 4454 l 6277 4432 l 6278 4412 l 6278 4397 l
 6279 4385 l 6280 4376 l 6281 4368 l 6281 4361 l 6282 4354 l
 6282 4346 l 6281 4335 l 6280 4321 l 6278 4302 l 6274 4278 l
 6269 4248 l 6262 4213 l 6253 4174 l 6244 4139 l 6234 4106 l
 6225 4076 l 6216 4052 l 6208 4031 l 6201 4016 l 6195 4004 l
 6190 3994 l 6185 3987 l 6180 3980 l 6175 3974 l 6170 3967 l
 6164 3958 l 6158 3946 l 6150 3931 l 6142 3911 l 6132 3887 l
 6121 3859 l 6109 3828 l 6097 3795 l 6083 3755 l 6071 3720 l
 6062 3692 l 6055 3671 l 6049 3655 l 6045 3644 l 6042 3637 l
 6040 3631 l 6038 3626 l 6036 3620 l 6034 3611 l 6031 3599 l
 6028 3582 l 6024 3562 l 6021 3538 l 6019 3513 l 6019 3490 l
 6020 3472 l 6022 3457 l 6024 3447 l 6027 3440 l 6029 3436 l
 6031 3433 l 6034 3432 l 6037 3431 l 6040 3430 l 6043 3428 l
 6048 3425 l 6054 3421 l 6060 3416 l 6069 3411 l 6078 3406 l
 6089 3403 l 6100 3403 l 6110 3404 l 6118 3405 l 6125 3408 l
 6131 3410 l 6137 3413 l 6143 3416 l 6148 3419 l 6154 3424 l
 6160 3429 l 6166 3436 l 6172 3444 l 6175 3454 l 6175 3466 l
 6173 3478 l 6168 3489 l 6163 3498 l 6158 3506 l 6152 3513 l
 6146 3519 l 6140 3526 l 6133 3534 l 6125 3541 l 6116 3548 l
 6107 3552 l 6099 3552 l 6092 3550 l 6086 3545 l 6082 3539 l
 6078 3533 l 6075 3526 l 6073 3519 l 6070 3512 l 6068 3505 l
 6067 3498 l 6066 3490 l 6068 3484 l 6076 3478 l 6087 3475 l
 6101 3476 l 6116 3478 l 6129 3480 l 6140 3483 l 6145 3484 l

 6146 3484 l gs col0 s gr 
% Polyline
n 7350 4531 m 7351 4529 l 7354 4525 l 7359 4517 l 7365 4507 l 7371 4495 l
 7378 4480 l 7384 4462 l 7389 4441 l 7394 4415 l 7397 4384 l
 7398 4346 l 7397 4316 l 7396 4288 l 7395 4265 l 7393 4247 l
 7392 4233 l 7391 4224 l 7391 4217 l 7390 4211 l 7389 4206 l
 7388 4198 l 7386 4188 l 7382 4173 l 7377 4152 l 7370 4125 l
 7361 4091 l 7350 4054 l 7339 4020 l 7328 3989 l 7317 3962 l
 7308 3940 l 7301 3922 l 7295 3909 l 7289 3899 l 7285 3891 l
 7280 3884 l 7276 3877 l 7271 3869 l 7266 3860 l 7259 3847 l
 7251 3831 l 7241 3811 l 7230 3788 l 7217 3761 l 7204 3733 l
 7186 3694 l 7170 3663 l 7158 3637 l 7148 3617 l 7140 3601 l
 7133 3588 l 7127 3577 l 7122 3569 l 7119 3563 l 7117 3560 l

 7116 3558 l gs col0 s gr 
% Polyline
0 slj
n -119 3344 m
 999 3367 l gs col0 s gr 
% Polyline
n -109 3503 m 1029 3493 l 1038 3425 l
 980 3357 l gs col0 s gr 
% Polyline
n -26 4575 m
 1145 4476 l gs col0 s gr 
% Polyline
2 slj
n 39 4460 m 38 4460 l 34 4460 l 26 4459 l 13 4459 l -3 4459 l
 -20 4460 l -37 4462 l -55 4465 l -72 4471 l -88 4479 l
 -97 4486 l -104 4494 l -109 4500 l -112 4506 l -114 4511 l
 -115 4515 l -115 4519 l -115 4523 l -115 4527 l -115 4531 l
 -114 4537 l -113 4543 l -111 4550 l -107 4557 l -100 4563 l
 -93 4568 l -86 4572 l -80 4574 l -75 4577 l -71 4578 l
 -66 4580 l -60 4580 l -53 4580 l -44 4578 l -33 4574 l
 -20 4567 l -9 4559 l 0 4550 l 7 4544 l 13 4540 l
 17 4538 l 20 4537 l 23 4537 l 25 4536 l 28 4534 l
 31 4528 l 35 4518 l 39 4502 l 44 4479 l 48 4450 l
 50 4424 l 52 4399 l 53 4377 l 54 4357 l 54 4342 l
 55 4330 l 56 4321 l 57 4313 l 57 4306 l 58 4299 l
 58 4291 l 57 4280 l 56 4266 l 54 4247 l 50 4223 l
 45 4193 l 38 4158 l 29 4119 l 20 4084 l 10 4051 l
 1 4021 l -8 3997 l -16 3976 l -23 3961 l -29 3949 l
 -34 3939 l -39 3932 l -44 3925 l -49 3919 l -54 3912 l
 -60 3903 l -66 3891 l -74 3876 l -82 3856 l -92 3832 l
 -103 3804 l -115 3773 l -127 3740 l -141 3700 l -153 3665 l
 -162 3637 l -169 3616 l -175 3600 l -179 3589 l -182 3582 l
 -184 3576 l -186 3571 l -188 3565 l -190 3556 l -193 3544 l
 -196 3527 l -200 3507 l -203 3483 l -205 3458 l -205 3435 l
 -204 3417 l -202 3402 l -200 3392 l -197 3385 l -195 3381 l
 -193 3378 l -190 3377 l -187 3376 l -184 3375 l -181 3373 l
 -176 3370 l -170 3366 l -164 3361 l -155 3356 l -146 3351 l
 -135 3348 l -124 3348 l -114 3349 l -106 3350 l -99 3353 l
 -93 3355 l -87 3358 l -81 3361 l -76 3364 l -70 3369 l
 -64 3374 l -58 3381 l -52 3389 l -49 3399 l -49 3411 l
 -51 3423 l -56 3434 l -61 3443 l -66 3451 l -72 3458 l
 -78 3464 l -84 3471 l -91 3479 l -99 3486 l -108 3493 l
 -117 3497 l -125 3497 l -132 3495 l -138 3490 l -142 3484 l
 -146 3478 l -149 3471 l -151 3464 l -154 3457 l -156 3450 l
 -157 3443 l -158 3435 l -156 3429 l -148 3423 l -137 3420 l
 -123 3421 l -108 3423 l -95 3425 l -84 3428 l -79 3429 l

 -78 3429 l gs col0 s gr 
% Polyline
n 1126 4476 m 1127 4474 l 1130 4470 l 1135 4462 l 1141 4452 l 1147 4440 l
 1154 4425 l 1160 4407 l 1165 4386 l 1170 4360 l 1173 4329 l
 1174 4291 l 1173 4261 l 1172 4233 l 1171 4210 l 1169 4192 l
 1168 4178 l 1167 4169 l 1167 4162 l 1166 4156 l 1165 4151 l
 1164 4143 l 1162 4133 l 1158 4118 l 1153 4097 l 1146 4070 l
 1137 4036 l 1126 3999 l 1115 3965 l 1104 3934 l 1093 3907 l
 1084 3885 l 1077 3867 l 1071 3854 l 1065 3844 l 1061 3836 l
 1056 3829 l 1052 3822 l 1047 3814 l 1042 3805 l 1035 3792 l
 1027 3776 l 1017 3756 l 1006 3733 l 993 3706 l 980 3678 l
 962 3639 l 946 3608 l 934 3582 l 924 3562 l 916 3546 l
 909 3533 l 903 3522 l 898 3514 l 895 3508 l 893 3505 l

 892 3503 l gs col0 s gr 
/Times-Roman ff 210.00 scf sf
44 4841 m
gs 1 -1 sc (v) col0 sh gr
/Times-Roman ff 360.00 scf sf
5 5030 m
gs 1 -1 sc (cistopis) col0 sh gr
/Times-Roman ff 210.00 scf sf
12571 4770 m
gs 1 -1 sc (v) col0 sh gr
/Times-Roman ff 360.00 scf sf
12532 4959 m
gs 1 -1 sc (cistopis) col0 sh gr
% Polyline
0 slj
7.500 slw
n 9158 2972 m 9366 2972 l 9481 3128 l 9575 3128 l 9575 3160 l 9689 3160 l
 9689 3191 l 10304 3191 l 10408 3305 l 10314 3420 l 10252 3368 l
 10200 3430 l 10148 3368 l 10054 3451 l 9970 3368 l 9887 3441 l
 9835 3378 l 9741 3451 l 9689 3451 l 9679 3483 l 9585 3483 l
 9585 3535 l 9491 3535 l 9366 3691 l 9158 3691 l 8939 3430 l
 8939 3222 l
 9147 2972 l gs col4 1.00 shd ef gr gs col4 s gr 
% Polyline
n 9048 3233 m 9007 3305 l 9007 3368 l 9059 3420 l
 9059 3243 l gs col7 1.00 shd ef gr gs col7 s gr 
% Polyline
n 3230 2972 m 3438 2972 l 3553 3128 l 3647 3128 l 3647 3160 l 3761 3160 l
 3761 3191 l 4376 3191 l 4480 3305 l 4386 3420 l 4324 3368 l
 4272 3430 l 4220 3368 l 4126 3451 l 4042 3368 l 3959 3441 l
 3907 3378 l 3813 3451 l 3761 3451 l 3751 3483 l 3657 3483 l
 3657 3535 l 3563 3535 l 3438 3691 l 3230 3691 l 3011 3430 l
 3011 3222 l
 3219 2972 l gs col4 1.00 shd ef gr gs col4 s gr 
% Polyline
n 3120 3233 m 3079 3305 l 3079 3368 l 3131 3420 l
 3131 3243 l gs col7 1.00 shd ef gr gs col7 s gr 
% Polyline
15.000 slw
n 8715 3825 m 10815 3825 l 10815 4500 l 8715 4500 l
 cp gs col2 1.00 shd ef gr gs col0 s gr 
% Polyline
n 2700 3825 m 4800 3825 l 4800 4500 l 2700 4500 l
 cp gs col2 1.00 shd ef gr gs col0 s gr 
% Polyline
gs  clippath
8670 4200 m 8670 4080 l 8335 4080 l 8635 4140 l 8335 4200 l cp
eoclip
n 4875 4140 m
 8655 4140 l gs col0 s gr gr

% arrowhead
7.500 slw
n 8335 4200 m 8635 4140 l 8335 4080 l 8395 4140 l 8335 4200 l 
 cp gs 0.00 setgray ef gr  col0 s
% Polyline
15.000 slw
gs  clippath
12217 4263 m 12217 4143 l 11882 4143 l 12182 4203 l 11882 4263 l cp
eoclip
n 10869 4203 m
 12202 4203 l gs col0 s gr gr

% arrowhead
7.500 slw
n 11882 4263 m 12182 4203 l 11882 4143 l 11942 4203 l 11882 4263 l 
 cp gs 0.00 setgray ef gr  col0 s
% Polyline
15.000 slw
gs  clippath
2629 4204 m 2629 4084 l 2294 4084 l 2594 4144 l 2294 4204 l cp
eoclip
n 1281 4144 m
 2614 4144 l gs col0 s gr gr

% arrowhead
7.500 slw
n 2294 4204 m 2594 4144 l 2294 4084 l 2354 4144 l 2294 4204 l 
 cp gs 0.00 setgray ef gr  col0 s
/Times-Roman ff 360.00 scf sf
3120 4305 m
gs 1 -1 sc (sifriranje) col0 sh gr
/Times-Roman ff 360.00 scf sf
8970 4305 m
gs 1 -1 sc (odsifriranje) col0 sh gr
/Times-Roman ff 360.00 scf sf
6220 5014 m
gs 1 -1 sc (tajnopis) col0 sh gr
/Times-Roman ff 210.00 scf sf
3160 4085 m
gs 1 -1 sc (v) col0 sh gr
/Times-Roman ff 210.00 scf sf
9380 4105 m
gs 1 -1 sc (v) col0 sh gr
% here ends figure;
% 
% here starts figure with depth 45
% Polyline
7.500 slw
n -180 3496 m -105 3541 l 878 3541 l 1050 3893 l 1140 4156 l 1148 4351 l
 1118 4456 l 53 4546 l 83 4358 l 60 4148 l -7 3916 l
 -52 3863 l
 -180 3488 l gs col31 1.00 shd ef gr gs col31 s gr 
% Polyline
n 6045 3541 m 6120 3586 l 7103 3586 l 7275 3938 l 7365 4201 l 7373 4396 l
 7343 4501 l 6278 4591 l 6308 4403 l 6285 4193 l 6218 3961 l
 6173 3908 l
 6045 3533 l gs col31 1.00 shd ef gr gs col31 s gr 
% Polyline
n 12278 3511 m 12353 3556 l 13336 3556 l 13508 3908 l 13598 4171 l 13606 4366 l
 13576 4471 l 12511 4561 l 12541 4373 l 12518 4163 l 12451 3931 l
 12406 3878 l
 12278 3503 l gs col31 1.00 shd ef gr gs col31 s gr 
% here ends figure;
% 
% here starts figure with depth 40
/Times-Roman ff 360.00 scf sf
212 4099 m
gs 1 -1 sc (glava) col0 sh gr
/Times-Roman ff 360.00 scf sf
12672 4119 m
gs 1 -1 sc (glava) col0 sh gr
% here ends figure;
% 
% here starts figure with depth 30
/Times-Roman ff 360.00 scf sf
6272 4129 m
gs 1 -1 sc (!#4?%) col0 sh gr
% here ends figure;
$F2psEnd
rs
showpage
