%!PS-Adobe-2.0 EPSF-2.0
%%Title: simetricen1.fig
%%Creator: fig2dev Version 3.2 Patchlevel 4
%%CreationDate: Thu Mar  3 17:22:30 2005
%%For: ajurisic@bike ()
%%BoundingBox: 0 0 515 242
%%Magnification: 1.0000
%%EndComments
/$F2psDict 200 dict def
$F2psDict begin
$F2psDict /mtrx matrix put
/col-1 {0 setgray} bind def
/col0 {0.000 0.000 0.000 srgb} bind def
/col1 {0.000 0.000 1.000 srgb} bind def
/col2 {0.000 1.000 0.000 srgb} bind def
/col3 {0.000 1.000 1.000 srgb} bind def
/col4 {1.000 0.000 0.000 srgb} bind def
/col5 {1.000 0.000 1.000 srgb} bind def
/col6 {1.000 1.000 0.000 srgb} bind def
/col7 {1.000 1.000 1.000 srgb} bind def
/col8 {0.000 0.000 0.560 srgb} bind def
/col9 {0.000 0.000 0.690 srgb} bind def
/col10 {0.000 0.000 0.820 srgb} bind def
/col11 {0.530 0.810 1.000 srgb} bind def
/col12 {0.000 0.560 0.000 srgb} bind def
/col13 {0.000 0.690 0.000 srgb} bind def
/col14 {0.000 0.820 0.000 srgb} bind def
/col15 {0.000 0.560 0.560 srgb} bind def
/col16 {0.000 0.690 0.690 srgb} bind def
/col17 {0.000 0.820 0.820 srgb} bind def
/col18 {0.560 0.000 0.000 srgb} bind def
/col19 {0.690 0.000 0.000 srgb} bind def
/col20 {0.820 0.000 0.000 srgb} bind def
/col21 {0.560 0.000 0.560 srgb} bind def
/col22 {0.690 0.000 0.690 srgb} bind def
/col23 {0.820 0.000 0.820 srgb} bind def
/col24 {0.500 0.190 0.000 srgb} bind def
/col25 {0.630 0.250 0.000 srgb} bind def
/col26 {0.750 0.380 0.000 srgb} bind def
/col27 {1.000 0.500 0.500 srgb} bind def
/col28 {1.000 0.630 0.630 srgb} bind def
/col29 {1.000 0.750 0.750 srgb} bind def
/col30 {1.000 0.880 0.880 srgb} bind def
/col31 {1.000 0.840 0.000 srgb} bind def

end
save
newpath 0 242 moveto 0 0 lineto 515 0 lineto 515 242 lineto closepath clip newpath
-44.2 294.5 translate
1 -1 scale

/cp {closepath} bind def
/ef {eofill} bind def
/gr {grestore} bind def
/gs {gsave} bind def
/sa {save} bind def
/rs {restore} bind def
/l {lineto} bind def
/m {moveto} bind def
/rm {rmoveto} bind def
/n {newpath} bind def
/s {stroke} bind def
/sh {show} bind def
/slc {setlinecap} bind def
/slj {setlinejoin} bind def
/slw {setlinewidth} bind def
/srgb {setrgbcolor} bind def
/rot {rotate} bind def
/sc {scale} bind def
/sd {setdash} bind def
/ff {findfont} bind def
/sf {setfont} bind def
/scf {scalefont} bind def
/sw {stringwidth} bind def
/tr {translate} bind def
/tnt {dup dup currentrgbcolor
  4 -2 roll dup 1 exch sub 3 -1 roll mul add
  4 -2 roll dup 1 exch sub 3 -1 roll mul add
  4 -2 roll dup 1 exch sub 3 -1 roll mul add srgb}
  bind def
/shd {dup dup currentrgbcolor 4 -2 roll mul 4 -2 roll mul
  4 -2 roll mul srgb} bind def
 /DrawEllipse {
	/endangle exch def
	/startangle exch def
	/yrad exch def
	/xrad exch def
	/y exch def
	/x exch def
	/savematrix mtrx currentmatrix def
	x y tr xrad yrad sc 0 0 1 startangle endangle arc
	closepath
	savematrix setmatrix
	} def

/$F2psBegin {$F2psDict begin /$F2psEnteredState save def} def
/$F2psEnd {$F2psEnteredState restore end} def

$F2psBegin
10 setmiterlimit
0 slj 0 slc
 0.06000 0.06000 sc
%
% Fig objects follow
%
% 
% here starts figure with depth 100
% Ellipse
7.500 slw
n 8489 4074 811 811 0 360 DrawEllipse gs col31 1.00 shd ef gr gs col0 s gr

% Ellipse
n 7492 1288 825 375 0 360 DrawEllipse gs col11 1.00 shd ef gr gs col0 s gr

% Ellipse
n 2850 1275 825 375 0 360 DrawEllipse gs col11 1.00 shd ef gr gs col0 s gr

% Ellipse
n 3561 4082 811 811 0 360 DrawEllipse gs col31 1.00 shd ef gr gs col0 s gr

% Ellipse
n 1555 4090 811 811 0 360 DrawEllipse gs col31 1.00 shd ef gr gs col0 s gr

% Ellipse
n 4665 1283 825 375 0 360 DrawEllipse gs col11 1.00 shd ef gr gs col0 s gr

% Polyline
gs  clippath
4207 1701 m 4169 1655 l 4052 1751 l 4164 1699 l 4090 1798 l cp
2095 3357 m 2133 3403 l 2250 3307 l 2139 3360 l 2212 3260 l cp
eoclip
n 2126 3371 m
 4177 1688 l gs col0 s gr gr

% arrowhead
n 2212 3260 m 2139 3360 l 2250 3307 l  col0 s
% arrowhead
n 4090 1798 m 4164 1699 l 4052 1751 l  col0 s
% Polyline
gs  clippath
7024 1653 m 7003 1597 l 6862 1651 l 6985 1637 l 6883 1707 l cp
2214 3426 m 2235 3482 l 2376 3428 l 2254 3443 l 2355 3372 l cp
eoclip
n 2239 3449 m
 7000 1631 l gs col0 s gr gr

% arrowhead
n 2355 3372 m 2254 3443 l 2376 3428 l  col0 s
% arrowhead
n 6883 1707 m 6985 1637 l 6862 1651 l  col0 s
% here ends figure;
% 
% here starts figure with depth 80
% Polyline
7.500 slw
n 2968 2533 m 3121 2533 l 3121 2687 l 2968 2687 l
 cp gs col7 1.00 shd ef gr gs col7 s gr 
% here ends figure;
% 
% here starts figure with depth 50
% Ellipse
7.500 slw
n 5740 1314 30 30 0 360 DrawEllipse gs 0.00 setgray ef gr gs col0 s gr

% Ellipse
n 6085 1314 30 30 0 360 DrawEllipse gs 0.00 setgray ef gr gs col0 s gr

% Ellipse
n 6415 1314 30 30 0 360 DrawEllipse gs 0.00 setgray ef gr gs col0 s gr

/Times-Italic ff 180.00 scf sf
980 3737 m
gs 1 -1 sc (K) col0 sh gr
/Times-Italic ff 150.00 scf sf
1097 3797 m
gs 1 -1 sc (Z) col0 sh gr
/Times-Italic ff 180.00 scf sf
1349 3744 m
gs 1 -1 sc (K) col0 sh gr
/Times-Italic ff 150.00 scf sf
1475 3806 m
gs 1 -1 sc (F) col0 sh gr
/Times-Italic ff 180.00 scf sf
1933 3754 m
gs 1 -1 sc (K) col0 sh gr
/Times-Italic ff 150.00 scf sf
2059 3814 m
gs 1 -1 sc (T) col0 sh gr
/Times-Italic ff 180.00 scf sf
2986 3729 m
gs 1 -1 sc (K) col0 sh gr
/Times-Italic ff 150.00 scf sf
3103 3789 m
gs 1 -1 sc (Z) col0 sh gr
/Times-Italic ff 180.00 scf sf
3355 3736 m
gs 1 -1 sc (K) col0 sh gr
/Times-Italic ff 150.00 scf sf
3481 3798 m
gs 1 -1 sc (F) col0 sh gr
/Times-Italic ff 180.00 scf sf
3939 3746 m
gs 1 -1 sc (K) col0 sh gr
/Times-Italic ff 150.00 scf sf
4065 3806 m
gs 1 -1 sc (T) col0 sh gr
% Ellipse
n 5707 4174 30 30 0 360 DrawEllipse gs 0.00 setgray ef gr gs col0 s gr

% Ellipse
n 6052 4174 30 30 0 360 DrawEllipse gs 0.00 setgray ef gr gs col0 s gr

% Ellipse
n 6382 4174 30 30 0 360 DrawEllipse gs 0.00 setgray ef gr gs col0 s gr

/Times-Italic ff 180.00 scf sf
7907 3711 m
gs 1 -1 sc (K) col0 sh gr
/Times-Italic ff 150.00 scf sf
8024 3771 m
gs 1 -1 sc (Z) col0 sh gr
/Times-Italic ff 180.00 scf sf
8276 3718 m
gs 1 -1 sc (K) col0 sh gr
/Times-Italic ff 150.00 scf sf
8402 3780 m
gs 1 -1 sc (F) col0 sh gr
/Times-Italic ff 180.00 scf sf
8860 3728 m
gs 1 -1 sc (K) col0 sh gr
/Times-Italic ff 150.00 scf sf
8986 3788 m
gs 1 -1 sc (T) col0 sh gr
/Times-Italic ff 150.00 scf sf
8229 4605 m
gs 1 -1 sc (U) col0 sh gr
/Times-Italic ff 150.00 scf sf
8340 4632 m
gs 1 -1 sc (n) col0 sh gr
/Times-Italic ff 150.00 scf sf
8865 4609 m
gs 1 -1 sc (n) col0 sh gr
/Times-Italic ff 210.00 scf sf
8944 4133 m
gs 1 -1 sc (n) col0 sh gr
/Times-Roman ff 210.00 scf sf
7952 4135 m
gs 1 -1 sc (uporabnik) col0 sh gr
/Times-Italic ff 180.00 scf sf
8105 4529 m
gs 1 -1 sc (K) col0 sh gr
/Times-Italic ff 180.00 scf sf
8633 4541 m
gs 1 -1 sc (SN) col0 sh gr
/Times-Roman ff 360.00 scf sf
8557 3734 m
gs 1 -1 sc (...) col0 sh gr
% Polyline
gs  clippath
2686 1744 m 2632 1717 l 2565 1852 l 2646 1759 l 2618 1879 l cp
1864 3245 m 1918 3272 l 1985 3137 l 1905 3231 l 1932 3110 l cp
eoclip
n 1898 3246 m
 2653 1744 l gs col0 s gr gr

% arrowhead
n 1932 3110 m 1905 3231 l 1985 3137 l  col0 s
% arrowhead
n 2618 1879 m 2646 1759 l 2565 1852 l  col0 s
% Polyline
gs  clippath
7470 1717 m 7416 1743 l 7482 1880 l 7457 1759 l 7536 1853 l cp
8137 3223 m 8191 3197 l 8125 3060 l 8151 3182 l 8071 3087 l cp
eoclip
n 8158 3197 m
 7450 1744 l gs col0 s gr gr

% arrowhead
n 8071 3087 m 8151 3182 l 8125 3060 l  col0 s
% arrowhead
n 7536 1853 m 7457 1759 l 7482 1880 l  col0 s
% Polyline
gs  clippath
7212 1772 m 7183 1720 l 7051 1794 l 7171 1762 l 7080 1846 l cp
4151 3406 m 4180 3458 l 4312 3384 l 4193 3417 l 4283 3332 l cp
eoclip
n 4179 3425 m
 7185 1754 l gs col0 s gr gr

% arrowhead
n 4283 3332 m 4193 3417 l 4312 3384 l  col0 s
% arrowhead
n 7080 1846 m 7171 1762 l 7051 1794 l  col0 s
% Polyline
n 5417 2616 m 5570 2616 l 5570 2760 l 5417 2760 l
 cp gs col7 1.00 shd ef gr gs col7 s gr 
% Polyline
n 6274 2208 m 6114 2208 l 6114 2387 l 6274 2387 l
 cp gs col7 1.00 shd ef gr gs col7 s gr 
% Polyline
n 5887 1997 m 5725 1997 l 5725 2176 l 5887 2176 l
 cp gs col7 1.00 shd ef gr gs col7 s gr 
% Polyline
n 4817 2338 m 4978 2338 l 4978 2500 l 4817 2500 l
 cp gs col7 1.00 shd ef gr gs col7 s gr 
% Polyline
n 3812 2776 m 3974 2776 l 3974 2938 l 3812 2938 l
 cp gs col7 1.00 shd ef gr gs col7 s gr 
% Polyline
n 3147 2987 m 3293 2987 l 3293 3140 l 3147 3140 l
 cp gs col7 1.00 shd ef gr gs col7 s gr 
/Times-Italic ff 180.00 scf sf
7431 1600 m
gs 1 -1 sc (M) col0 sh gr
/Times-Italic ff 180.00 scf sf
2722 1085 m
gs 1 -1 sc (K) col0 sh gr
/Times-Italic ff 180.00 scf sf
7410 1143 m
gs 1 -1 sc (K) col0 sh gr
/Times-Italic ff 150.00 scf sf
7546 1183 m
gs 1 -1 sc (T) col0 sh gr
/Times-Roman ff 195.00 scf sf
2301 1343 m
gs 1 -1 sc (ZDRAVNIKI) col0 sh gr
/Times-Roman ff 195.00 scf sf
6990 1397 m
gs 1 -1 sc (TERMINALI) col0 sh gr
/Times-Italic ff 180.00 scf sf
4586 1595 m
gs 1 -1 sc (M) col0 sh gr
/Times-Italic ff 180.00 scf sf
4500 1095 m
gs 1 -1 sc (K) col0 sh gr
/Times-Italic ff 150.00 scf sf
2839 1155 m
gs 1 -1 sc (Z) col0 sh gr
/Times-Italic ff 150.00 scf sf
4626 1167 m
gs 1 -1 sc (F) col0 sh gr
/Times-Italic ff 180.00 scf sf
2763 1598 m
gs 1 -1 sc (M) col0 sh gr
/Times-Roman ff 150.00 scf sf
3864 4676 m
gs 1 -1 sc (2) col0 sh gr
/Times-Roman ff 210.00 scf sf
3041 4147 m
gs 1 -1 sc (uporabnik 2) col0 sh gr
/Times-Italic ff 180.00 scf sf
3655 4611 m
gs 1 -1 sc (SN) col0 sh gr
/Times-Italic ff 150.00 scf sf
3349 4678 m
gs 1 -1 sc (U) col0 sh gr
/Times-Roman ff 150.00 scf sf
3461 4731 m
gs 1 -1 sc (2) col0 sh gr
/Times-Italic ff 180.00 scf sf
3227 4606 m
gs 1 -1 sc (K) col0 sh gr
/Times-Roman ff 150.00 scf sf
1858 4684 m
gs 1 -1 sc (1) col0 sh gr
/Times-Roman ff 210.00 scf sf
1035 4155 m
gs 1 -1 sc (uporabnik 1) col0 sh gr
/Times-Italic ff 180.00 scf sf
1649 4619 m
gs 1 -1 sc (SN) col0 sh gr
/Times-Italic ff 150.00 scf sf
1343 4686 m
gs 1 -1 sc (U) col0 sh gr
/Times-Roman ff 150.00 scf sf
1455 4739 m
gs 1 -1 sc (1) col0 sh gr
/Times-Italic ff 180.00 scf sf
1221 4614 m
gs 1 -1 sc (K) col0 sh gr
/Times-Roman ff 360.00 scf sf
1630 3743 m
gs 1 -1 sc (...) col0 sh gr
/Times-Roman ff 360.00 scf sf
3636 3752 m
gs 1 -1 sc (...) col0 sh gr
/Times-Roman ff 195.00 scf sf
4185 1380 m
gs 1 -1 sc (LEKARNE) col0 sh gr
% here ends figure;
% 
% here starts figure with depth 45
% Polyline
7.500 slw
gs  clippath
5263 1670 m 5229 1720 l 5356 1804 l 5273 1713 l 5389 1754 l cp
7796 3425 m 7830 3375 l 7703 3291 l 7787 3383 l 7670 3341 l cp
eoclip
n 7801 3392 m
 5259 1704 l gs col0 s gr gr

% arrowhead
n 7670 3341 m 7787 3383 l 7703 3291 l  col0 s
% arrowhead
n 5389 1754 m 5273 1713 l 5356 1804 l  col0 s
% here ends figure;
% 
% here starts figure with depth 30
% Polyline
7.500 slw
gs  clippath
2813 1730 m 2756 1748 l 2803 1893 l 2795 1770 l 2860 1874 l cp
3253 3285 m 3310 3267 l 3263 3122 l 3272 3246 l 3206 3141 l cp
eoclip
n 3277 3262 m
 2790 1754 l gs col0 s gr gr

% arrowhead
n 3206 3141 m 3272 3246 l 3263 3122 l  col0 s
% arrowhead
n 2860 1874 m 2795 1770 l 2803 1893 l  col0 s
% Polyline
gs  clippath
4396 1736 m 4341 1712 l 4279 1850 l 4356 1753 l 4334 1874 l cp
3669 3228 m 3724 3252 l 3786 3114 l 3710 3212 l 3731 3090 l cp
eoclip
n 3703 3227 m
 4363 1738 l gs col0 s gr gr

% arrowhead
n 3731 3090 m 3710 3212 l 3786 3114 l  col0 s
% arrowhead
n 4334 1874 m 4356 1753 l 4279 1850 l  col0 s
% here ends figure;
% 
% here starts figure with depth 20
% Polyline
7.500 slw
n 3773 1902 m 3925 1902 l 3925 2062 l 3773 2062 l
 cp gs col7 1.00 shd ef gr gs col7 s gr 
% Polyline
n 4114 2048 m 4266 2048 l 4266 2208 l 4114 2208 l
 cp gs col7 1.00 shd ef gr gs col7 s gr 
% here ends figure;
% 
% here starts figure with depth 10
% Polyline
7.500 slw
gs  clippath
3204 1654 m 3180 1709 l 3319 1770 l 3221 1695 l 3343 1715 l cp
7672 3652 m 7696 3597 l 7557 3536 l 7656 3612 l 7533 3591 l cp
eoclip
n 7671 3619 m
 3206 1688 l gs col0 s gr gr

% arrowhead
n 7533 3591 m 7656 3612 l 7557 3536 l  col0 s
% arrowhead
n 3343 1715 m 3221 1695 l 3319 1770 l  col0 s
% here ends figure;
$F2psEnd
rs
showpage
