%!PS-Adobe-2.0 EPSF-2.0
%%Title: simetricen.eps
%%Creator: fig2dev Version 3.2 Patchlevel 3d
%%CreationDate: Wed Jan 16 04:18:45 2002
%%For: ajurisic@f9pcd8.ijs.si (Aleksandar Jurisic)
%%BoundingBox: 0 0 558 243
%%Magnification: 1.0000
%%EndComments
/$F2psDict 200 dict def
$F2psDict begin
$F2psDict /mtrx matrix put
/col-1 {0 setgray} bind def
/col0 {0.000 0.000 0.000 srgb} bind def
/col1 {0.000 0.000 1.000 srgb} bind def
/col2 {0.000 1.000 0.000 srgb} bind def
/col3 {0.000 1.000 1.000 srgb} bind def
/col4 {1.000 0.000 0.000 srgb} bind def
/col5 {1.000 0.000 1.000 srgb} bind def
/col6 {1.000 1.000 0.000 srgb} bind def
/col7 {1.000 1.000 1.000 srgb} bind def
/col8 {0.000 0.000 0.560 srgb} bind def
/col9 {0.000 0.000 0.690 srgb} bind def
/col10 {0.000 0.000 0.820 srgb} bind def
/col11 {0.530 0.810 1.000 srgb} bind def
/col12 {0.000 0.560 0.000 srgb} bind def
/col13 {0.000 0.690 0.000 srgb} bind def
/col14 {0.000 0.820 0.000 srgb} bind def
/col15 {0.000 0.560 0.560 srgb} bind def
/col16 {0.000 0.690 0.690 srgb} bind def
/col17 {0.000 0.820 0.820 srgb} bind def
/col18 {0.560 0.000 0.000 srgb} bind def
/col19 {0.690 0.000 0.000 srgb} bind def
/col20 {0.820 0.000 0.000 srgb} bind def
/col21 {0.560 0.000 0.560 srgb} bind def
/col22 {0.690 0.000 0.690 srgb} bind def
/col23 {0.820 0.000 0.820 srgb} bind def
/col24 {0.500 0.190 0.000 srgb} bind def
/col25 {0.630 0.250 0.000 srgb} bind def
/col26 {0.750 0.380 0.000 srgb} bind def
/col27 {1.000 0.500 0.500 srgb} bind def
/col28 {1.000 0.630 0.630 srgb} bind def
/col29 {1.000 0.750 0.750 srgb} bind def
/col30 {1.000 0.880 0.880 srgb} bind def
/col31 {1.000 0.840 0.000 srgb} bind def

end
save
newpath 0 243 moveto 0 0 lineto 558 0 lineto 558 243 lineto closepath clip newpath
-44.2 296.3 translate
1 -1 scale

/cp {closepath} bind def
/ef {eofill} bind def
/gr {grestore} bind def
/gs {gsave} bind def
/sa {save} bind def
/rs {restore} bind def
/l {lineto} bind def
/m {moveto} bind def
/rm {rmoveto} bind def
/n {newpath} bind def
/s {stroke} bind def
/sh {show} bind def
/slc {setlinecap} bind def
/slj {setlinejoin} bind def
/slw {setlinewidth} bind def
/srgb {setrgbcolor} bind def
/rot {rotate} bind def
/sc {scale} bind def
/sd {setdash} bind def
/ff {findfont} bind def
/sf {setfont} bind def
/scf {scalefont} bind def
/sw {stringwidth} bind def
/tr {translate} bind def
/tnt {dup dup currentrgbcolor
  4 -2 roll dup 1 exch sub 3 -1 roll mul add
  4 -2 roll dup 1 exch sub 3 -1 roll mul add
  4 -2 roll dup 1 exch sub 3 -1 roll mul add srgb}
  bind def
/shd {dup dup currentrgbcolor 4 -2 roll mul 4 -2 roll mul
  4 -2 roll mul srgb} bind def
 /DrawEllipse {
	/endangle exch def
	/startangle exch def
	/yrad exch def
	/xrad exch def
	/y exch def
	/x exch def
	/savematrix mtrx currentmatrix def
	x y tr xrad yrad sc 0 0 1 startangle endangle arc
	closepath
	savematrix setmatrix
	} def

/$F2psBegin {$F2psDict begin /$F2psEnteredState save def} def
/$F2psEnd {$F2psEnteredState restore end} def

$F2psBegin
10 setmiterlimit
 0.06000 0.06000 sc
%
% Fig objects follow
%
7.500 slw
% Ellipse
n 7492 1288 825 375 0 360 DrawEllipse gs col11 1.00 shd ef gr gs col0 s gr

% Ellipse
n 5644 1305 825 375 0 360 DrawEllipse gs col11 1.00 shd ef gr gs col0 s gr

% Ellipse
n 2850 1275 825 375 0 360 DrawEllipse gs col11 1.00 shd ef gr gs col0 s gr

% Ellipse
n 9207 4120 811 811 0 360 DrawEllipse gs col31 1.00 shd ef gr gs col0 s gr

% Ellipse
n 1555 4090 811 811 0 360 DrawEllipse gs col31 1.00 shd ef gr gs col0 s gr

% Ellipse
n 3918 1293 30 30 0 360 DrawEllipse gs 0.00 setgray ef gr gs col0 s gr

% Ellipse
n 4263 1293 30 30 0 360 DrawEllipse gs 0.00 setgray ef gr gs col0 s gr

% Ellipse
n 4593 1293 30 30 0 360 DrawEllipse gs 0.00 setgray ef gr gs col0 s gr

% Ellipse
n 4946 4151 30 30 0 360 DrawEllipse gs 0.00 setgray ef gr gs col0 s gr

% Ellipse
n 5291 4151 30 30 0 360 DrawEllipse gs 0.00 setgray ef gr gs col0 s gr

% Ellipse
n 5621 4151 30 30 0 360 DrawEllipse gs 0.00 setgray ef gr gs col0 s gr

% Polyline
gs  clippath
2686 1745 m 2633 1716 l 2560 1849 l 2645 1759 l 2613 1878 l cp
1792 3249 m 1845 3278 l 1918 3145 l 1834 3236 l 1865 3116 l cp
eoclip
n 1826 3251 m
 2653 1744 l gs col0 s gr gr

% arrowhead
n 1865 3116 m 1834 3236 l 1918 3145 l  col0 s
% arrowhead
n 2613 1878 m 2645 1759 l 2560 1849 l  col0 s
% Polyline
gs  clippath
5526 1756 m 5500 1702 l 5363 1768 l 5485 1743 l 5390 1822 l cp
2099 3350 m 2125 3404 l 2262 3338 l 2141 3364 l 2235 3284 l cp
eoclip
n 2126 3371 m
 5500 1736 l gs col0 s gr gr

% arrowhead
n 2235 3284 m 2141 3364 l 2262 3338 l  col0 s
% arrowhead
n 5390 1822 m 5485 1743 l 5363 1768 l  col0 s
% Polyline
gs  clippath
7138 1741 m 7115 1686 l 6975 1744 l 7098 1726 l 6998 1800 l cp
2370 3679 m 2393 3734 l 2533 3676 l 2411 3695 l 2510 3620 l cp
eoclip
n 2396 3701 m
 7113 1720 l gs col0 s gr gr

% arrowhead
n 2510 3620 m 2411 3695 l 2533 3676 l  col0 s
% arrowhead
n 6998 1800 m 7098 1726 l 6975 1744 l  col0 s
% Polyline
gs  clippath
7459 1711 m 7418 1755 l 7529 1858 l 7462 1755 l 7570 1815 l cp
8986 3223 m 9027 3179 l 8916 3076 l 8984 3180 l 8875 3119 l cp
eoclip
n 8996 3191 m
 7450 1744 l gs col0 s gr gr

% arrowhead
n 8875 3119 m 8984 3180 l 8916 3076 l  col0 s
% arrowhead
n 7570 1815 m 7462 1755 l 7529 1858 l  col0 s
% Polyline
n 5243 2385 m 5396 2385 l 5396 2561 l 5243 2561 l
 cp gs col7 1.00 shd ef gr gs col7 s gr 
% Polyline
n 4496 2141 m 4648 2141 l 4648 2301 l 4496 2301 l
 cp gs col7 1.00 shd ef gr gs col7 s gr 
% Polyline
n 6446 1931 m 6270 1931 l 6270 2148 l 6446 2148 l
 cp gs col7 1.00 shd ef gr gs col7 s gr 
/Times-Roman ff 180.00 scf sf
2803 1598 m
gs 1 -1 sc (M) col0 sh gr
/Times-Roman ff 180.00 scf sf
7431 1600 m
gs 1 -1 sc (M) col0 sh gr
/Times-Roman ff 180.00 scf sf
2722 1085 m
gs 1 -1 sc (K) col0 sh gr
/Times-Italic ff 150.00 scf sf
2859 1125 m
gs 1 -1 sc (P) col0 sh gr
/Times-Roman ff 180.00 scf sf
7410 1143 m
gs 1 -1 sc (K) col0 sh gr
/Times-Italic ff 150.00 scf sf
7546 1183 m
gs 1 -1 sc (D) col0 sh gr
/Times-Roman ff 180.00 scf sf
5565 1617 m
gs 1 -1 sc (M) col0 sh gr
/Times-Roman ff 180.00 scf sf
1053 3725 m
gs 1 -1 sc (K) col0 sh gr
/Times-Italic ff 150.00 scf sf
1190 3765 m
gs 1 -1 sc (P) col0 sh gr
/Times-Roman ff 180.00 scf sf
1422 3717 m
gs 1 -1 sc (K) col0 sh gr
/Times-Italic ff 150.00 scf sf
1558 3749 m
gs 1 -1 sc (S) col0 sh gr
/Times-Roman ff 180.00 scf sf
1791 3717 m
gs 1 -1 sc (K) col0 sh gr
/Times-Italic ff 150.00 scf sf
1927 3757 m
gs 1 -1 sc (D) col0 sh gr
/Times-Roman ff 180.00 scf sf
1191 4654 m
gs 1 -1 sc (K) col0 sh gr
/Times-Italic ff 150.00 scf sf
1343 4696 m
gs 1 -1 sc (U) col0 sh gr
/Times-Roman ff 180.00 scf sf
1619 4639 m
gs 1 -1 sc (SN) col0 sh gr
/Times-Roman ff 150.00 scf sf
1858 4684 m
gs 1 -1 sc (1) col0 sh gr
/Times-Roman ff 150.00 scf sf
1475 4729 m
gs 1 -1 sc (1) col0 sh gr
/Times-Roman ff 180.00 scf sf
8705 3755 m
gs 1 -1 sc (K) col0 sh gr
/Times-Italic ff 150.00 scf sf
8842 3795 m
gs 1 -1 sc (P) col0 sh gr
/Times-Roman ff 180.00 scf sf
9074 3747 m
gs 1 -1 sc (K) col0 sh gr
/Times-Italic ff 150.00 scf sf
9210 3779 m
gs 1 -1 sc (S) col0 sh gr
/Times-Roman ff 180.00 scf sf
9443 3747 m
gs 1 -1 sc (K) col0 sh gr
/Times-Italic ff 150.00 scf sf
9579 3787 m
gs 1 -1 sc (D) col0 sh gr
/Times-Roman ff 180.00 scf sf
8793 4625 m
gs 1 -1 sc (K) col0 sh gr
/Times-Roman ff 180.00 scf sf
9331 4627 m
gs 1 -1 sc (SN) col0 sh gr
/Times-Italic ff 150.00 scf sf
8947 4651 m
gs 1 -1 sc (U) col0 sh gr
/Times-Italic ff 150.00 scf sf
9058 4678 m
gs 1 -1 sc (n) col0 sh gr
/Times-Italic ff 150.00 scf sf
9583 4655 m
gs 1 -1 sc (n) col0 sh gr
/Times-Roman ff 210.00 scf sf
1035 4155 m
gs 1 -1 sc (uporabnik 1) col0 sh gr
/Times-Italic ff 210.00 scf sf
9662 4179 m
gs 1 -1 sc (n) col0 sh gr
/Times-Roman ff 210.00 scf sf
8670 4181 m
gs 1 -1 sc (uporabnik) col0 sh gr
/Times-Roman ff 240.00 scf sf
2289 1365 m
gs 1 -1 sc (PRODAJA) col0 sh gr
/Times-Roman ff 240.00 scf sf
6908 1430 m
gs 1 -1 sc (DOSTAVA) col0 sh gr
/Times-Roman ff 180.00 scf sf
5479 1117 m
gs 1 -1 sc (K) col0 sh gr
/Times-Roman ff 240.00 scf sf
4965 1410 m
gs 1 -1 sc (SKLADISCE) col0 sh gr
/Times-Roman ff 90.00 scf sf
5991 1217 m
gs 1 -1 sc (v) col0 sh gr
/Times-Roman ff 90.00 scf sf
5836 1212 m
gs 1 -1 sc (v) col0 sh gr
/Times-Italic ff 150.00 scf sf
5604 1176 m
gs 1 -1 sc (S) col0 sh gr
% Polyline
gs  clippath
3202 1654 m 3181 1710 l 3321 1765 l 3221 1694 l 3343 1709 l cp
8369 3734 m 8390 3678 l 8250 3623 l 8351 3695 l 8228 3679 l cp
eoclip
n 8366 3701 m
 3206 1688 l gs col0 s gr gr

% arrowhead
n 8228 3679 m 8351 3695 l 8250 3623 l  col0 s
% arrowhead
n 3343 1709 m 3221 1694 l 3321 1765 l  col0 s
% Polyline
gs  clippath
5888 1694 m 5856 1744 l 5983 1827 l 5899 1737 l 6015 1777 l cp
8542 3494 m 8574 3444 l 8447 3361 l 8532 3452 l 8415 3411 l cp
eoclip
n 8546 3461 m
 5885 1728 l gs col0 s gr gr

% arrowhead
n 8415 3411 m 8532 3452 l 8447 3361 l  col0 s
% arrowhead
n 6015 1777 m 5899 1737 l 5983 1827 l  col0 s
$F2psEnd
rs
