#FIG 3.2
Landscape
Center
Inches
Letter  
100.00
Single
-2
1200 2
6 1190 201 16040 4626
2 5 0 1 0 -1 50 0 -1 0.000 0 0 -1 0 0 5
	0 GN-CD-LandAndPits-A.ps
	 1263 202 7194 202 7194 4552 1263 4552 1263 202
2 5 0 1 0 -1 50 0 -1 0.000 0 0 -1 0 0 5
	0 GN-CD-LandAndPits-B.ps
	 10068 223 15999 223 15999 4573 10068 4573 10068 223
-6
2 1 0 3 0 0 1 0 -1 0.000 0 0 -1 0 0 18
	 1103 5127 1610 5127 1610 5434 2643 5434 2643 5127 3743 5127
	 3743 5434 6104 5434 6104 5127 7918 5127 7918 5434 9493 5434
	 9493 5127 10965 5127 10965 5434 15590 5434 15590 5127 16118 5127
2 2 0 1 7 7 5 0 20 0.000 0 0 -1 0 0 5
	 1174 4215 16160 4215 16160 4693 1174 4693 1174 4215
2 2 0 1 0 7 2 0 20 0.000 0 0 -1 0 0 5
	 1104 4500 16118 4500 16118 5660 1104 5660 1104 4500
4 0 0 50 0 0 30 0.0000 4 345 240 3000 6150 0\001
4 0 0 50 0 0 30 0.0000 4 345 240 4125 6150 0\001
4 0 0 50 0 0 30 0.0000 4 345 240 4500 6150 0\001
4 0 0 50 0 0 30 0.0000 4 345 240 5250 6150 0\001
4 0 0 50 0 0 30 0.0000 4 345 240 5625 6150 0\001
4 0 0 50 0 0 30 0.0000 4 345 240 6375 6150 0\001
4 0 0 50 0 0 30 0.0000 4 345 240 6750 6150 0\001
4 0 0 50 0 0 30 0.0000 4 345 240 7500 6150 0\001
4 0 0 50 0 0 30 0.0000 4 345 240 8250 6150 0\001
4 0 0 50 0 0 30 0.0000 4 345 240 8625 6150 0\001
4 0 0 50 0 0 30 0.0000 4 345 240 9750 6150 0\001
4 0 0 50 0 0 30 0.0000 4 345 240 10125 6150 0\001
4 0 0 50 0 0 30 0.0000 4 345 240 10500 6150 0\001
4 0 0 50 0 0 30 0.0000 4 345 240 11250 6150 0\001
4 0 0 50 0 0 30 0.0000 4 345 240 2250 6150 0\001
4 0 0 50 0 0 30 0.0000 4 345 240 1875 6150 0\001
4 0 0 50 0 0 30 0.0000 4 345 240 1500 6150 1\001
4 0 0 50 0 0 30 0.0000 4 345 240 1125 6150 0\001
4 0 0 50 0 0 30 0.0000 4 345 240 12900 6150 0\001
4 0 0 50 0 0 30 0.0000 4 345 240 13800 6150 0\001
4 0 0 50 0 0 30 0.0000 4 345 240 3375 6157 0\001
4 0 0 50 0 0 30 0.0000 4 345 240 3757 6150 1\001
4 0 0 50 0 0 30 0.0000 4 345 240 4882 6157 0\001
4 0 0 50 0 0 30 0.0000 4 345 240 7110 6157 0\001
4 0 0 50 0 0 30 0.0000 4 345 240 8991 6158 0\001
4 0 0 50 0 0 30 0.0000 4 345 240 10855 6130 1\001
4 0 0 50 0 0 30 0.0000 4 345 240 13348 6149 0\001
4 0 0 50 0 0 30 0.0000 4 345 240 14222 6149 0\001
4 0 0 50 0 0 30 0.0000 4 345 240 14653 6136 0\001
4 0 0 50 0 0 30 0.0000 4 345 240 15111 6150 0\001
4 0 0 50 0 0 30 0.0000 4 345 240 15523 6130 1\001
4 0 0 50 0 0 30 0.0000 4 345 240 15944 6136 0\001
4 0 0 50 0 0 30 0.0000 4 345 240 2631 6130 1\001
4 0 0 50 0 0 30 0.0000 4 345 240 6022 6136 1\001
4 0 0 50 0 0 30 0.0000 4 345 240 7882 6136 1\001
4 0 0 50 0 0 30 0.0000 4 345 240 9383 6130 1\001
4 0 0 50 0 0 30 0.0000 4 345 240 11665 6149 0\001
4 0 0 50 0 0 30 0.0000 4 345 240 12056 6150 0\001
4 0 0 50 0 0 30 0.0000 4 345 240 12464 6150 0\001
