%!PS-Adobe-2.0 EPSF-2.0
%%Title: hrib_dol.eps
%%Creator: fig2dev Version 3.2 Patchlevel 3d
%%CreationDate: Fri Apr 11 06:21:00 2003
%%For: ajurisic@f9pcd8.ijs.si (Aleksandar Jurisic)
%%BoundingBox: 0 0 1093 100
%%Magnification: 1.0000
%%EndComments
/$F2psDict 200 dict def
$F2psDict begin
$F2psDict /mtrx matrix put
/col-1 {0 setgray} bind def
/col0 {0.000 0.000 0.000 srgb} bind def
/col1 {0.000 0.000 1.000 srgb} bind def
/col2 {0.000 1.000 0.000 srgb} bind def
/col3 {0.000 1.000 1.000 srgb} bind def
/col4 {1.000 0.000 0.000 srgb} bind def
/col5 {1.000 0.000 1.000 srgb} bind def
/col6 {1.000 1.000 0.000 srgb} bind def
/col7 {1.000 1.000 1.000 srgb} bind def
/col8 {0.000 0.000 0.560 srgb} bind def
/col9 {0.000 0.000 0.690 srgb} bind def
/col10 {0.000 0.000 0.820 srgb} bind def
/col11 {0.530 0.810 1.000 srgb} bind def
/col12 {0.000 0.560 0.000 srgb} bind def
/col13 {0.000 0.690 0.000 srgb} bind def
/col14 {0.000 0.820 0.000 srgb} bind def
/col15 {0.000 0.560 0.560 srgb} bind def
/col16 {0.000 0.690 0.690 srgb} bind def
/col17 {0.000 0.820 0.820 srgb} bind def
/col18 {0.560 0.000 0.000 srgb} bind def
/col19 {0.690 0.000 0.000 srgb} bind def
/col20 {0.820 0.000 0.000 srgb} bind def
/col21 {0.560 0.000 0.560 srgb} bind def
/col22 {0.690 0.000 0.690 srgb} bind def
/col23 {0.820 0.000 0.820 srgb} bind def
/col24 {0.500 0.190 0.000 srgb} bind def
/col25 {0.630 0.250 0.000 srgb} bind def
/col26 {0.750 0.380 0.000 srgb} bind def
/col27 {1.000 0.500 0.500 srgb} bind def
/col28 {1.000 0.630 0.630 srgb} bind def
/col29 {1.000 0.750 0.750 srgb} bind def
/col30 {1.000 0.880 0.880 srgb} bind def
/col31 {1.000 0.840 0.000 srgb} bind def

end
save
newpath 0 100 moveto 0 0 lineto 1093 0 lineto 1093 100 lineto closepath clip newpath
42.5 369.0 translate
1 -1 scale

/cp {closepath} bind def
/ef {eofill} bind def
/gr {grestore} bind def
/gs {gsave} bind def
/sa {save} bind def
/rs {restore} bind def
/l {lineto} bind def
/m {moveto} bind def
/rm {rmoveto} bind def
/n {newpath} bind def
/s {stroke} bind def
/sh {show} bind def
/slc {setlinecap} bind def
/slj {setlinejoin} bind def
/slw {setlinewidth} bind def
/srgb {setrgbcolor} bind def
/rot {rotate} bind def
/sc {scale} bind def
/sd {setdash} bind def
/ff {findfont} bind def
/sf {setfont} bind def
/scf {scalefont} bind def
/sw {stringwidth} bind def
/tr {translate} bind def
/tnt {dup dup currentrgbcolor
  4 -2 roll dup 1 exch sub 3 -1 roll mul add
  4 -2 roll dup 1 exch sub 3 -1 roll mul add
  4 -2 roll dup 1 exch sub 3 -1 roll mul add srgb}
  bind def
/shd {dup dup currentrgbcolor 4 -2 roll mul 4 -2 roll mul
  4 -2 roll mul srgb} bind def
/$F2psBegin {$F2psDict begin /$F2psEnteredState save def} def
/$F2psEnd {$F2psEnteredState restore end} def

$F2psBegin
10 setmiterlimit
 0.06000 0.06000 sc
%
% Fig objects follow
%
% Polyline
7.500 slw
n -675 4500 m 17475 4500 l 17475 5550 l -675 5550 l
 cp gs col7 1.00 shd ef gr gs col0 s gr 
/Times-Roman ff 450.00 scf sf
2625 6150 m
gs 1 -1 sc (0) col0 sh gr
/Times-Roman ff 450.00 scf sf
3000 6150 m
gs 1 -1 sc (0) col0 sh gr
/Times-Roman ff 450.00 scf sf
3750 6150 m
gs 1 -1 sc (0) col0 sh gr
/Times-Roman ff 450.00 scf sf
4125 6150 m
gs 1 -1 sc (0) col0 sh gr
/Times-Roman ff 450.00 scf sf
4500 6150 m
gs 1 -1 sc (0) col0 sh gr
/Times-Roman ff 450.00 scf sf
3375 6150 m
gs 1 -1 sc (1) col0 sh gr
/Times-Roman ff 450.00 scf sf
4875 6150 m
gs 1 -1 sc (1) col0 sh gr
/Times-Roman ff 450.00 scf sf
5250 6150 m
gs 1 -1 sc (0) col0 sh gr
/Times-Roman ff 450.00 scf sf
5625 6150 m
gs 1 -1 sc (0) col0 sh gr
/Times-Roman ff 450.00 scf sf
6000 6150 m
gs 1 -1 sc (0) col0 sh gr
/Times-Roman ff 450.00 scf sf
6375 6150 m
gs 1 -1 sc (0) col0 sh gr
/Times-Roman ff 450.00 scf sf
6750 6150 m
gs 1 -1 sc (0) col0 sh gr
/Times-Roman ff 450.00 scf sf
7125 6150 m
gs 1 -1 sc (1) col0 sh gr
/Times-Roman ff 450.00 scf sf
7500 6150 m
gs 1 -1 sc (0) col0 sh gr
/Times-Roman ff 450.00 scf sf
7875 6150 m
gs 1 -1 sc (0) col0 sh gr
/Times-Roman ff 450.00 scf sf
8250 6150 m
gs 1 -1 sc (0) col0 sh gr
/Times-Roman ff 450.00 scf sf
8625 6150 m
gs 1 -1 sc (0) col0 sh gr
/Times-Roman ff 450.00 scf sf
9000 6150 m
gs 1 -1 sc (1) col0 sh gr
/Times-Roman ff 450.00 scf sf
9375 6150 m
gs 1 -1 sc (0) col0 sh gr
/Times-Roman ff 450.00 scf sf
9750 6150 m
gs 1 -1 sc (0) col0 sh gr
/Times-Roman ff 450.00 scf sf
10125 6150 m
gs 1 -1 sc (0) col0 sh gr
/Times-Roman ff 450.00 scf sf
10500 6150 m
gs 1 -1 sc (0) col0 sh gr
/Times-Roman ff 450.00 scf sf
10875 6150 m
gs 1 -1 sc (0) col0 sh gr
/Times-Roman ff 450.00 scf sf
11250 6150 m
gs 1 -1 sc (0) col0 sh gr
/Times-Roman ff 450.00 scf sf
2250 6150 m
gs 1 -1 sc (0) col0 sh gr
/Times-Roman ff 450.00 scf sf
1875 6150 m
gs 1 -1 sc (0) col0 sh gr
/Times-Roman ff 450.00 scf sf
1500 6150 m
gs 1 -1 sc (1) col0 sh gr
/Times-Roman ff 450.00 scf sf
11625 6150 m
gs 1 -1 sc (1) col0 sh gr
/Times-Roman ff 450.00 scf sf
1125 6150 m
gs 1 -1 sc (0) col0 sh gr
/Times-Roman ff 450.00 scf sf
675 6150 m
gs 1 -1 sc (0) col0 sh gr
/Times-Roman ff 450.00 scf sf
225 6150 m
gs 1 -1 sc (0) col0 sh gr
/Times-Roman ff 450.00 scf sf
-225 6150 m
gs 1 -1 sc (0) col0 sh gr
/Times-Roman ff 450.00 scf sf
-675 6150 m
gs 1 -1 sc (0) col0 sh gr
/Times-Roman ff 450.00 scf sf
12000 6150 m
gs 1 -1 sc (0) col0 sh gr
/Times-Roman ff 450.00 scf sf
12450 6150 m
gs 1 -1 sc (0) col0 sh gr
/Times-Roman ff 450.00 scf sf
12900 6150 m
gs 1 -1 sc (0) col0 sh gr
/Times-Roman ff 450.00 scf sf
13350 6150 m
gs 1 -1 sc (0) col0 sh gr
/Times-Roman ff 450.00 scf sf
13800 6150 m
gs 1 -1 sc (0) col0 sh gr
/Times-Roman ff 450.00 scf sf
14250 6150 m
gs 1 -1 sc (0) col0 sh gr
/Times-Roman ff 450.00 scf sf
14625 6150 m
gs 1 -1 sc (1) col0 sh gr
/Times-Roman ff 450.00 scf sf
15075 6150 m
gs 1 -1 sc (0) col0 sh gr
/Times-Roman ff 450.00 scf sf
15525 6150 m
gs 1 -1 sc (0) col0 sh gr
/Times-Roman ff 450.00 scf sf
15975 6150 m
gs 1 -1 sc (0) col0 sh gr
/Times-Roman ff 450.00 scf sf
16350 6150 m
gs 1 -1 sc (0) col0 sh gr
/Times-Roman ff 450.00 scf sf
16800 6150 m
gs 1 -1 sc (0) col0 sh gr
/Times-Roman ff 450.00 scf sf
17250 6150 m
gs 1 -1 sc (0) col0 sh gr
% Polyline
30.000 slw
n -675 5400 m 1650 5400 l 1650 5100 l 3510 5100 l 3510 5400 l 5010 5400 l
 5010 5100 l 7260 5100 l 7260 5400 l 9135 5400 l 9135 5100 l
 11775 5100 l 11775 5325 l 14775 5325 l 14775 5100 l
 17400 5100 l gs col0 s gr 
$F2psEnd
rs
