#FIG 3.2
Landscape
Center
Inches
Letter  
100.00
Single
-2
1200 2
2 2 0 1 0 7 50 0 20 0.000 0 0 -1 0 0 5
	 -675 4500 17475 4500 17475 5550 -675 5550 -675 4500
2 1 0 3 0 7 30 0 -1 0.000 0 0 -1 0 0 16
	 -675 5400 1650 5400 1650 5100 3510 5100 3510 5400 5010 5400
	 5010 5100 7260 5100 7260 5400 9135 5400 9135 5100 11775 5100
	 11775 5325 14775 5325 14775 5100 17400 5100
4 0 0 50 0 0 30 0.0000 4 345 240 2625 6150 0\001
4 0 0 50 0 0 30 0.0000 4 345 240 3000 6150 0\001
4 0 0 50 0 0 30 0.0000 4 345 240 3750 6150 0\001
4 0 0 50 0 0 30 0.0000 4 345 240 4125 6150 0\001
4 0 0 50 0 0 30 0.0000 4 345 240 4500 6150 0\001
4 0 0 50 0 0 30 0.0000 4 345 240 3375 6150 1\001
4 0 0 50 0 0 30 0.0000 4 345 240 4875 6150 1\001
4 0 0 50 0 0 30 0.0000 4 345 240 5250 6150 0\001
4 0 0 50 0 0 30 0.0000 4 345 240 5625 6150 0\001
4 0 0 50 0 0 30 0.0000 4 345 240 6000 6150 0\001
4 0 0 50 0 0 30 0.0000 4 345 240 6375 6150 0\001
4 0 0 50 0 0 30 0.0000 4 345 240 6750 6150 0\001
4 0 0 50 0 0 30 0.0000 4 345 240 7125 6150 1\001
4 0 0 50 0 0 30 0.0000 4 345 240 7500 6150 0\001
4 0 0 50 0 0 30 0.0000 4 345 240 7875 6150 0\001
4 0 0 50 0 0 30 0.0000 4 345 240 8250 6150 0\001
4 0 0 50 0 0 30 0.0000 4 345 240 8625 6150 0\001
4 0 0 50 0 0 30 0.0000 4 345 240 9000 6150 1\001
4 0 0 50 0 0 30 0.0000 4 345 240 9375 6150 0\001
4 0 0 50 0 0 30 0.0000 4 345 240 9750 6150 0\001
4 0 0 50 0 0 30 0.0000 4 345 240 10125 6150 0\001
4 0 0 50 0 0 30 0.0000 4 345 240 10500 6150 0\001
4 0 0 50 0 0 30 0.0000 4 345 240 10875 6150 0\001
4 0 0 50 0 0 30 0.0000 4 345 240 11250 6150 0\001
4 0 0 50 0 0 30 0.0000 4 345 240 2250 6150 0\001
4 0 0 50 0 0 30 0.0000 4 345 240 1875 6150 0\001
4 0 0 50 0 0 30 0.0000 4 345 240 1500 6150 1\001
4 0 0 50 0 0 30 0.0000 4 345 240 11625 6150 1\001
4 0 0 50 0 0 30 0.0000 4 345 240 1125 6150 0\001
4 0 0 50 0 0 30 0.0000 4 345 240 675 6150 0\001
4 0 0 50 0 0 30 0.0000 4 345 240 225 6150 0\001
4 0 0 50 0 0 30 0.0000 4 345 240 -225 6150 0\001
4 0 0 50 0 0 30 0.0000 4 345 240 -675 6150 0\001
4 0 0 50 0 0 30 0.0000 4 345 240 12000 6150 0\001
4 0 0 50 0 0 30 0.0000 4 345 240 12450 6150 0\001
4 0 0 50 0 0 30 0.0000 4 345 240 12900 6150 0\001
4 0 0 50 0 0 30 0.0000 4 345 240 13350 6150 0\001
4 0 0 50 0 0 30 0.0000 4 345 240 13800 6150 0\001
4 0 0 50 0 0 30 0.0000 4 345 240 14250 6150 0\001
4 0 0 50 0 0 30 0.0000 4 345 240 14625 6150 1\001
4 0 0 50 0 0 30 0.0000 4 345 240 15075 6150 0\001
4 0 0 50 0 0 30 0.0000 4 345 240 15525 6150 0\001
4 0 0 50 0 0 30 0.0000 4 345 240 15975 6150 0\001
4 0 0 50 0 0 30 0.0000 4 345 240 16350 6150 0\001
4 0 0 50 0 0 30 0.0000 4 345 240 16800 6150 0\001
4 0 0 50 0 0 30 0.0000 4 345 240 17250 6150 0\001
