#FIG 3.2
Landscape
Center
Inches
Letter  
100.00
Single
-2
1200 2
2 1 0 3 0 7 50 0 -1 0.000 0 0 -1 0 0 2
	 375 1650 900 1650
2 1 0 3 0 7 50 0 -1 0.000 0 0 -1 0 0 2
	 5100 1650 5700 1650
2 1 0 3 0 7 50 0 -1 0.000 0 0 -1 0 0 2
	 2700 1650 3300 1650
2 2 0 3 0 31 50 0 20 0.000 0 0 -1 0 0 5
	 900 900 2700 900 2700 2400 900 2400 900 900
2 2 0 3 0 3 50 0 20 0.000 0 0 -1 0 0 5
	 3315 885 5115 885 5115 2385 3315 2385 3315 885
2 2 0 3 0 5 50 0 20 0.000 0 0 -1 0 0 5
	 5715 885 7590 885 7590 2385 5715 2385 5715 885
2 1 0 3 0 7 40 0 -1 0.000 0 0 -1 0 0 11
	 7605 1665 8055 1665 8130 1515 8205 1740 8325 1485 8400 1770
	 8505 1515 8580 1740 8655 1515 8730 1740 8805 1515
2 1 0 3 0 7 40 0 -1 0.000 0 0 -1 0 0 11
	 11475 1650 11025 1650 10950 1500 10875 1725 10755 1470 10680 1755
	 10575 1500 10500 1725 10425 1500 10350 1725 10275 1500
2 5 0 1 0 -1 50 0 -1 0.000 0 0 -1 0 0 5
	0 CD.ps
	 8475 525 10650 525 10650 2700 8475 2700 8475 525
2 2 0 3 0 5 50 0 20 0.000 0 0 -1 0 0 5
	 11475 900 13350 900 13350 2400 11475 2400 11475 900
2 1 0 3 0 7 50 0 -1 0.000 0 0 -1 0 0 2
	 13350 1650 13950 1650
2 1 0 3 0 7 50 0 -1 0.000 0 0 -1 0 0 2
	 15750 1650 16350 1650
2 1 0 3 0 7 50 0 -1 0.000 0 0 -1 0 0 2
	 18150 1650 18675 1650
2 2 0 3 0 3 50 0 20 0.000 0 0 -1 0 0 5
	 13965 885 15765 885 15765 2385 13965 2385 13965 885
2 2 0 3 0 31 50 0 20 0.000 0 0 -1 0 0 5
	 16350 900 18150 900 18150 2400 16350 2400 16350 900
2 1 0 3 0 7 50 0 -1 0.000 0 0 -1 0 0 3
	 900 1350 1275 1350 1275 900
2 1 0 3 0 7 50 0 -1 0.000 0 0 -1 0 0 3
	 3300 1350 3675 1350 3675 900
2 1 0 3 0 7 50 0 -1 0.000 0 0 -1 0 0 3
	 5700 1350 6075 1350 6075 900
2 1 0 3 0 7 50 0 -1 0.000 0 0 -1 0 0 3
	 11475 1350 11850 1350 11850 900
2 1 0 3 0 7 50 0 -1 0.000 0 0 -1 0 0 3
	 13950 1350 14325 1350 14325 900
2 1 0 3 0 7 50 0 -1 0.000 0 0 -1 0 0 3
	 16350 1350 16725 1350 16725 900
4 0 0 50 0 1 24 0.0000 4 315 1020 9675 2700 motnje\001
4 0 0 50 0 1 24 0.0000 4 330 960 8475 825 praske\001
4 0 0 50 0 0 30 0.0000 4 450 1740 14040 1785 odpravo \001
4 0 0 50 0 0 30 0.0000 4 450 1185 14265 2235 napak\001
4 0 0 50 0 0 30 0.0000 4 450 1845 5775 2250 kodiranje\001
4 0 0 50 0 0 30 0.0000 4 345 1605 11700 2250 dekodir.\001
4 0 0 50 0 0 30 0.0000 4 345 1380 5925 1800 modul.\001
4 0 0 50 0 0 30 0.0000 4 345 1095 16725 2250 konv.\001
4 0 0 50 0 0 30 0.0000 4 450 1800 16425 1800 analogni \001
4 0 0 50 0 0 24 0.0000 4 255 180 14040 1230 2\001
4 0 0 50 0 0 24 0.0000 4 255 180 16455 1260 1\001
4 0 0 50 0 0 30 0.0000 4 345 1635 14400 1365 kode za \001
4 0 0 50 0 0 30 0.0000 4 345 1380 11805 1770 modul.\001
4 0 0 50 0 0 24 0.0000 4 255 180 11610 1245 3\001
4 0 0 50 0 0 24 0.0000 4 255 180 1020 1245 1\001
4 0 0 50 0 0 30 0.0000 4 450 1740 1050 1830 digitalni \001
4 0 0 50 0 0 30 0.0000 4 345 1095 1305 2295 konv.\001
4 0 0 50 0 0 30 0.0000 4 450 1185 3645 2250 napak\001
4 0 0 50 0 0 30 0.0000 4 450 1740 3390 1815 odpravo \001
4 0 0 50 0 0 30 0.0000 4 345 1635 3735 1380 kode za \001
4 0 0 50 0 0 24 0.0000 4 255 180 3405 1230 2\001
4 0 0 50 0 0 24 0.0000 4 255 180 5820 1245 3\001
