%!PS-Adobe-2.0 EPSF-2.0
%%Title: pres1.eps
%%Creator: fig2dev Version 3.2 Patchlevel 3d
%%CreationDate: Wed Oct 23 09:54:41 2002
%%For: ajurisic@f9pcd8.ijs.si (Aleksandar Jurisic)
%%BoundingBox: 0 0 1150 536
%%Magnification: 1.0000
%%EndComments
/$F2psDict 200 dict def
$F2psDict begin
$F2psDict /mtrx matrix put
/col-1 {0 setgray} bind def
/col0 {0.000 0.000 0.000 srgb} bind def
/col1 {0.000 0.000 1.000 srgb} bind def
/col2 {0.000 1.000 0.000 srgb} bind def
/col3 {0.000 1.000 1.000 srgb} bind def
/col4 {1.000 0.000 0.000 srgb} bind def
/col5 {1.000 0.000 1.000 srgb} bind def
/col6 {1.000 1.000 0.000 srgb} bind def
/col7 {1.000 1.000 1.000 srgb} bind def
/col8 {0.000 0.000 0.560 srgb} bind def
/col9 {0.000 0.000 0.690 srgb} bind def
/col10 {0.000 0.000 0.820 srgb} bind def
/col11 {0.530 0.810 1.000 srgb} bind def
/col12 {0.000 0.560 0.000 srgb} bind def
/col13 {0.000 0.690 0.000 srgb} bind def
/col14 {0.000 0.820 0.000 srgb} bind def
/col15 {0.000 0.560 0.560 srgb} bind def
/col16 {0.000 0.690 0.690 srgb} bind def
/col17 {0.000 0.820 0.820 srgb} bind def
/col18 {0.560 0.000 0.000 srgb} bind def
/col19 {0.690 0.000 0.000 srgb} bind def
/col20 {0.820 0.000 0.000 srgb} bind def
/col21 {0.560 0.000 0.560 srgb} bind def
/col22 {0.690 0.000 0.690 srgb} bind def
/col23 {0.820 0.000 0.820 srgb} bind def
/col24 {0.500 0.190 0.000 srgb} bind def
/col25 {0.630 0.250 0.000 srgb} bind def
/col26 {0.750 0.380 0.000 srgb} bind def
/col27 {1.000 0.500 0.500 srgb} bind def
/col28 {1.000 0.630 0.630 srgb} bind def
/col29 {1.000 0.750 0.750 srgb} bind def
/col30 {1.000 0.880 0.880 srgb} bind def
/col31 {1.000 0.840 0.000 srgb} bind def

end
save
newpath 0 536 moveto 0 0 lineto 1150 0 lineto 1150 536 lineto closepath clip newpath
12.5 566.5 translate
1 -1 scale

/cp {closepath} bind def
/ef {eofill} bind def
/gr {grestore} bind def
/gs {gsave} bind def
/sa {save} bind def
/rs {restore} bind def
/l {lineto} bind def
/m {moveto} bind def
/rm {rmoveto} bind def
/n {newpath} bind def
/s {stroke} bind def
/sh {show} bind def
/slc {setlinecap} bind def
/slj {setlinejoin} bind def
/slw {setlinewidth} bind def
/srgb {setrgbcolor} bind def
/rot {rotate} bind def
/sc {scale} bind def
/sd {setdash} bind def
/ff {findfont} bind def
/sf {setfont} bind def
/scf {scalefont} bind def
/sw {stringwidth} bind def
/tr {translate} bind def
/tnt {dup dup currentrgbcolor
  4 -2 roll dup 1 exch sub 3 -1 roll mul add
  4 -2 roll dup 1 exch sub 3 -1 roll mul add
  4 -2 roll dup 1 exch sub 3 -1 roll mul add srgb}
  bind def
/shd {dup dup currentrgbcolor 4 -2 roll mul 4 -2 roll mul
  4 -2 roll mul srgb} bind def
 /DrawEllipse {
	/endangle exch def
	/startangle exch def
	/yrad exch def
	/xrad exch def
	/y exch def
	/x exch def
	/savematrix mtrx currentmatrix def
	x y tr xrad yrad sc 0 0 1 startangle endangle arc
	closepath
	savematrix setmatrix
	} def

/$F2psBegin {$F2psDict begin /$F2psEnteredState save def} def
/$F2psEnd {$F2psEnteredState restore end} def

$F2psBegin
10 setmiterlimit
 0.06000 0.06000 sc
%
% Fig objects follow
%
7.500 slw
% Ellipse
n 5550 6315 2878 2878 0 360 DrawEllipse gs col4 1.00 shd ef gr gs col0 s gr

% Ellipse
n 2700 5865 2878 2878 0 360 DrawEllipse gs col6 1.00 shd ef gr gs col0 s gr

% Ellipse
n 4515 3630 2878 2878 0 360 DrawEllipse gs col1 1.00 shd ef gr gs col-1 s gr

% Ellipse
n 16050 6540 2878 2878 0 360 DrawEllipse gs col4 1.00 shd ef gr gs col0 s gr

% Ellipse
n 13200 6090 2878 2878 0 360 DrawEllipse gs col6 1.00 shd ef gr gs col0 s gr

% Ellipse
n 15015 3855 2878 2878 0 360 DrawEllipse gs col1 1.00 shd ef gr gs col-1 s gr

% Ellipse
n 10190 2696 1116 1116 0 360 DrawEllipse gs col0 s gr

% Polyline
n 2708 5862 m 2255 5409 l 2013 5016 l 1802 4624 l 1621 3818 l 1651 3184 l
 1923 3084 l 2295 3003 l 2768 3003 l 3091 3013 l 3453 3084 l
 3785 3214 l 4047 3315 l 4309 3486 l 4500 3627 l 3997 3879 l
 3584 4201 l 3302 4523 l 3060 4855 l 2748 5610 l
 2708 5842 l gs col2 1.00 shd ef gr gs col0 s gr 
% Polyline
n 5527 6305 m 5361 6924 l 5142 7330 l 4908 7709 l 4300 8268 l 3736 8559 l
 3514 8374 l 3258 8092 l 3021 7683 l 2868 7398 l 2749 7049 l
 2695 6696 l 2652 6419 l 2669 6106 l 2695 5871 l 3165 6180 l
 3651 6377 l 4070 6460 l 4479 6504 l 5289 6396 l
 5510 6315 l gs col27 1.00 shd ef gr gs col0 s gr 
% Polyline
n 4503 3640 m 5122 3475 l 5583 3461 l 6028 3474 l 6816 3722 l 7350 4064 l
 7301 4349 l 7185 4712 l 6949 5122 l 6779 5397 l 6536 5674 l
 6257 5898 l 6039 6073 l 5760 6215 l 5543 6310 l 5576 5748 l
 5503 5229 l 5366 4825 l 5199 4449 l 4701 3801 l
 4520 3650 l gs col22 1.00 shd ef gr gs col0 s gr 
% Polyline
n 2691 5895 m 2857 5277 l 3076 4870 l 3309 4492 l 3918 3933 l 4482 3642 l
 4704 3827 l 4960 4109 l 5195 4443 l 5350 4803 l 5469 5152 l
 5523 5505 l 5566 5782 l 5549 6094 l 5523 6330 l 4829 6468 l
 4205 6478 l 3782 6398 l 3369 6247 l 2967 6035 l
 2708 5886 l gs col25 1.00 shd ef gr gs col0 s gr 
% Polyline
n 13208 6087 m 12755 5634 l 12513 5241 l 12302 4849 l 12121 4043 l 12151 3409 l
 12423 3309 l 12795 3228 l 13268 3228 l 13591 3238 l 13953 3309 l
 14285 3439 l 14547 3540 l 14809 3711 l 15000 3852 l 14497 4104 l
 14084 4426 l 13802 4748 l 13560 5080 l 13248 5835 l
 13208 6067 l gs col2 1.00 shd ef gr gs col0 s gr 
% Polyline
n 16027 6530 m 15861 7149 l 15642 7555 l 15408 7934 l 14800 8493 l 14236 8784 l
 14014 8599 l 13758 8317 l 13521 7908 l 13368 7623 l 13249 7274 l
 13195 6921 l 13152 6644 l 13169 6331 l 13195 6096 l 13665 6405 l
 14151 6602 l 14570 6685 l 14979 6729 l 15789 6621 l
 16010 6540 l gs col27 1.00 shd ef gr gs col0 s gr 
% Polyline
n 15003 3865 m 15622 3700 l 16083 3686 l 16528 3699 l 17316 3947 l 17850 4289 l
 17801 4574 l 17685 4937 l 17449 5347 l 17279 5622 l 17036 5899 l
 16757 6123 l 16539 6298 l 16260 6440 l 16043 6535 l 16076 5973 l
 16003 5454 l 15866 5050 l 15699 4674 l 15201 4026 l
 15020 3875 l gs col22 1.00 shd ef gr gs col0 s gr 
% Polyline
n 13191 6120 m 13357 5502 l 13576 5095 l 13809 4717 l 14418 4158 l 14982 3867 l
 15204 4052 l 15460 4334 l 15695 4668 l 15850 5028 l 15969 5377 l
 16023 5730 l 16066 6007 l 16049 6319 l 16023 6555 l 15329 6693 l
 14705 6703 l 14282 6623 l 13869 6472 l 13467 6260 l
 13208 6111 l gs col25 1.00 shd ef gr gs col0 s gr 
15.000 slw
% Ellipse
n 2685 5865 2878 2878 0 360 DrawEllipse gs col0 s gr

% Ellipse
n 5558 6324 2878 2878 0 360 DrawEllipse gs col0 s gr

% Ellipse
n 4510 3608 2878 2878 0 360 DrawEllipse gs col-1 s gr

% Ellipse
n 13185 6090 2878 2878 0 360 DrawEllipse gs col0 s gr

% Ellipse
n 16058 6549 2878 2878 0 360 DrawEllipse gs col0 s gr

% Ellipse
n 15010 3833 2878 2878 0 360 DrawEllipse gs col-1 s gr

7.500 slw
% Ellipse
n 9079 2522 1116 1116 0 360 DrawEllipse gs col0 s gr

% Ellipse
n 9787 1647 1116 1116 0 360 DrawEllipse gs col-1 s gr

% Polyline
n 1050 6030 m 945 6030 945 6495 105 arcto 4 {pop} repeat
  945 6600 1395 6600 105 arcto 4 {pop} repeat
  1500 6600 1500 6135 105 arcto 4 {pop} repeat
  1500 6030 1050 6030 105 arcto 4 {pop} repeat
 cp gs col7 1.00 shd ef gr gs col0 s gr 
% Polyline
n 2415 3645 m 2310 3645 2310 4110 105 arcto 4 {pop} repeat
  2310 4215 2760 4215 105 arcto 4 {pop} repeat
  2865 4215 2865 3750 105 arcto 4 {pop} repeat
  2865 3645 2415 3645 105 arcto 4 {pop} repeat
 cp gs col7 1.00 shd ef gr gs col0 s gr 
% Polyline
n 5940 4290 m 5835 4290 5835 4755 105 arcto 4 {pop} repeat
  5835 4860 6285 4860 105 arcto 4 {pop} repeat
  6390 4860 6390 4395 105 arcto 4 {pop} repeat
  6390 4290 5940 4290 105 arcto 4 {pop} repeat
 cp gs col7 1.00 shd ef gr gs col0 s gr 
% Polyline
n 4650 1740 m 4545 1740 4545 2205 105 arcto 4 {pop} repeat
  4545 2310 4995 2310 105 arcto 4 {pop} repeat
  5100 2310 5100 1845 105 arcto 4 {pop} repeat
  5100 1740 4650 1740 105 arcto 4 {pop} repeat
 cp gs col7 1.00 shd ef gr gs col0 s gr 
% Polyline
n 3765 7065 m 3660 7065 3660 7530 105 arcto 4 {pop} repeat
  3660 7635 4110 7635 105 arcto 4 {pop} repeat
  4215 7635 4215 7170 105 arcto 4 {pop} repeat
  4215 7065 3765 7065 105 arcto 4 {pop} repeat
 cp gs col7 1.00 shd ef gr gs col0 s gr 
% Polyline
n 6615 6855 m 6510 6855 6510 7320 105 arcto 4 {pop} repeat
  6510 7425 6960 7425 105 arcto 4 {pop} repeat
  7065 7425 7065 6960 105 arcto 4 {pop} repeat
  7065 6855 6615 6855 105 arcto 4 {pop} repeat
 cp gs col7 1.00 shd ef gr gs col0 s gr 
% Polyline
n 4050 4905 m 3945 4905 3945 5370 105 arcto 4 {pop} repeat
  3945 5475 4395 5475 105 arcto 4 {pop} repeat
  4500 5475 4500 5010 105 arcto 4 {pop} repeat
  4500 4905 4050 4905 105 arcto 4 {pop} repeat
 cp gs col7 1.00 shd ef gr gs col0 s gr 
% Polyline
n 11550 6255 m 11445 6255 11445 6720 105 arcto 4 {pop} repeat
  11445 6825 11895 6825 105 arcto 4 {pop} repeat
  12000 6825 12000 6360 105 arcto 4 {pop} repeat
  12000 6255 11550 6255 105 arcto 4 {pop} repeat
 cp gs col7 1.00 shd ef gr gs col0 s gr 
% Polyline
n 12915 3870 m 12810 3870 12810 4335 105 arcto 4 {pop} repeat
  12810 4440 13260 4440 105 arcto 4 {pop} repeat
  13365 4440 13365 3975 105 arcto 4 {pop} repeat
  13365 3870 12915 3870 105 arcto 4 {pop} repeat
 cp gs col7 1.00 shd ef gr gs col0 s gr 
% Polyline
n 16440 4515 m 16335 4515 16335 4980 105 arcto 4 {pop} repeat
  16335 5085 16785 5085 105 arcto 4 {pop} repeat
  16890 5085 16890 4620 105 arcto 4 {pop} repeat
  16890 4515 16440 4515 105 arcto 4 {pop} repeat
 cp gs col7 1.00 shd ef gr gs col0 s gr 
% Polyline
n 15150 1965 m 15045 1965 15045 2430 105 arcto 4 {pop} repeat
  15045 2535 15495 2535 105 arcto 4 {pop} repeat
  15600 2535 15600 2070 105 arcto 4 {pop} repeat
  15600 1965 15150 1965 105 arcto 4 {pop} repeat
 cp gs col7 1.00 shd ef gr gs col0 s gr 
% Polyline
n 14265 7290 m 14160 7290 14160 7755 105 arcto 4 {pop} repeat
  14160 7860 14610 7860 105 arcto 4 {pop} repeat
  14715 7860 14715 7395 105 arcto 4 {pop} repeat
  14715 7290 14265 7290 105 arcto 4 {pop} repeat
 cp gs col7 1.00 shd ef gr gs col0 s gr 
% Polyline
n 17115 7080 m 17010 7080 17010 7545 105 arcto 4 {pop} repeat
  17010 7650 17460 7650 105 arcto 4 {pop} repeat
  17565 7650 17565 7185 105 arcto 4 {pop} repeat
  17565 7080 17115 7080 105 arcto 4 {pop} repeat
 cp gs col7 1.00 shd ef gr gs col0 s gr 
% Polyline
n 14550 5130 m 14445 5130 14445 5595 105 arcto 4 {pop} repeat
  14445 5700 14895 5700 105 arcto 4 {pop} repeat
  15000 5700 15000 5235 105 arcto 4 {pop} repeat
  15000 5130 14550 5130 105 arcto 4 {pop} repeat
 cp gs col7 1.00 shd ef gr gs col0 s gr 
/Times-Roman ff 450.00 scf sf
2486 4129 m
gs 1 -1 sc (1) col0 sh gr
/Times-Roman ff 450.00 scf sf
3826 7494 m
gs 1 -1 sc (0) col0 sh gr
/Times-Roman ff 450.00 scf sf
6691 7338 m
gs 1 -1 sc (0) col0 sh gr
/Times-Roman ff 450.00 scf sf
4105 5380 m
gs 1 -1 sc (1) col0 sh gr
/Times-Roman ff 450.00 scf sf
4720 2210 m
gs 1 -1 sc (1) col0 sh gr
/Times-Roman ff 450.00 scf sf
1108 6477 m
gs 1 -1 sc (0) col0 sh gr
/Times-Roman ff 450.00 scf sf
12986 4354 m
gs 1 -1 sc (1) col0 sh gr
/Times-Roman ff 450.00 scf sf
14326 7719 m
gs 1 -1 sc (1) col0 sh gr
/Times-Roman ff 450.00 scf sf
17191 7563 m
gs 1 -1 sc (0) col0 sh gr
/Times-Roman ff 450.00 scf sf
14605 5605 m
gs 1 -1 sc (1) col0 sh gr
/Times-Roman ff 450.00 scf sf
15220 2435 m
gs 1 -1 sc (1) col0 sh gr
/Times-Roman ff 450.00 scf sf
11608 6702 m
gs 1 -1 sc (0) col0 sh gr
/Times-Roman ff 450.00 scf sf
16515 4979 m
gs 1 -1 sc (1) col0 sh gr
/Times-Roman ff 450.00 scf sf
6015 4754 m
gs 1 -1 sc (1) col0 sh gr
/Times-Roman ff 360.00 scf sf
8505 2752 m
gs 1 -1 sc (5) col0 sh gr
/Times-Roman ff 360.00 scf sf
9026 1829 m
gs 1 -1 sc (2) col0 sh gr
/Times-Roman ff 360.00 scf sf
10588 3076 m
gs 1 -1 sc (6) col0 sh gr
/Times-Roman ff 360.00 scf sf
10390 2105 m
gs 1 -1 sc (4) col0 sh gr
/Times-Roman ff 360.00 scf sf
9824 1185 m
gs 1 -1 sc (7) col0 sh gr
/Times-Roman ff 360.00 scf sf
9637 2337 m
gs 1 -1 sc (1) col0 sh gr
/Times-Roman ff 360.00 scf sf
9498 3136 m
gs 1 -1 sc (3) col0 sh gr
$F2psEnd
rs
