%!PS-Adobe-2.0 EPSF-2.0
%%Title: 11-mod.eps
%%Creator: fig2dev Version 3.2 Patchlevel 3c
%%CreationDate: Tue Jul 31 01:00:09 2001
%%For: ajurisic@sasha (RHS Linux User)
%%BoundingBox: 0 0 440 321
%%Magnification: 1.0000
%%EndComments
/$F2psDict 200 dict def
$F2psDict begin
$F2psDict /mtrx matrix put
/col-1 {0 setgray} bind def
/col0 {0.000 0.000 0.000 srgb} bind def
/col1 {0.000 0.000 1.000 srgb} bind def
/col2 {0.000 1.000 0.000 srgb} bind def
/col3 {0.000 1.000 1.000 srgb} bind def
/col4 {1.000 0.000 0.000 srgb} bind def
/col5 {1.000 0.000 1.000 srgb} bind def
/col6 {1.000 1.000 0.000 srgb} bind def
/col7 {1.000 1.000 1.000 srgb} bind def
/col8 {0.000 0.000 0.560 srgb} bind def
/col9 {0.000 0.000 0.690 srgb} bind def
/col10 {0.000 0.000 0.820 srgb} bind def
/col11 {0.530 0.810 1.000 srgb} bind def
/col12 {0.000 0.560 0.000 srgb} bind def
/col13 {0.000 0.690 0.000 srgb} bind def
/col14 {0.000 0.820 0.000 srgb} bind def
/col15 {0.000 0.560 0.560 srgb} bind def
/col16 {0.000 0.690 0.690 srgb} bind def
/col17 {0.000 0.820 0.820 srgb} bind def
/col18 {0.560 0.000 0.000 srgb} bind def
/col19 {0.690 0.000 0.000 srgb} bind def
/col20 {0.820 0.000 0.000 srgb} bind def
/col21 {0.560 0.000 0.560 srgb} bind def
/col22 {0.690 0.000 0.690 srgb} bind def
/col23 {0.820 0.000 0.820 srgb} bind def
/col24 {0.500 0.190 0.000 srgb} bind def
/col25 {0.630 0.250 0.000 srgb} bind def
/col26 {0.750 0.380 0.000 srgb} bind def
/col27 {1.000 0.500 0.500 srgb} bind def
/col28 {1.000 0.630 0.630 srgb} bind def
/col29 {1.000 0.750 0.750 srgb} bind def
/col30 {1.000 0.880 0.880 srgb} bind def
/col31 {1.000 0.840 0.000 srgb} bind def

end
save
newpath 0 321 moveto 0 0 lineto 440 0 lineto 440 321 lineto closepath clip newpath
-108.0 359.0 translate
1 -1 scale

/cp {closepath} bind def
/ef {eofill} bind def
/gr {grestore} bind def
/gs {gsave} bind def
/sa {save} bind def
/rs {restore} bind def
/l {lineto} bind def
/m {moveto} bind def
/rm {rmoveto} bind def
/n {newpath} bind def
/s {stroke} bind def
/sh {show} bind def
/slc {setlinecap} bind def
/slj {setlinejoin} bind def
/slw {setlinewidth} bind def
/srgb {setrgbcolor} bind def
/rot {rotate} bind def
/sc {scale} bind def
/sd {setdash} bind def
/ff {findfont} bind def
/sf {setfont} bind def
/scf {scalefont} bind def
/sw {stringwidth} bind def
/tr {translate} bind def
/tnt {dup dup currentrgbcolor
  4 -2 roll dup 1 exch sub 3 -1 roll mul add
  4 -2 roll dup 1 exch sub 3 -1 roll mul add
  4 -2 roll dup 1 exch sub 3 -1 roll mul add srgb}
  bind def
/shd {dup dup currentrgbcolor 4 -2 roll mul 4 -2 roll mul
  4 -2 roll mul srgb} bind def
/$F2psBegin {$F2psDict begin /$F2psEnteredState save def} def
/$F2psEnd {$F2psEnteredState restore end} def

$F2psBegin
%%Page: 1 1
10 setmiterlimit
 0.06000 0.06000 sc
%
% Fig objects follow
%
% Polyline
7.500 slw
n 2665 2019 m 2235 3932 l 3462 5460 l 5422 5454 l 6639 3918 l 6197 2008 l
 4428 1163 l
 cp gs col0 s gr 
/Times-Roman ff 570.00 scf sf
5873 2468 m
gs 1 -1 sc (1) col0 sh gr
/Times-Roman ff 570.00 scf sf
6206 3985 m
gs 1 -1 sc (2) col0 sh gr
/Times-Roman ff 570.00 scf sf
3481 5296 m
gs 1 -1 sc (4) col0 sh gr
/Times-Roman ff 570.00 scf sf
5206 5319 m
gs 1 -1 sc (3) col0 sh gr
/Times-Roman ff 570.00 scf sf
2412 4043 m
gs 1 -1 sc (5) col0 sh gr
/Times-Roman ff 570.00 scf sf
2734 2445 m
gs 1 -1 sc (6) col0 sh gr
/Times-Roman ff 570.00 scf sf
4309 1720 m
gs 1 -1 sc (0) col0 sh gr
% Arc
gs  clippath
7243 3951 m 7362 3968 l 7409 3636 l 7308 3925 l 7291 3619 l cp
eoclip
n 4583.3 3423.9 2771.1 117.6 10.8 arc
gs col0 s gr
 gr

% arrowhead
n 7291 3619 m 7308 3925 l 7409 3636 l 7341 3687 l 7291 3619 l 
 cp gs 0.00 setgray ef gr  col0 s
% Arc
gs  clippath
3384 5653 m 3337 5764 l 3645 5895 l 3393 5723 l 3692 5785 l cp
eoclip
n 4477.6 3441.6 2526.7 -90.5 115.9 arc
gs col0 s gr
 gr

% arrowhead
n 3692 5785 m 3393 5723 l 3645 5895 l 3613 5816 l 3692 5785 l 
 cp gs 0.00 setgray ef gr  col0 s
/Times-Roman ff 450.00 scf sf
6915 4560 m
gs 1 -1 sc (4) col0 sh gr
/Times-Roman ff 450.00 scf sf
2955 1035 m
gs 1 -1 sc (5) col0 sh gr
/Times-Roman ff 600.00 scf sf
7575 4050 m
gs 1 -1 sc (2=4+5) col0 sh gr
$F2psEnd
rs
