%!PS-Adobe-2.0 EPSF-2.0
%%Title: del_skriv_varnost.eps
%%Creator: fig2dev Version 3.2 Patchlevel 3d
%%CreationDate: Tue Apr 16 00:20:36 2002
%%For: ajurisic@f9pcd8.ijs.si (Aleksandar Jurisic)
%%BoundingBox: 0 0 169 125
%%Magnification: 1.0000
%%EndComments
/$F2psDict 200 dict def
$F2psDict begin
$F2psDict /mtrx matrix put
/col-1 {0 setgray} bind def
/col0 {0.000 0.000 0.000 srgb} bind def
/col1 {0.000 0.000 1.000 srgb} bind def
/col2 {0.000 1.000 0.000 srgb} bind def
/col3 {0.000 1.000 1.000 srgb} bind def
/col4 {1.000 0.000 0.000 srgb} bind def
/col5 {1.000 0.000 1.000 srgb} bind def
/col6 {1.000 1.000 0.000 srgb} bind def
/col7 {1.000 1.000 1.000 srgb} bind def
/col8 {0.000 0.000 0.560 srgb} bind def
/col9 {0.000 0.000 0.690 srgb} bind def
/col10 {0.000 0.000 0.820 srgb} bind def
/col11 {0.530 0.810 1.000 srgb} bind def
/col12 {0.000 0.560 0.000 srgb} bind def
/col13 {0.000 0.690 0.000 srgb} bind def
/col14 {0.000 0.820 0.000 srgb} bind def
/col15 {0.000 0.560 0.560 srgb} bind def
/col16 {0.000 0.690 0.690 srgb} bind def
/col17 {0.000 0.820 0.820 srgb} bind def
/col18 {0.560 0.000 0.000 srgb} bind def
/col19 {0.690 0.000 0.000 srgb} bind def
/col20 {0.820 0.000 0.000 srgb} bind def
/col21 {0.560 0.000 0.560 srgb} bind def
/col22 {0.690 0.000 0.690 srgb} bind def
/col23 {0.820 0.000 0.820 srgb} bind def
/col24 {0.500 0.190 0.000 srgb} bind def
/col25 {0.630 0.250 0.000 srgb} bind def
/col26 {0.750 0.380 0.000 srgb} bind def
/col27 {1.000 0.500 0.500 srgb} bind def
/col28 {1.000 0.630 0.630 srgb} bind def
/col29 {1.000 0.750 0.750 srgb} bind def
/col30 {1.000 0.880 0.880 srgb} bind def
/col31 {1.000 0.840 0.000 srgb} bind def

end
save
newpath 0 125 moveto 0 0 lineto 169 0 lineto 169 125 lineto closepath clip newpath
-183.1 221.1 translate
1 -1 scale

/cp {closepath} bind def
/ef {eofill} bind def
/gr {grestore} bind def
/gs {gsave} bind def
/sa {save} bind def
/rs {restore} bind def
/l {lineto} bind def
/m {moveto} bind def
/rm {rmoveto} bind def
/n {newpath} bind def
/s {stroke} bind def
/sh {show} bind def
/slc {setlinecap} bind def
/slj {setlinejoin} bind def
/slw {setlinewidth} bind def
/srgb {setrgbcolor} bind def
/rot {rotate} bind def
/sc {scale} bind def
/sd {setdash} bind def
/ff {findfont} bind def
/sf {setfont} bind def
/scf {scalefont} bind def
/sw {stringwidth} bind def
/tr {translate} bind def
/tnt {dup dup currentrgbcolor
  4 -2 roll dup 1 exch sub 3 -1 roll mul add
  4 -2 roll dup 1 exch sub 3 -1 roll mul add
  4 -2 roll dup 1 exch sub 3 -1 roll mul add srgb}
  bind def
/shd {dup dup currentrgbcolor 4 -2 roll mul 4 -2 roll mul
  4 -2 roll mul srgb} bind def
 /DrawEllipse {
	/endangle exch def
	/startangle exch def
	/yrad exch def
	/xrad exch def
	/y exch def
	/x exch def
	/savematrix mtrx currentmatrix def
	x y tr xrad yrad sc 0 0 1 startangle endangle arc
	closepath
	savematrix setmatrix
	} def

/$F2psBegin {$F2psDict begin /$F2psEnteredState save def} def
/$F2psEnd {$F2psEnteredState restore end} def

$F2psBegin
10 setmiterlimit
 0.06000 0.06000 sc
%
% Fig objects follow
%
/Times-Italic ff 180.00 scf sf
3657 3618 m
gs 1 -1 sc (x) col0 sh gr
/Times-Roman ff 120.00 scf sf
3740 3662 m
gs 1 -1 sc (1) col0 sh gr
/Times-Italic ff 180.00 scf sf
4382 3632 m
gs 1 -1 sc (x) col0 sh gr
/Times-Roman ff 120.00 scf sf
4469 3668 m
gs 1 -1 sc (2) col0 sh gr
/Times-Italic ff 180.00 scf sf
5122 3642 m
gs 1 -1 sc (x) col0 sh gr
/Times-Roman ff 120.00 scf sf
5213 3685 m
gs 1 -1 sc (3) col0 sh gr
/Times-Italic ff 180.00 scf sf
4425 2713 m
gs 1 -1 sc (x) col0 sh gr
/Times-Roman ff 120.00 scf sf
4512 2749 m
gs 1 -1 sc (2) col0 sh gr
/Times-Roman ff 180.00 scf sf
4373 2724 m
gs 1 -1 sc (\(   \)) col0 sh gr
/Times-Italic ff 180.00 scf sf
4280 2717 m
gs 1 -1 sc (y) col0 sh gr
7.500 slw
% Ellipse
n 3326 2456 33 33 0 360 DrawEllipse gs 0.00 setgray ef gr gs col0 s gr

% Ellipse
n 4351 2416 33 33 0 360 DrawEllipse gs 0.00 setgray ef gr gs col0 s gr

% Ellipse
n 3325 1971 33 33 0 360 DrawEllipse gs 0.00 setgray ef gr gs col0 s gr

% Ellipse
n 3323 3168 33 33 0 360 DrawEllipse gs 0.00 setgray ef gr gs col0 s gr

% Ellipse
n 3324 2938 33 33 0 360 DrawEllipse gs 0.00 setgray ef gr gs col0 s gr

% Polyline
n 3325 1683 m
 3325 3658 l gs col0 s gr 
% Polyline
105.000 slw
 [15 450] 450 sd
n 3325 2983 m
 3333 1693 l gs col0 s gr  [] 0 sd
% Polyline
 [15 450] 450 sd
n 3774 3409 m
 5641 3409 l gs col0 s gr  [] 0 sd
% Polyline
7.500 slw
n 3118 3414 m
 5852 3413 l gs col0 s gr 
% Polyline
n 3132 2462 m
 5441 2377 l gs col0 s gr 
% Polyline
n 3064 1860 m
 5359 2852 l gs col0 s gr 
% Polyline
n 3114 2189 m
 5307 2592 l gs col0 s gr 
% Polyline
n 3149 3298 m
 5140 1836 l gs col0 s gr 
% Polyline
n 3123 3036 m
 5110 2036 l gs col0 s gr 
$F2psEnd
rs
