%!PS-Adobe-2.0 EPSF-2.0
%%Title: interpoly.fig
%%Creator: fig2dev Version 3.1 Patchlevel 2
%%CreationDate: Thu May 13 03:04:29 1999
%%For: ajurisic@sasha (RHS Linux User)
%Magnification: 1.00
%%Orientation: Portrait
%%BoundingBox: 0 0 531 264
%%Pages: 0
%%BeginSetup
%%IncludeFeature: *PageSize Letter
%%EndSetup
%%EndComments
/$F2psDict 200 dict def
$F2psDict begin
$F2psDict /mtrx matrix put
/col-1 {0 setgray} bind def
/col0 {0.000 0.000 0.000 srgb} bind def
/col1 {0.000 0.000 1.000 srgb} bind def
/col2 {0.000 1.000 0.000 srgb} bind def
/col3 {0.000 1.000 1.000 srgb} bind def
/col4 {1.000 0.000 0.000 srgb} bind def
/col5 {1.000 0.000 1.000 srgb} bind def
/col6 {1.000 1.000 0.000 srgb} bind def
/col7 {1.000 1.000 1.000 srgb} bind def
/col8 {0.000 0.000 0.560 srgb} bind def
/col9 {0.000 0.000 0.690 srgb} bind def
/col10 {0.000 0.000 0.820 srgb} bind def
/col11 {0.530 0.810 1.000 srgb} bind def
/col12 {0.000 0.560 0.000 srgb} bind def
/col13 {0.000 0.690 0.000 srgb} bind def
/col14 {0.000 0.820 0.000 srgb} bind def
/col15 {0.000 0.560 0.560 srgb} bind def
/col16 {0.000 0.690 0.690 srgb} bind def
/col17 {0.000 0.820 0.820 srgb} bind def
/col18 {0.560 0.000 0.000 srgb} bind def
/col19 {0.690 0.000 0.000 srgb} bind def
/col20 {0.820 0.000 0.000 srgb} bind def
/col21 {0.560 0.000 0.560 srgb} bind def
/col22 {0.690 0.000 0.690 srgb} bind def
/col23 {0.820 0.000 0.820 srgb} bind def
/col24 {0.500 0.190 0.000 srgb} bind def
/col25 {0.630 0.250 0.000 srgb} bind def
/col26 {0.750 0.380 0.000 srgb} bind def
/col27 {1.000 0.500 0.500 srgb} bind def
/col28 {1.000 0.630 0.630 srgb} bind def
/col29 {1.000 0.750 0.750 srgb} bind def
/col30 {1.000 0.880 0.880 srgb} bind def
/col31 {1.000 0.840 0.000 srgb} bind def

end
save
-53.0 276.0 translate
1 -1 scale

/cp {closepath} bind def
/ef {eofill} bind def
/gr {grestore} bind def
/gs {gsave} bind def
/sa {save} bind def
/rs {restore} bind def
/l {lineto} bind def
/m {moveto} bind def
/rm {rmoveto} bind def
/n {newpath} bind def
/s {stroke} bind def
/sh {show} bind def
/slc {setlinecap} bind def
/slj {setlinejoin} bind def
/slw {setlinewidth} bind def
/srgb {setrgbcolor} bind def
/rot {rotate} bind def
/sc {scale} bind def
/sd {setdash} bind def
/ff {findfont} bind def
/sf {setfont} bind def
/scf {scalefont} bind def
/sw {stringwidth} bind def
/tr {translate} bind def
/tnt {dup dup currentrgbcolor
  4 -2 roll dup 1 exch sub 3 -1 roll mul add
  4 -2 roll dup 1 exch sub 3 -1 roll mul add
  4 -2 roll dup 1 exch sub 3 -1 roll mul add srgb}
  bind def
/shd {dup dup currentrgbcolor 4 -2 roll mul 4 -2 roll mul
  4 -2 roll mul srgb} bind def
 /DrawEllipse {
	/endangle exch def
	/startangle exch def
	/yrad exch def
	/xrad exch def
	/y exch def
	/x exch def
	/savematrix mtrx currentmatrix def
	x y tr xrad yrad sc 0 0 1 startangle endangle arc
	closepath
	savematrix setmatrix
	} def

/$F2psBegin {$F2psDict begin /$F2psEnteredState save def} def
/$F2psEnd {$F2psEnteredState restore end} def
%%EndProlog

$F2psBegin
10 setmiterlimit
n 0 792 m 0 0 l 612 0 l 612 792 l cp clip
 0.06000 0.06000 sc
7.500 slw
% Ellipse
n 6540 2422 22 22 0 360 DrawEllipse gs col7 0.00 shd ef gr gs col-1 s gr

% Ellipse
n 6618 2298 22 22 0 360 DrawEllipse gs col7 0.00 shd ef gr gs col-1 s gr

% Ellipse
n 6705 2167 22 22 0 360 DrawEllipse gs col7 0.00 shd ef gr gs col-1 s gr

% Ellipse
n 2400 4192 21 21 0 360 DrawEllipse gs col7 0.00 shd ef gr gs col-1 s gr

% Ellipse
n 3375 4192 21 21 0 360 DrawEllipse gs col7 0.00 shd ef gr gs col-1 s gr

% Ellipse
n 6067 4200 21 21 0 360 DrawEllipse gs col7 0.00 shd ef gr gs col-1 s gr

% Ellipse
n 7350 4200 21 21 0 360 DrawEllipse gs col7 0.00 shd ef gr gs col-1 s gr

% Ellipse
n 1792 1695 40 40 0 360 DrawEllipse gs col7 0.00 shd ef gr gs col-1 s gr

% Ellipse
n 2392 1342 40 40 0 360 DrawEllipse gs col7 0.00 shd ef gr gs col-1 s gr

% Ellipse
n 3367 1552 40 40 0 360 DrawEllipse gs col7 0.00 shd ef gr gs col-1 s gr

% Ellipse
n 6060 3165 40 40 0 360 DrawEllipse gs col7 0.00 shd ef gr gs col-1 s gr

% Ellipse
n 7357 1522 40 40 0 360 DrawEllipse gs col7 0.00 shd ef gr gs col-1 s gr

% Polyline
gs  clippath
9273 4170 m 9393 4200 l 9273 4230 l 9435 4230 l 9435 4170 l  cp clip
1770 462 m 1800 342 l 1830 462 l 1830 300 l 1770 300 l  cp clip
n 1800 315 m 1800 4200 l 9420 4200 l gs col-1 s gr gr

% arrowhead
n 1770 462 m 1800 342 l 1830 462 l  col-1 s
% arrowhead
n 9273 4170 m 9393 4200 l 9273 4230 l  col-1 s
% Polyline
 [66.7] 0 sd
n 6067 4200 m 6060 3165 l gs col-1 s gr  [] 0 sd
% Polyline
 [66.7] 0 sd
n 7357 4230 m 7357 1530 l gs col-1 s gr  [] 0 sd
% Polyline
 [66.7] 0 sd
n 2400 4200 m 2400 1342 l gs col-1 s gr  [] 0 sd
% Polyline
 [66.7] 0 sd
n 3375 4200 m 3367 1552 l gs col-1 s gr  [] 0 sd
% Interp Spline
gs n 6825 1950 m
	7144.6 1620.8 7313.3 1508.3 7500 1500 curveto
	7716.2 1490.4 7922.5 1602.9 8325 1950 curveto
 gs col-1 s gr
 gr

% Interp Spline
gs n 900 2700 m
	1711.1 1636.5 2179.8 1280.3 2775 1275 curveto
	3266.6 1270.6 3696.2 1922.1 3952 2137 curveto
	4086.9 2250.3 4359.6 2566.3 4507 2670 curveto
	4778.1 2860.8 5312.2 3375.7 5775 3300 curveto
	6009.0 3261.7 6177.8 3093.0 6450 2625 curveto
 gs col-1 s gr
 gr

/Times-Italic ff 300.00 scf sf
1575 360 m
gs 1 -1 sc (y) col-1 sh gr
/Times-Roman ff 270.00 scf sf
2385 1215 m
gs 1 -1 sc (1) col-1 sh gr
/Times-Italic ff 450.00 scf sf
5985 4470 m
gs 1 -1 sc (x) col-1 sh gr
/Times-Roman ff 270.00 scf sf
3367 1463 m
gs 1 -1 sc (2) col-1 sh gr
/Times-Italic ff 300.00 scf sf
9600 4365 m
gs 1 -1 sc (x) col-1 sh gr
/Times-Italic ff 450.00 scf sf
7185 4470 m
gs 1 -1 sc (x) col-1 sh gr
/Times-Italic ff 450.00 scf sf
2235 4470 m
gs 1 -1 sc (x) col-1 sh gr
/Times-Italic ff 450.00 scf sf
3210 4470 m
gs 1 -1 sc (x) col-1 sh gr
/Times-Italic ff 450.00 scf sf
1447 1725 m
gs 1 -1 sc (P) col-1 sh gr
/Times-Roman ff 270.00 scf sf
2430 4553 m
gs 1 -1 sc (1) col-1 sh gr
/Times-Roman ff 270.00 scf sf
3420 4559 m
gs 1 -1 sc (2) col-1 sh gr
/Times-Roman ff 270.00 scf sf
6015 3007 m
gs 1 -1 sc (3) col-1 sh gr
/Times-Roman ff 270.00 scf sf
6180 4553 m
gs 1 -1 sc (3) col-1 sh gr
/Times-Italic ff 300.00 scf sf
7290 1425 m
gs 1 -1 sc (n) col-1 sh gr
/Times-Italic ff 300.00 scf sf
8767 2070 m
gs 1 -1 sc (t) col-1 sh gr
/Times-Italic ff 450.00 scf sf
8453 2213 m
gs 1 -1 sc (P) col-1 sh gr
/Times-Italic ff 450.00 scf sf
9263 2243 m
gs 1 -1 sc (x) col-1 sh gr
/Times-Roman ff 450.00 scf sf
9149 2235 m
gs 1 -1 sc (\( \)) col-1 sh gr
/Times-Italic ff 450.00 scf sf
3225 1335 m
gs 1 -1 sc (P) col-1 sh gr
/Times-Italic ff 450.00 scf sf
2265 1087 m
gs 1 -1 sc (P) col-1 sh gr
/Times-Italic ff 450.00 scf sf
5874 2873 m
gs 1 -1 sc (P) col-1 sh gr
/Times-Italic ff 450.00 scf sf
7139 1305 m
gs 1 -1 sc (P) col-1 sh gr
/Times-Italic ff 300.00 scf sf
7403 4553 m
gs 1 -1 sc (n) col-1 sh gr
/Times-Roman ff 270.00 scf sf
8895 2085 m
gs 1 -1 sc (-1) col-1 sh gr
$F2psEnd
rs
